{
  "rates": {
    "CAD": 1.5497,
    "HKD": 9.2404,
    "ISK": 159,
    "PHP": 57.375,
    "DKK": 7.4415,
    "HUF": 362.32,
    "CZK": 26.213,
    "AUD": 1.6182,
    "RON": 4.8736,
    "SEK": 10.1723,
    "IDR": 16868.74,
    "INR": 88.3015,
    "BRL": 6.4021,
    "RUB": 90.9894,
    "HRK": 7.5577,
    "JPY": 124.23,
    "THB": 36.148,
    "CHF": 1.0826,
    "SGD": 1.5955,
    "PLN": 4.4907,
    "BGN": 1.9558,
    "TRY": 9.3286,
    "CNY": 7.8422,
    "NOK": 10.563,
    "NZD": 1.7,
    "ZAR": 18.2657,
    "USD": 1.1922,
    "MXN": 23.9402,
    "ILS": 3.9557,
    "GBP": 0.89442,
    "KRW": 1318.04,
    "MYR": 4.8517
  },
  "base": "EUR",
  "date": "2020-11-27"
}
