Id,Admit,Gender
2846,Rejected,Male
4163,Rejected,Male
544,Rejected,Male
370,Admitted,Male
4297,Rejected,Female
2470,Admitted,Male
1269,Admitted,Male
4443,Rejected,Female
1770,Rejected,Male
835,Admitted,Female
1053,Admitted,Male
2349,Rejected,Female
2072,Rejected,Female
3007,Rejected,Female
2993,Rejected,Female
3396,Rejected,Male
3020,Rejected,Female
305,Admitted,Male
906,Admitted,Female
91,Admitted,Male
1963,Admitted,Female
4159,Rejected,Male
2215,Rejected,Female
3544,Rejected,Female
3835,Rejected,Male
1239,Admitted,Male
3158,Rejected,Female
3309,Rejected,Male
2181,Rejected,Female
405,Admitted,Male
1280,Admitted,Male
1010,Admitted,Male
184,Admitted,Male
3300,Rejected,Male
1252,Admitted,Male
3421,Admitted,Female
278,Admitted,Male
2676,Rejected,Male
2947,Admitted,Female
2536,Admitted,Male
699,Rejected,Male
4281,Rejected,Female
3680,Rejected,Female
3488,Admitted,Female
3726,Rejected,Female
4254,Rejected,Female
3092,Rejected,Female
2393,Rejected,Female
2213,Rejected,Female
2381,Rejected,Female
787,Rejected,Male
4270,Rejected,Female
3526,Rejected,Female
3493,Admitted,Female
608,Rejected,Male
1389,Rejected,Male
1253,Admitted,Male
4434,Rejected,Female
1665,Rejected,Male
1105,Admitted,Male
3581,Rejected,Female
3022,Rejected,Female
3154,Rejected,Female
2347,Rejected,Female
2136,Rejected,Female
888,Admitted,Female
3472,Admitted,Female
1131,Admitted,Male
1139,Admitted,Male
3550,Rejected,Female
2398,Rejected,Female
894,Admitted,Female
3113,Rejected,Female
2182,Rejected,Female
220,Admitted,Male
499,Admitted,Male
2065,Rejected,Female
2437,Admitted,Male
4382,Rejected,Female
1086,Admitted,Male
1354,Rejected,Male
1970,Admitted,Female
937,Admitted,Male
3293,Rejected,Male
3829,Admitted,Male
1577,Admitted,Male
3498,Admitted,Female
945,Admitted,Male
3305,Rejected,Male
3339,Rejected,Male
1787,Rejected,Male
2402,Rejected,Female
537,Rejected,Male
1156,Admitted,Male
2139,Rejected,Female
3179,Rejected,Female
4216,Rejected,Female
1590,Admitted,Male
1451,Rejected,Male
153,Admitted,Male
1768,Rejected,Male
2758,Rejected,Male
436,Admitted,Male
4276,Rejected,Female
1412,Rejected,Male
3079,Rejected,Female
3799,Rejected,Female
1147,Admitted,Male
1676,Rejected,Male
1951,Admitted,Female
76,Admitted,Male
1884,Admitted,Female
2539,Admitted,Male
505,Admitted,Male
3410,Rejected,Male
2422,Rejected,Female
1452,Rejected,Male
1090,Admitted,Male
534,Rejected,Male
782,Rejected,Male
1281,Admitted,Male
2834,Rejected,Male
1047,Admitted,Male
2672,Rejected,Male
2023,Admitted,Female
2313,Rejected,Female
2870,Admitted,Female
1310,Rejected,Male
363,Admitted,Male
1273,Admitted,Male
820,Rejected,Male
2057,Rejected,Female
4498,Rejected,Female
1185,Admitted,Male
2774,Rejected,Male
2189,Rejected,Female
1854,Admitted,Female
1398,Rejected,Male
3616,Rejected,Female
1429,Rejected,Male
766,Rejected,Male
414,Admitted,Male
3221,Rejected,Female
2496,Admitted,Male
1913,Admitted,Female
3175,Rejected,Female
1771,Rejected,Male
1455,Rejected,Male
1556,Admitted,Male
1444,Rejected,Male
863,Admitted,Female
4495,Rejected,Female
1776,Rejected,Male
1514,Rejected,Female
4519,Rejected,Female
935,Admitted,Male
85,Admitted,Male
1232,Admitted,Male
2463,Admitted,Male
3405,Rejected,Male
1657,Rejected,Male
4045,Rejected,Male
715,Rejected,Male
2467,Admitted,Male
4019,Rejected,Male
1580,Admitted,Male
3636,Rejected,Female
3947,Rejected,Male
1337,Rejected,Male
3038,Rejected,Female
3744,Rejected,Female
1432,Rejected,Male
18,Admitted,Male
543,Rejected,Male
2621,Rejected,Male
4086,Rejected,Male
2687,Rejected,Male
455,Admitted,Male
3894,Rejected,Male
3247,Admitted,Male
3633,Rejected,Female
3499,Admitted,Female
1143,Admitted,Male
974,Admitted,Male
761,Rejected,Male
3798,Rejected,Female
1284,Admitted,Male
3804,Rejected,Female
708,Rejected,Male
980,Admitted,Male
3948,Rejected,Male
680,Rejected,Male
3287,Rejected,Male
1411,Rejected,Male
2709,Rejected,Male
652,Rejected,Male
1843,Rejected,Male
431,Admitted,Male
2294,Rejected,Female
1799,Rejected,Male
1109,Admitted,Male
2841,Rejected,Male
2019,Admitted,Female
664,Rejected,Male
3879,Rejected,Male
1344,Rejected,Male
3191,Rejected,Female
538,Rejected,Male
2574,Admitted,Male
2493,Admitted,Male
2884,Admitted,Female
3021,Rejected,Female
3575,Rejected,Female
3777,Rejected,Female
3933,Rejected,Male
2077,Rejected,Female
1383,Rejected,Male
993,Admitted,Male
2979,Admitted,Female
3123,Rejected,Female
4430,Rejected,Female
3378,Rejected,Male
3009,Rejected,Female
2021,Admitted,Female
4432,Rejected,Female
3234,Admitted,Male
3389,Rejected,Male
1883,Admitted,Female
872,Admitted,Female
4427,Rejected,Female
2104,Rejected,Female
4275,Rejected,Female
3900,Rejected,Male
2444,Admitted,Male
2647,Rejected,Male
2904,Admitted,Female
1560,Admitted,Male
753,Rejected,Male
4420,Rejected,Female
2138,Rejected,Female
1802,Rejected,Male
521,Rejected,Male
304,Admitted,Male
925,Rejected,Female
1912,Admitted,Female
1160,Admitted,Male
1553,Admitted,Male
1255,Admitted,Male
3979,Rejected,Male
1570,Admitted,Male
1928,Admitted,Female
4056,Rejected,Male
3050,Rejected,Female
1512,Rejected,Female
4129,Rejected,Male
107,Admitted,Male
2800,Rejected,Male
1831,Rejected,Male
1655,Rejected,Male
2434,Rejected,Female
2646,Rejected,Male
393,Admitted,Male
1683,Rejected,Male
201,Admitted,Male
1331,Rejected,Male
573,Rejected,Male
1227,Admitted,Male
2188,Rejected,Female
2432,Rejected,Female
4319,Rejected,Female
2972,Admitted,Female
1749,Rejected,Male
1311,Rejected,Male
2274,Rejected,Female
297,Admitted,Male
3819,Admitted,Male
4418,Rejected,Female
1820,Rejected,Male
4002,Rejected,Male
2022,Admitted,Female
1572,Admitted,Male
574,Rejected,Male
1365,Rejected,Male
1840,Rejected,Male
833,Admitted,Female
3051,Rejected,Female
3666,Rejected,Female
1937,Admitted,Female
4438,Rejected,Female
883,Admitted,Female
1313,Rejected,Male
2477,Admitted,Male
1404,Rejected,Male
1288,Rejected,Male
3928,Rejected,Male
2159,Rejected,Female
2101,Rejected,Female
1124,Admitted,Male
2733,Rejected,Male
1620,Admitted,Male
1212,Admitted,Male
2450,Admitted,Male
1125,Admitted,Male
2239,Rejected,Female
3776,Rejected,Female
164,Admitted,Male
3129,Rejected,Female
366,Admitted,Male
3054,Rejected,Female
4258,Rejected,Female
1121,Admitted,Male
3274,Admitted,Male
3043,Rejected,Female
4029,Rejected,Male
4403,Rejected,Female
4321,Rejected,Female
1547,Admitted,Male
584,Rejected,Male
2394,Rejected,Female
1629,Admitted,Male
4058,Rejected,Male
1986,Admitted,Female
1282,Admitted,Male
2756,Rejected,Male
3530,Rejected,Female
1797,Rejected,Male
90,Admitted,Male
3632,Rejected,Female
884,Admitted,Female
4209,Admitted,Female
549,Rejected,Male
3086,Rejected,Female
4027,Rejected,Male
1094,Admitted,Male
1373,Rejected,Male
2216,Rejected,Female
2229,Rejected,Female
4130,Rejected,Male
509,Admitted,Male
1484,Rejected,Male
4034,Rejected,Male
1833,Rejected,Male
4040,Rejected,Male
2608,Rejected,Male
4497,Rejected,Female
1390,Rejected,Male
2112,Rejected,Female
3166,Rejected,Female
465,Admitted,Male
976,Admitted,Male
2727,Rejected,Male
4503,Rejected,Female
3999,Rejected,Male
3135,Rejected,Female
2176,Rejected,Female
3364,Rejected,Male
2836,Rejected,Male
2544,Admitted,Male
103,Admitted,Male
4075,Rejected,Male
1726,Rejected,Male
563,Rejected,Male
1568,Admitted,Male
3174,Rejected,Female
3385,Rejected,Male
4395,Rejected,Female
2612,Rejected,Male
3150,Rejected,Female
3838,Rejected,Male
3065,Rejected,Female
4294,Rejected,Female
1386,Rejected,Male
2770,Rejected,Male
3749,Rejected,Female
4178,Rejected,Male
2837,Rejected,Male
2312,Rejected,Female
4482,Rejected,Female
2517,Admitted,Male
4098,Rejected,Male
3510,Admitted,Female
2926,Admitted,Female
1548,Admitted,Male
1716,Rejected,Male
3180,Rejected,Female
1573,Admitted,Male
2086,Rejected,Female
2340,Rejected,Female
1533,Admitted,Male
2026,Admitted,Female
2414,Rejected,Female
4082,Rejected,Male
4352,Rejected,Female
2541,Admitted,Male
4149,Rejected,Male
3237,Admitted,Male
858,Admitted,Female
3934,Rejected,Male
407,Admitted,Male
3357,Rejected,Male
718,Rejected,Male
1847,Admitted,Female
3785,Rejected,Female
3603,Rejected,Female
4411,Rejected,Female
503,Admitted,Male
1285,Admitted,Male
3997,Rejected,Male
2629,Rejected,Male
2991,Rejected,Female
3890,Rejected,Male
3047,Rejected,Female
963,Admitted,Male
417,Admitted,Male
3881,Rejected,Male
4102,Rejected,Male
2811,Rejected,Male
2102,Rejected,Female
3552,Rejected,Female
3085,Rejected,Female
672,Rejected,Male
100,Admitted,Male
1434,Rejected,Male
3643,Rejected,Female
4308,Rejected,Female
1715,Rejected,Male
1005,Admitted,Male
3990,Rejected,Male
4074,Rejected,Male
2922,Admitted,Female
3414,Rejected,Male
71,Admitted,Male
3889,Rejected,Male
3606,Rejected,Female
3748,Rejected,Female
1085,Admitted,Male
1408,Rejected,Male
2251,Rejected,Female
2906,Admitted,Female
390,Admitted,Male
2663,Rejected,Male
2119,Rejected,Female
3368,Rejected,Male
1925,Admitted,Female
1706,Rejected,Male
2468,Admitted,Male
3489,Admitted,Female
1896,Admitted,Female
250,Admitted,Male
1545,Admitted,Male
526,Rejected,Male
1332,Rejected,Male
3871,Rejected,Male
504,Admitted,Male
2131,Rejected,Female
1741,Rejected,Male
1103,Admitted,Male
148,Admitted,Male
2916,Admitted,Female
4022,Rejected,Male
1762,Rejected,Male
2068,Rejected,Female
214,Admitted,Male
4309,Rejected,Female
2759,Rejected,Male
120,Admitted,Male
328,Admitted,Male
2896,Admitted,Female
653,Rejected,Male
2952,Admitted,Female
697,Rejected,Male
3644,Rejected,Female
673,Rejected,Male
1498,Admitted,Female
1535,Admitted,Male
1605,Admitted,Male
1526,Admitted,Male
2592,Rejected,Male
1725,Rejected,Male
1142,Admitted,Male
1873,Admitted,Female
2741,Rejected,Male
1798,Rejected,Male
64,Admitted,Male
3136,Rejected,Female
1055,Admitted,Male
3698,Rejected,Female
4271,Rejected,Female
3742,Rejected,Female
3858,Rejected,Male
3898,Rejected,Male
3073,Rejected,Female
1826,Rejected,Male
1947,Admitted,Female
1689,Rejected,Male
3131,Rejected,Female
3739,Rejected,Female
1014,Admitted,Male
3162,Rejected,Female
4249,Rejected,Female
324,Admitted,Male
326,Admitted,Male
2649,Rejected,Male
1563,Admitted,Male
471,Admitted,Male
2860,Admitted,Female
1579,Admitted,Male
1249,Admitted,Male
3875,Rejected,Male
2805,Rejected,Male
3578,Rejected,Female
663,Rejected,Male
3008,Rejected,Female
3546,Rejected,Female
452,Admitted,Male
3338,Rejected,Male
4390,Rejected,Female
2911,Admitted,Female
3587,Rejected,Female
2555,Admitted,Male
3068,Rejected,Female
2302,Rejected,Female
955,Admitted,Male
2376,Rejected,Female
2942,Admitted,Female
598,Rejected,Male
3322,Rejected,Male
2680,Rejected,Male
1698,Rejected,Male
3404,Rejected,Male
969,Admitted,Male
3888,Rejected,Male
4473,Rejected,Female
1066,Admitted,Male
3107,Rejected,Female
579,Rejected,Male
2591,Rejected,Male
3670,Rejected,Female
3151,Rejected,Female
1372,Rejected,Male
659,Rejected,Male
318,Admitted,Male
2839,Rejected,Male
170,Admitted,Male
3435,Admitted,Female
2548,Admitted,Male
882,Admitted,Female
1161,Admitted,Male
1058,Admitted,Male
1949,Admitted,Female
1745,Rejected,Male
620,Rejected,Male
460,Admitted,Male
3439,Admitted,Female
3846,Rejected,Male
3778,Rejected,Female
1492,Rejected,Male
4132,Rejected,Male
439,Admitted,Male
3635,Rejected,Female
3596,Rejected,Female
4267,Rejected,Female
4494,Rejected,Female
3487,Admitted,Female
3102,Rejected,Female
1693,Rejected,Male
371,Admitted,Male
3564,Rejected,Female
167,Admitted,Male
992,Admitted,Male
50,Admitted,Male
4127,Rejected,Male
2245,Rejected,Female
65,Admitted,Male
614,Rejected,Male
2225,Rejected,Female
4126,Rejected,Male
696,Rejected,Male
3535,Rejected,Female
1760,Rejected,Male
2167,Rejected,Female
2707,Rejected,Male
2412,Rejected,Female
2162,Rejected,Female
4417,Rejected,Female
550,Rejected,Male
239,Admitted,Male
4123,Rejected,Male
1681,Rejected,Male
1427,Rejected,Male
4097,Rejected,Male
462,Admitted,Male
3809,Rejected,Female
454,Admitted,Male
3971,Rejected,Male
2868,Admitted,Female
1816,Rejected,Male
2293,Rejected,Female
2255,Rejected,Female
1270,Admitted,Male
4322,Rejected,Female
226,Admitted,Male
1561,Admitted,Male
1946,Admitted,Female
1112,Admitted,Male
3651,Rejected,Female
4378,Rejected,Female
660,Rejected,Male
4384,Rejected,Female
221,Admitted,Male
1956,Admitted,Female
42,Admitted,Male
4174,Rejected,Male
3317,Rejected,Male
234,Admitted,Male
827,Admitted,Female
3182,Rejected,Female
2009,Admitted,Female
1786,Rejected,Male
2999,Rejected,Female
688,Rejected,Male
2454,Admitted,Male
1442,Rejected,Male
3611,Rejected,Female
4016,Rejected,Male
1654,Rejected,Male
3392,Rejected,Male
293,Admitted,Male
1782,Rejected,Male
3658,Rejected,Female
4085,Rejected,Male
2957,Admitted,Female
2934,Admitted,Female
3037,Rejected,Female
2013,Admitted,Female
4493,Rejected,Female
2045,Admitted,Female
174,Admitted,Male
3329,Rejected,Male
384,Admitted,Male
230,Admitted,Male
2537,Admitted,Male
4052,Rejected,Male
2842,Rejected,Male
2699,Rejected,Male
3110,Rejected,Female
752,Rejected,Male
3758,Rejected,Female
2085,Rejected,Female
4021,Rejected,Male
3279,Admitted,Male
3067,Rejected,Female
1651,Rejected,Male
1989,Admitted,Female
3537,Rejected,Female
2931,Admitted,Female
4413,Rejected,Female
1193,Admitted,Male
1191,Admitted,Male
2637,Rejected,Male
3377,Rejected,Male
1872,Admitted,Female
1661,Rejected,Male
3582,Rejected,Female
2220,Rejected,Female
2566,Admitted,Male
3505,Admitted,Female
3112,Rejected,Female
3255,Admitted,Male
3795,Rejected,Female
2581,Rejected,Male
3256,Admitted,Male
2518,Admitted,Male
3626,Rejected,Female
3114,Rejected,Female
1519,Admitted,Male
3712,Rejected,Female
3259,Admitted,Male
1208,Admitted,Male
806,Rejected,Male
2490,Admitted,Male
3977,Rejected,Male
3834,Admitted,Male
4009,Rejected,Male
3711,Rejected,Female
2476,Admitted,Male
4084,Rejected,Male
1341,Rejected,Male
4204,Admitted,Female
3014,Rejected,Female
1299,Rejected,Male
386,Admitted,Male
2107,Rejected,Female
4440,Rejected,Female
3988,Rejected,Male
2078,Rejected,Female
192,Admitted,Male
1357,Rejected,Male
313,Admitted,Male
2184,Rejected,Female
2527,Admitted,Male
633,Rejected,Male
1336,Rejected,Male
770,Rejected,Male
1945,Admitted,Female
2024,Admitted,Female
1199,Admitted,Male
2305,Rejected,Female
4111,Rejected,Male
1076,Admitted,Male
781,Rejected,Male
1866,Admitted,Female
287,Admitted,Male
922,Rejected,Female
1278,Admitted,Male
1644,Rejected,Male
2917,Admitted,Female
1289,Rejected,Male
3163,Rejected,Female
1727,Rejected,Male
1917,Admitted,Female
533,Rejected,Male
3801,Rejected,Female
4311,Rejected,Female
3982,Rejected,Male
2165,Rejected,Female
4003,Rejected,Male
3903,Rejected,Male
896,Admitted,Female
2106,Rejected,Female
1630,Admitted,Male
1123,Admitted,Male
4358,Rejected,Female
2066,Rejected,Female
161,Admitted,Male
975,Admitted,Male
2861,Admitted,Female
2369,Rejected,Female
2201,Rejected,Female
311,Admitted,Male
251,Admitted,Male
1950,Admitted,Female
3650,Rejected,Female
3667,Rejected,Female
2966,Admitted,Female
470,Admitted,Male
1855,Admitted,Female
1425,Rejected,Male
1362,Rejected,Male
2955,Admitted,Female
3656,Rejected,Female
445,Admitted,Male
1702,Rejected,Male
1181,Admitted,Male
3452,Admitted,Female
1213,Admitted,Male
1943,Admitted,Female
1893,Admitted,Female
2673,Rejected,Male
1290,Rejected,Male
3689,Rejected,Female
4405,Rejected,Female
3492,Admitted,Female
3023,Rejected,Female
919,Rejected,Female
3590,Rejected,Female
4507,Rejected,Female
4453,Rejected,Female
207,Admitted,Male
3187,Rejected,Female
1220,Admitted,Male
899,Admitted,Female
3604,Rejected,Female
3130,Rejected,Female
725,Rejected,Male
378,Admitted,Male
1314,Rejected,Male
459,Admitted,Male
1688,Rejected,Male
4406,Rejected,Female
1858,Admitted,Female
2732,Rejected,Male
2117,Rejected,Female
1000,Admitted,Male
3142,Rejected,Female
3056,Rejected,Female
2958,Admitted,Female
1566,Admitted,Male
3260,Admitted,Male
2747,Rejected,Male
2324,Rejected,Female
3427,Admitted,Female
2712,Rejected,Male
3413,Rejected,Male
1800,Rejected,Male
3628,Rejected,Female
1446,Rejected,Male
3077,Rejected,Female
1515,Rejected,Female
3242,Admitted,Male
4463,Rejected,Female
2683,Rejected,Male
152,Admitted,Male
3204,Rejected,Female
1030,Admitted,Male
2681,Rejected,Male
4399,Rejected,Female
3512,Admitted,Female
2081,Rejected,Female
1924,Admitted,Female
1417,Rejected,Male
2110,Rejected,Female
1696,Rejected,Male
716,Rejected,Male
1127,Admitted,Male
3771,Rejected,Female
2506,Admitted,Male
2689,Rejected,Male
1367,Rejected,Male
3637,Rejected,Female
3226,Rejected,Female
4262,Rejected,Female
515,Rejected,Male
1135,Admitted,Male
3936,Rejected,Male
114,Admitted,Male
4118,Rejected,Male
2196,Rejected,Female
1576,Admitted,Male
2427,Rejected,Female
3397,Rejected,Male
564,Rejected,Male
2516,Admitted,Male
846,Admitted,Female
63,Admitted,Male
419,Admitted,Male
1166,Admitted,Male
2262,Rejected,Female
994,Admitted,Male
2058,Rejected,Female
1312,Rejected,Male
2399,Rejected,Female
2447,Admitted,Male
2166,Rejected,Female
49,Admitted,Male
801,Rejected,Male
1150,Admitted,Male
2643,Rejected,Male
630,Rejected,Male
2282,Rejected,Female
1480,Rejected,Male
373,Admitted,Male
3561,Rejected,Female
4265,Rejected,Female
150,Admitted,Male
947,Admitted,Male
2678,Rejected,Male
342,Admitted,Male
4044,Rejected,Male
726,Rejected,Male
1700,Rejected,Male
1465,Rejected,Male
4109,Rejected,Male
1694,Rejected,Male
4431,Rejected,Female
481,Admitted,Male
2272,Rejected,Female
3095,Rejected,Female
1490,Rejected,Male
3190,Rejected,Female
2634,Rejected,Male
936,Admitted,Male
2008,Admitted,Female
1477,Rejected,Male
4464,Rejected,Female
2172,Rejected,Female
566,Rejected,Male
1170,Admitted,Male
3965,Rejected,Male
128,Admitted,Male
1065,Admitted,Male
4332,Rejected,Female
907,Admitted,Female
4491,Rejected,Female
3133,Rejected,Female
3964,Rejected,Male
1016,Admitted,Male
1478,Rejected,Male
2443,Admitted,Male
60,Admitted,Male
1513,Rejected,Female
2400,Rejected,Female
4514,Rejected,Female
1961,Admitted,Female
1603,Admitted,Male
2384,Rejected,Female
3980,Rejected,Male
4193,Admitted,Female
4312,Rejected,Female
2151,Rejected,Female
3515,Rejected,Female
3709,Rejected,Female
1292,Rejected,Male
3104,Rejected,Female
3953,Rejected,Male
2335,Rejected,Female
2933,Admitted,Female
322,Admitted,Male
2703,Rejected,Male
3937,Rejected,Male
3782,Rejected,Female
1400,Rejected,Male
22,Admitted,Male
3828,Admitted,Male
3743,Rejected,Female
3873,Rejected,Male
3872,Rejected,Male
2767,Rejected,Male
1541,Admitted,Male
1046,Admitted,Male
1401,Rejected,Male
1059,Admitted,Male
1459,Rejected,Male
2641,Rejected,Male
1306,Rejected,Male
2301,Rejected,Female
1880,Admitted,Female
3224,Rejected,Female
3562,Rejected,Female
2545,Admitted,Male
4037,Rejected,Male
895,Admitted,Female
4145,Rejected,Male
31,Admitted,Male
3951,Rejected,Male
1315,Rejected,Male
1260,Admitted,Male
4137,Rejected,Male
1588,Admitted,Male
910,Admitted,Female
2042,Admitted,Female
2798,Rejected,Male
3851,Rejected,Male
592,Rejected,Male
746,Rejected,Male
1516,Rejected,Female
486,Admitted,Male
2316,Rejected,Female
1356,Rejected,Male
2092,Rejected,Female
3026,Rejected,Female
453,Admitted,Male
3534,Rejected,Female
1134,Admitted,Male
3263,Admitted,Male
627,Rejected,Male
750,Rejected,Male
1057,Admitted,Male
2605,Rejected,Male
751,Rejected,Male
4354,Rejected,Female
4398,Rejected,Female
2279,Rejected,Female
191,Admitted,Male
4410,Rejected,Female
3340,Rejected,Male
3938,Rejected,Male
2114,Rejected,Female
312,Admitted,Male
1017,Admitted,Male
4142,Rejected,Male
468,Admitted,Male
1035,Admitted,Male
1018,Admitted,Male
808,Rejected,Male
4401,Rejected,Female
575,Rejected,Male
4369,Rejected,Female
2227,Rejected,Female
1663,Rejected,Male
625,Rejected,Male
62,Admitted,Male
2795,Rejected,Male
2752,Rejected,Male
1734,Rejected,Male
3185,Rejected,Female
175,Admitted,Male
3320,Rejected,Male
4110,Rejected,Male
4250,Rejected,Female
299,Admitted,Male
3208,Rejected,Female
3265,Admitted,Male
2831,Rejected,Male
4172,Rejected,Male
1485,Rejected,Male
1549,Admitted,Male
2776,Rejected,Male
2981,Admitted,Female
2378,Rejected,Female
3993,Rejected,Male
1221,Admitted,Male
2179,Rejected,Female
2269,Rejected,Female
1294,Rejected,Male
1034,Admitted,Male
1523,Admitted,Male
497,Admitted,Male
70,Admitted,Male
4183,Rejected,Male
1276,Admitted,Male
2816,Rejected,Male
1940,Admitted,Female
1116,Admitted,Male
279,Admitted,Male
4455,Rejected,Female
121,Admitted,Male
3708,Rejected,Female
2530,Admitted,Male
873,Admitted,Female
3690,Rejected,Female
4095,Rejected,Male
2653,Rejected,Male
3579,Rejected,Female
2374,Rejected,Female
3173,Rejected,Female
985,Admitted,Male
865,Admitted,Female
1983,Admitted,Female
300,Admitted,Male
1861,Admitted,Female
2006,Admitted,Female
3044,Rejected,Female
3906,Rejected,Male
3956,Rejected,Male
4228,Rejected,Female
181,Admitted,Male
2053,Rejected,Female
2407,Rejected,Female
1721,Rejected,Male
784,Rejected,Male
819,Rejected,Male
2098,Rejected,Female
1586,Admitted,Male
4165,Rejected,Male
3895,Rejected,Male
3855,Rejected,Male
3539,Rejected,Female
904,Admitted,Female
520,Rejected,Male
2825,Rejected,Male
3553,Rejected,Female
1187,Admitted,Male
2341,Rejected,Female
1474,Rejected,Male
3126,Rejected,Female
2771,Rejected,Male
1119,Admitted,Male
1742,Rejected,Male
2405,Rejected,Female
2461,Admitted,Male
2296,Rejected,Female
3222,Rejected,Female
816,Rejected,Male
4060,Rejected,Male
1997,Admitted,Female
29,Admitted,Male
2750,Rejected,Male
1678,Rejected,Male
3141,Rejected,Female
3053,Rejected,Female
1095,Admitted,Male
4264,Rejected,Female
2833,Rejected,Male
879,Admitted,Female
2905,Admitted,Female
3821,Admitted,Male
3811,Rejected,Female
4279,Rejected,Female
4385,Rejected,Female
3147,Rejected,Female
2897,Admitted,Female
99,Admitted,Male
624,Rejected,Male
2962,Admitted,Female
4099,Rejected,Male
3468,Admitted,Female
950,Admitted,Male
2158,Rejected,Female
1641,Rejected,Male
2425,Rejected,Female
3371,Rejected,Male
1001,Admitted,Male
594,Rejected,Male
2986,Rejected,Female
1385,Rejected,Male
3365,Rejected,Male
306,Admitted,Male
4326,Rejected,Female
3783,Rejected,Female
2772,Rejected,Male
1275,Admitted,Male
546,Rejected,Male
3877,Rejected,Male
2171,Rejected,Female
1003,Admitted,Male
1364,Rejected,Male
3360,Rejected,Male
95,Admitted,Male
3548,Rejected,Female
3960,Rejected,Male
469,Admitted,Male
1758,Rejected,Male
3735,Rejected,Female
4131,Rejected,Male
3522,Rejected,Female
2538,Admitted,Male
545,Rejected,Male
4383,Rejected,Female
133,Admitted,Male
3682,Rejected,Female
677,Rejected,Male
1624,Admitted,Male
938,Admitted,Male
1423,Rejected,Male
1966,Admitted,Female
3238,Admitted,Male
242,Admitted,Male
2438,Admitted,Male
707,Rejected,Male
2717,Rejected,Male
1674,Rejected,Male
3223,Rejected,Female
2359,Rejected,Female
3156,Rejected,Female
3832,Admitted,Male
3910,Rejected,Male
3617,Rejected,Female
3839,Rejected,Male
547,Rejected,Male
2334,Rejected,Female
2484,Admitted,Male
3995,Rejected,Male
2237,Rejected,Female
4218,Rejected,Female
723,Rejected,Male
1898,Admitted,Female
2632,Rejected,Male
2314,Rejected,Female
2395,Rejected,Female
3016,Rejected,Female
4190,Admitted,Female
3538,Rejected,Female
4055,Rejected,Male
1994,Admitted,Female
3595,Rejected,Female
2232,Rejected,Female
3908,Rejected,Male
862,Admitted,Female
4454,Rejected,Female
764,Rejected,Male
1149,Admitted,Male
2417,Rejected,Female
4117,Rejected,Male
3445,Admitted,Female
2435,Rejected,Female
1564,Admitted,Male
695,Rejected,Male
881,Admitted,Female
3125,Rejected,Female
81,Admitted,Male
3206,Rejected,Female
3797,Rejected,Female
2504,Admitted,Male
4483,Rejected,Female
4231,Rejected,Female
362,Admitted,Male
634,Rejected,Male
2401,Rejected,Female
4011,Rejected,Male
4054,Rejected,Male
2987,Rejected,Female
1812,Rejected,Male
4232,Rejected,Female
4188,Admitted,Female
2154,Rejected,Female
3952,Rejected,Male
3668,Rejected,Female
2379,Rejected,Female
2512,Admitted,Male
1013,Admitted,Male
2697,Rejected,Male
1631,Admitted,Male
3049,Rejected,Female
2180,Rejected,Female
4347,Rejected,Female
912,Admitted,Female
1318,Rejected,Male
449,Admitted,Male
4320,Rejected,Female
2116,Rejected,Female
1593,Admitted,Male
2579,Rejected,Male
2067,Rejected,Female
2652,Rejected,Male
3753,Rejected,Female
94,Admitted,Male
3089,Rejected,Female
3436,Admitted,Female
748,Rejected,Male
971,Admitted,Male
2716,Rejected,Male
2559,Admitted,Male
1767,Rejected,Male
280,Admitted,Male
1562,Admitted,Male
897,Admitted,Female
2786,Rejected,Male
3973,Rejected,Male
877,Admitted,Female
425,Admitted,Male
2790,Rejected,Male
385,Admitted,Male
531,Rejected,Male
4459,Rejected,Female
2346,Rejected,Female
4323,Rejected,Female
1403,Rejected,Male
946,Admitted,Male
942,Admitted,Male
2617,Rejected,Male
4007,Rejected,Male
551,Rejected,Male
3225,Rejected,Female
36,Admitted,Male
1707,Rejected,Male
501,Admitted,Male
2309,Rejected,Female
2391,Rejected,Female
1151,Admitted,Male
2041,Admitted,Female
1529,Admitted,Male
2036,Admitted,Female
741,Rejected,Male
355,Admitted,Male
3913,Rejected,Male
1171,Admitted,Male
1555,Admitted,Male
841,Admitted,Female
395,Admitted,Male
983,Admitted,Male
2052,Rejected,Female
3884,Rejected,Male
804,Rejected,Male
2630,Rejected,Male
2736,Rejected,Male
138,Admitted,Male
2792,Rejected,Male
2472,Admitted,Male
649,Rejected,Male
3909,Rejected,Male
1658,Rejected,Male
3382,Rejected,Male
68,Admitted,Male
392,Admitted,Male
4017,Rejected,Male
3096,Rejected,Female
3019,Rejected,Female
968,Admitted,Male
4133,Rejected,Male
977,Admitted,Male
2669,Rejected,Male
2804,Rejected,Male
2486,Admitted,Male
1773,Rejected,Male
113,Admitted,Male
2090,Rejected,Female
2891,Admitted,Female
815,Rejected,Male
4340,Rejected,Female
2001,Admitted,Female
3282,Rejected,Male
4105,Rejected,Male
1409,Rejected,Male
2093,Rejected,Female
4186,Admitted,Female
32,Admitted,Male
691,Rejected,Male
814,Rejected,Male
964,Admitted,Male
3624,Rejected,Female
2419,Rejected,Female
2519,Admitted,Male
1933,Admitted,Female
3387,Rejected,Male
1353,Rejected,Male
4415,Rejected,Female
1286,Admitted,Male
3935,Rejected,Male
702,Rejected,Male
1671,Rejected,Male
398,Admitted,Male
4273,Rejected,Female
3241,Admitted,Male
3198,Rejected,Female
2449,Admitted,Male
2633,Rejected,Male
3824,Admitted,Male
1374,Rejected,Male
1237,Admitted,Male
3346,Rejected,Male
1305,Rejected,Male
3087,Rejected,Female
1711,Rejected,Male
3996,Rejected,Male
918,Rejected,Female
721,Rejected,Male
3807,Rejected,Female
1869,Admitted,Female
272,Admitted,Male
1080,Admitted,Male
4243,Rejected,Female
4196,Admitted,Female
1223,Admitted,Male
4287,Rejected,Female
3418,Rejected,Male
352,Admitted,Male
710,Rejected,Male
957,Admitted,Male
2281,Rejected,Female
187,Admitted,Male
506,Admitted,Male
26,Admitted,Male
1530,Admitted,Male
4368,Rejected,Female
705,Rejected,Male
1685,Rejected,Male
3449,Admitted,Female
4068,Rejected,Male
3401,Rejected,Male
2280,Rejected,Female
3672,Rejected,Female
4306,Rejected,Female
2600,Rejected,Male
2445,Admitted,Male
2822,Rejected,Male
3025,Rejected,Female
832,Admitted,Female
1476,Rejected,Male
3149,Rejected,Female
3246,Admitted,Male
1466,Rejected,Male
871,Admitted,Female
2440,Admitted,Male
3066,Rejected,Female
4425,Rejected,Female
1557,Admitted,Male
4525,Rejected,Female
1709,Rejected,Male
3849,Rejected,Male
1182,Admitted,Male
1019,Admitted,Male
1805,Rejected,Male
747,Rejected,Male
2943,Admitted,Female
4199,Admitted,Female
1809,Rejected,Male
2970,Admitted,Female
2142,Rejected,Female
3517,Rejected,Female
143,Admitted,Male
1265,Admitted,Male
3759,Rejected,Female
495,Admitted,Male
415,Admitted,Male
4223,Rejected,Female
383,Admitted,Male
671,Rejected,Male
222,Admitted,Male
1968,Admitted,Female
4246,Rejected,Female
4428,Rejected,Female
3306,Rejected,Male
1128,Admitted,Male
1321,Rejected,Male
767,Rejected,Male
1238,Admitted,Male
266,Admitted,Male
4393,Rejected,Female
3060,Rejected,Female
2849,Rejected,Male
1202,Admitted,Male
2315,Rejected,Female
2145,Rejected,Female
3610,Rejected,Female
1724,Rejected,Male
1006,Admitted,Male
1863,Admitted,Female
3599,Rejected,Female
1494,Admitted,Female
655,Rejected,Male
3630,Rejected,Female
839,Admitted,Female
1167,Admitted,Male
4292,Rejected,Female
3383,Rejected,Male
2990,Rejected,Female
2994,Rejected,Female
3695,Rejected,Female
4125,Rejected,Male
3967,Rejected,Male
1488,Rejected,Male
2431,Rejected,Female
1973,Admitted,Female
4241,Rejected,Female
956,Admitted,Male
1295,Rejected,Male
2358,Rejected,Female
1077,Admitted,Male
1190,Admitted,Male
3448,Admitted,Female
3874,Rejected,Male
2370,Rejected,Female
2173,Rejected,Female
1732,Rejected,Male
1845,Admitted,Female
359,Admitted,Male
2780,Rejected,Male
3250,Admitted,Male
4300,Rejected,Female
3032,Rejected,Female
3400,Rejected,Male
406,Admitted,Male
3264,Admitted,Male
1591,Admitted,Male
1214,Admitted,Male
2777,Rejected,Male
343,Admitted,Male
3969,Rejected,Male
4526,Rejected,Female
3207,Rejected,Female
2353,Rejected,Female
1510,Admitted,Female
1521,Admitted,Male
1146,Admitted,Male
3665,Rejected,Female
1871,Admitted,Female
1804,Rejected,Male
3479,Admitted,Female
3941,Rejected,Male
3704,Rejected,Female
47,Admitted,Male
3289,Rejected,Male
4233,Rejected,Female
1324,Rejected,Male
284,Admitted,Male
4476,Rejected,Female
2723,Rejected,Male
483,Admitted,Male
2668,Rejected,Male
3432,Admitted,Female
1520,Admitted,Male
396,Admitted,Male
2253,Rejected,Female
2898,Admitted,Female
4211,Rejected,Female
3607,Rejected,Female
3837,Rejected,Male
2051,Rejected,Female
3178,Rejected,Female
4252,Rejected,Female
2598,Rejected,Male
358,Admitted,Male
315,Admitted,Male
2609,Rejected,Male
4363,Rejected,Female
2330,Rejected,Female
3918,Rejected,Male
2757,Rejected,Male
4089,Rejected,Male
3639,Rejected,Female
1879,Admitted,Female
3331,Rejected,Male
1972,Admitted,Female
2170,Rejected,Female
149,Admitted,Male
3483,Admitted,Female
282,Admitted,Male
3423,Admitted,Female
1942,Admitted,Female
2392,Rejected,Female
554,Rejected,Male
982,Admitted,Male
2178,Rejected,Female
2908,Admitted,Female
3958,Rejected,Male
569,Rejected,Male
4404,Rejected,Female
205,Admitted,Male
3428,Admitted,Female
2549,Admitted,Male
4104,Rejected,Male
2000,Admitted,Female
763,Rejected,Male
1626,Admitted,Male
4353,Rejected,Female
3543,Rejected,Female
3267,Admitted,Male
1008,Admitted,Male
3646,Rejected,Female
1338,Rejected,Male
1291,Rejected,Male
4479,Rejected,Female
361,Admitted,Male
1551,Admitted,Male
678,Rejected,Male
548,Rejected,Male
1414,Rejected,Male
3844,Rejected,Male
3467,Admitted,Female
2143,Rejected,Female
3171,Rejected,Female
3040,Rejected,Female
111,Admitted,Male
2,Admitted,Male
3736,Rejected,Female
3205,Rejected,Female
2525,Admitted,Male
377,Admitted,Male
2283,Rejected,Female
274,Admitted,Male
857,Admitted,Female
4376,Rejected,Female
864,Admitted,Female
4509,Rejected,Female
2604,Rejected,Male
2745,Rejected,Male
3815,Admitted,Male
3984,Rejected,Male
1890,Admitted,Female
845,Admitted,Female
2558,Admitted,Male
404,Admitted,Male
1860,Admitted,Female
3297,Rejected,Male
4407,Rejected,Female
3128,Rejected,Female
670,Rejected,Male
3856,Rejected,Male
437,Admitted,Male
3992,Rejected,Male
662,Rejected,Male
1528,Admitted,Male
2276,Rejected,Female
851,Admitted,Female
4240,Rejected,Female
1241,Admitted,Male
1839,Rejected,Male
3772,Rejected,Female
3741,Rejected,Female
3950,Rejected,Male
684,Rejected,Male
1814,Rejected,Male
2726,Rejected,Male
3093,Rejected,Female
186,Admitted,Male
2900,Admitted,Female
1784,Rejected,Male
2064,Rejected,Female
408,Admitted,Male
3866,Rejected,Male
1350,Rejected,Male
939,Admitted,Male
755,Rejected,Male
3568,Rejected,Female
2002,Admitted,Female
527,Rejected,Male
1032,Admitted,Male
1914,Admitted,Female
3314,Rejected,Male
16,Admitted,Male
2799,Rejected,Male
2505,Admitted,Male
4449,Rejected,Female
2320,Rejected,Female
610,Rejected,Male
1052,Admitted,Male
2754,Rejected,Male
2187,Rejected,Female
485,Admitted,Male
1068,Admitted,Male
4502,Rejected,Female
4486,Rejected,Female
3319,Rejected,Male
4367,Rejected,Female
4442,Rejected,Female
1643,Rejected,Male
1544,Admitted,Male
3780,Rejected,Female
786,Rejected,Male
2133,Rejected,Female
1795,Rejected,Male
2778,Rejected,Male
3275,Admitted,Male
2460,Admitted,Male
727,Rejected,Male
4283,Rejected,Female
1456,Rejected,Male
3072,Rejected,Female
1604,Admitted,Male
2677,Rejected,Male
1462,Rejected,Male
3369,Rejected,Male
3100,Rejected,Female
2674,Rejected,Male
2638,Rejected,Male
245,Admitted,Male
2664,Rejected,Male
2885,Admitted,Female
4195,Admitted,Female
618,Rejected,Male
1393,Rejected,Male
473,Admitted,Male
3524,Rejected,Female
813,Rejected,Male
3232,Admitted,Male
2627,Rejected,Male
1063,Admitted,Male
3642,Rejected,Female
296,Admitted,Male
1162,Admitted,Male
1623,Admitted,Male
2575,Rejected,Male
1020,Admitted,Male
176,Admitted,Male
2923,Admitted,Female
1935,Admitted,Female
525,Rejected,Male
3374,Rejected,Male
1358,Rejected,Male
3184,Rejected,Female
1043,Admitted,Male
578,Rejected,Male
106,Admitted,Male
2338,Rejected,Female
1684,Rejected,Male
1600,Admitted,Male
3197,Rejected,Female
3281,Admitted,Male
1421,Rejected,Male
3657,Rejected,Female
1440,Rejected,Male
1832,Rejected,Male
3820,Admitted,Male
4462,Rejected,Female
4293,Rejected,Female
3870,Rejected,Male
694,Rejected,Male
1482,Rejected,Male
3861,Rejected,Male
3803,Rejected,Female
1967,Admitted,Female
269,Admitted,Male
1194,Admitted,Male
1703,Rejected,Male
4345,Rejected,Female
433,Admitted,Male
4039,Rejected,Male
84,Admitted,Male
508,Admitted,Male
3253,Admitted,Male
2806,Rejected,Male
3516,Rejected,Female
1297,Rejected,Male
1575,Admitted,Male
891,Admitted,Female
2995,Rejected,Female
1209,Admitted,Male
3732,Rejected,Female
1229,Admitted,Male
3745,Rejected,Female
4230,Rejected,Female
637,Rejected,Male
949,Admitted,Male
1692,Rejected,Male
514,Rejected,Male
2929,Admitted,Female
1293,Rejected,Male
2899,Admitted,Female
2018,Admitted,Female
3456,Admitted,Female
2704,Rejected,Male
261,Admitted,Male
4266,Rejected,Female
484,Admitted,Male
2901,Admitted,Female
2368,Rejected,Female
1359,Rejected,Male
2843,Rejected,Male
613,Rejected,Male
3731,Rejected,Female
142,Admitted,Male
3485,Admitted,Female
973,Admitted,Male
3716,Rejected,Female
2236,Rejected,Female
1992,Admitted,Female
2396,Rejected,Female
2199,Rejected,Female
635,Rejected,Male
2593,Rejected,Male
2387,Rejected,Female
1268,Admitted,Male
990,Admitted,Male
3706,Rejected,Female
2887,Admitted,Female
2584,Rejected,Male
542,Rejected,Male
1778,Rejected,Male
1479,Rejected,Male
56,Admitted,Male
3168,Rejected,Female
3411,Rejected,Male
2948,Admitted,Female
571,Rejected,Male
4141,Rejected,Male
2426,Rejected,Female
1489,Rejected,Male
3923,Rejected,Male
4361,Rejected,Female
2818,Rejected,Male
2111,Rejected,Female
3302,Rejected,Male
123,Admitted,Male
3109,Rejected,Female
3891,Rejected,Male
1379,Rejected,Male
523,Rejected,Male
3822,Admitted,Male
3433,Admitted,Female
880,Admitted,Female
2503,Admitted,Male
3278,Admitted,Male
368,Admitted,Male
379,Admitted,Male
3286,Rejected,Male
4251,Rejected,Female
679,Rejected,Male
1892,Admitted,Female
586,Rejected,Male
1082,Admitted,Male
2010,Admitted,Female
2665,Rejected,Male
1902,Admitted,Female
321,Admitted,Male
2556,Admitted,Male
2475,Admitted,Male
1818,Rejected,Male
199,Admitted,Male
2222,Rejected,Female
1827,Rejected,Male
2356,Rejected,Female
130,Admitted,Male
4006,Rejected,Male
3490,Admitted,Female
1277,Admitted,Male
588,Rejected,Male
4452,Rejected,Female
615,Rejected,Male
1876,Admitted,Female
2971,Admitted,Female
3922,Rejected,Male
476,Admitted,Male
3017,Rejected,Female
1625,Admitted,Male
1705,Rejected,Male
2345,Rejected,Female
210,Admitted,Male
3285,Rejected,Male
1744,Rejected,Male
9,Admitted,Male
2661,Rejected,Male
3813,Admitted,Male
681,Rejected,Male
3059,Rejected,Female
1157,Admitted,Male
4468,Rejected,Female
2230,Rejected,Female
4339,Rejected,Female
2744,Rejected,Male
4220,Rejected,Female
365,Admitted,Male
374,Admitted,Male
2352,Rejected,Female
3962,Rejected,Male
4458,Rejected,Female
2602,Rejected,Male
1445,Rejected,Male
2202,Rejected,Female
1830,Rejected,Male
216,Admitted,Male
2124,Rejected,Female
1061,Admitted,Male
307,Admitted,Male
609,Rejected,Male
4335,Rejected,Female
3308,Rejected,Male
256,Admitted,Male
2854,Admitted,Female
890,Admitted,Female
203,Admitted,Male
3719,Rejected,Female
1211,Admitted,Male
4206,Admitted,Female
4465,Rejected,Female
4004,Rejected,Male
1763,Rejected,Male
4189,Admitted,Female
102,Admitted,Male
1234,Admitted,Male
3860,Rejected,Male
171,Admitted,Male
901,Admitted,Female
735,Rejected,Male
480,Admitted,Male
2902,Admitted,Female
14,Admitted,Male
3694,Rejected,Female
104,Admitted,Male
3143,Rejected,Female
927,Rejected,Female
2892,Admitted,Female
1384,Rejected,Male
4038,Rejected,Male
3765,Rejected,Female
2121,Rejected,Female
1662,Rejected,Male
360,Admitted,Male
3376,Rejected,Male
3612,Rejected,Female
3559,Rejected,Female
4032,Rejected,Male
1537,Admitted,Male
1679,Rejected,Male
1407,Rejected,Male
2028,Admitted,Female
2535,Admitted,Male
2113,Rejected,Female
2034,Admitted,Female
4301,Rejected,Female
44,Admitted,Male
2420,Rejected,Female
3511,Admitted,Female
119,Admitted,Male
3486,Admitted,Female
118,Admitted,Male
2769,Rejected,Male
805,Rejected,Male
555,Rejected,Male
155,Admitted,Male
3115,Rejected,Female
2625,Rejected,Male
2924,Admitted,Female
46,Admitted,Male
1487,Rejected,Male
3402,Rejected,Male
3574,Rejected,Female
1248,Admitted,Male
69,Admitted,Male
4327,Rejected,Female
2333,Rejected,Female
562,Rejected,Male
2871,Admitted,Female
4439,Rejected,Female
2821,Rejected,Male
517,Rejected,Male
132,Admitted,Male
2459,Admitted,Male
1996,Admitted,Female
4315,Rejected,Female
898,Admitted,Female
3416,Rejected,Male
780,Rejected,Male
4396,Rejected,Female
4303,Rejected,Female
590,Rejected,Male
556,Rejected,Male
1259,Admitted,Male
2992,Rejected,Female
1870,Admitted,Female
1584,Admitted,Male
189,Admitted,Male
1794,Rejected,Male
1990,Admitted,Female
3653,Rejected,Female
435,Admitted,Male
2049,Rejected,Female
2946,Admitted,Female
4305,Rejected,Female
3460,Admitted,Female
1569,Admitted,Male
2940,Admitted,Female
1550,Admitted,Male
3764,Rejected,Female
1243,Admitted,Male
2542,Admitted,Male
958,Admitted,Male
78,Admitted,Male
2651,Rejected,Male
2797,Rejected,Male
2017,Admitted,Female
1048,Admitted,Male
1424,Rejected,Male
4469,Rejected,Female
447,Admitted,Male
1878,Admitted,Female
4421,Rejected,Female
2930,Admitted,Female
3097,Rejected,Female
1089,Admitted,Male
749,Rejected,Male
4070,Rejected,Male
252,Admitted,Male
1004,Admitted,Male
2025,Admitted,Female
4317,Rejected,Female
2100,Rejected,Female
182,Admitted,Male
2128,Rejected,Female
4373,Rejected,Female
4063,Rejected,Male
693,Rejected,Male
292,Admitted,Male
3310,Rejected,Male
3810,Rejected,Female
1508,Admitted,Female
4092,Rejected,Male
1975,Admitted,Female
487,Admitted,Male
1730,Rejected,Male
3770,Rejected,Female
1712,Rejected,Male
3525,Rejected,Female
2466,Admitted,Male
4256,Rejected,Female
21,Admitted,Male
1616,Admitted,Male
283,Admitted,Male
4,Admitted,Male
122,Admitted,Male
536,Rejected,Male
1217,Admitted,Male
3905,Rejected,Male
3273,Admitted,Male
2371,Rejected,Female
457,Admitted,Male
2864,Admitted,Female
1522,Admitted,Male
3280,Admitted,Male
179,Admitted,Male
2451,Admitted,Male
4419,Rejected,Female
1695,Rejected,Male
3438,Admitted,Female
1024,Admitted,Male
3450,Admitted,Female
511,Admitted,Male
491,Admitted,Male
2087,Rejected,Female
288,Admitted,Male
2363,Rejected,Female
195,Admitted,Male
4500,Rejected,Female
795,Rejected,Male
3186,Rejected,Female
2693,Rejected,Male
3231,Admitted,Male
754,Rejected,Male
3211,Rejected,Female
809,Rejected,Male
988,Admitted,Male
683,Rejected,Male
1751,Rejected,Male
4198,Admitted,Female
2534,Admitted,Male
1463,Rejected,Male
314,Admitted,Male
1225,Admitted,Male
777,Rejected,Male
1836,Rejected,Male
410,Admitted,Male
3165,Rejected,Female
2047,Rejected,Female
1060,Admitted,Male
3532,Rejected,Female
131,Admitted,Male
3108,Rejected,Female
320,Admitted,Male
2377,Rejected,Female
1656,Rejected,Male
3210,Rejected,Female
3342,Rejected,Male
1667,Rejected,Male
3954,Rejected,Male
850,Admitted,Female
1067,Admitted,Male
3823,Admitted,Male
1690,Rejected,Male
3337,Rejected,Male
4484,Rejected,Female
1329,Rejected,Male
3932,Rejected,Male
3177,Rejected,Female
4379,Rejected,Female
886,Admitted,Female
2807,Rejected,Male
1717,Rejected,Male
3328,Rejected,Male
4397,Rejected,Female
3394,Rejected,Male
2351,Rejected,Female
4001,Rejected,Male
1081,Admitted,Male
2428,Rejected,Female
3010,Rejected,Female
4112,Rejected,Male
4374,Rejected,Female
3295,Rejected,Male
1615,Admitted,Male
1527,Admitted,Male
2522,Admitted,Male
1133,Admitted,Male
657,Rejected,Male
1261,Admitted,Male
3602,Rejected,Female
2658,Rejected,Male
1110,Admitted,Male
4069,Rejected,Male
1687,Rejected,Male
1091,Admitted,Male
2662,Rejected,Male
1140,Admitted,Male
1137,Admitted,Male
1183,Admitted,Male
1909,Admitted,Female
72,Admitted,Male
1602,Admitted,Male
4488,Rejected,Female
4310,Rejected,Female
3134,Rejected,Female
1785,Rejected,Male
1464,Rejected,Male
4136,Rejected,Male
3172,Rejected,Female
2331,Rejected,Female
1028,Admitted,Male
692,Rejected,Male
61,Admitted,Male
2337,Rejected,Female
902,Admitted,Female
2531,Admitted,Male
301,Admitted,Male
3733,Rejected,Female
2366,Rejected,Female
4499,Rejected,Female
2597,Rejected,Male
4480,Rejected,Female
1397,Rejected,Male
208,Admitted,Male
429,Admitted,Male
2880,Admitted,Female
1174,Admitted,Male
3419,Rejected,Male
4162,Rejected,Male
3218,Rejected,Female
730,Rejected,Male
1642,Rejected,Male
1012,Admitted,Male
2299,Rejected,Female
1088,Admitted,Male
2258,Rejected,Female
2079,Rejected,Female
3831,Admitted,Male
258,Admitted,Male
4160,Rejected,Male
3955,Rejected,Male
2105,Rejected,Female
1617,Admitted,Male
1864,Admitted,Female
3876,Rejected,Male
803,Rejected,Male
4236,Rejected,Female
394,Admitted,Male
1042,Admitted,Male
4508,Rejected,Female
2464,Admitted,Male
739,Rejected,Male
3989,Rejected,Male
3827,Admitted,Male
2492,Admitted,Male
1938,Admitted,Female
3229,Admitted,Male
3203,Rejected,Female
621,Rejected,Male
4524,Rejected,Female
1050,Admitted,Male
27,Admitted,Male
1710,Rejected,Male
3781,Rejected,Female
3818,Admitted,Male
1233,Admitted,Male
2091,Rejected,Female
4049,Rejected,Male
196,Admitted,Male
4325,Rejected,Female
1163,Admitted,Male
1504,Admitted,Female
3117,Rejected,Female
760,Rejected,Male
1825,Rejected,Male
1736,Rejected,Male
2551,Admitted,Male
1340,Rejected,Male
4521,Rejected,Female
3214,Rejected,Female
2968,Admitted,Female
316,Admitted,Male
1334,Rejected,Male
2469,Admitted,Male
466,Admitted,Male
2080,Rejected,Female
4289,Rejected,Female
340,Admitted,Male
3959,Rejected,Male
512,Admitted,Male
2083,Rejected,Female
2812,Rejected,Male
4348,Rejected,Female
1964,Admitted,Female
4487,Rejected,Female
1180,Admitted,Male
3470,Admitted,Female
2599,Rejected,Male
1713,Rejected,Male
2562,Admitted,Male
2191,Rejected,Female
271,Admitted,Male
2385,Rejected,Female
790,Rejected,Male
3885,Rejected,Male
3148,Rejected,Female
344,Admitted,Male
3869,Rejected,Male
3674,Rejected,Female
4140,Rejected,Male
331,Admitted,Male
2944,Admitted,Female
2348,Rejected,Female
831,Admitted,Female
1955,Admitted,Female
2932,Admitted,Female
4429,Rejected,Female
168,Admitted,Male
228,Admitted,Male
1436,Rejected,Male
2265,Rejected,Female
1025,Admitted,Male
1932,Admitted,Female
4185,Rejected,Male
2628,Rejected,Male
2729,Rejected,Male
1960,Admitted,Female
4154,Rejected,Male
4094,Rejected,Male
4083,Rejected,Male
477,Admitted,Male
3924,Rejected,Male
4120,Rejected,Male
3591,Rejected,Female
1316,Rejected,Male
1581,Admitted,Male
2840,Rejected,Male
2614,Rejected,Male
421,Admitted,Male
3074,Rejected,Female
1740,Rejected,Male
4187,Admitted,Female
2920,Admitted,Female
604,Rejected,Male
3592,Rejected,Female
643,Rejected,Male
1309,Rejected,Male
3751,Rejected,Female
4205,Admitted,Female
2514,Admitted,Male
3480,Admitted,Female
700,Rejected,Male
507,Admitted,Male
3897,Rejected,Male
4167,Rejected,Male
4048,Rejected,Male
2980,Admitted,Female
4050,Rejected,Male
4079,Rejected,Male
1073,Admitted,Male
1168,Admitted,Male
961,Admitted,Male
236,Admitted,Male
2144,Rejected,Female
3341,Rejected,Male
3618,Rejected,Female
2056,Rejected,Female
3847,Rejected,Male
785,Rejected,Male
1111,Admitted,Male
4013,Rejected,Male
2636,Rejected,Male
2858,Admitted,Female
1481,Rejected,Male
3707,Rejected,Female
2532,Admitted,Male
1691,Rejected,Male
1633,Admitted,Male
2163,Rejected,Female
2122,Rejected,Female
2577,Rejected,Male
665,Rejected,Male
2708,Rejected,Male
4153,Rejected,Male
3556,Rejected,Female
1823,Rejected,Male
3031,Rejected,Female
3640,Rejected,Female
3501,Admitted,Female
4400,Rejected,Female
1204,Admitted,Male
3808,Rejected,Female
1502,Admitted,Female
4235,Rejected,Female
4504,Rejected,Female
353,Admitted,Male
577,Rejected,Male
2601,Rejected,Male
2779,Rejected,Male
3254,Admitted,Male
1936,Admitted,Female
2808,Rejected,Male
1930,Admitted,Female
2783,Rejected,Male
1302,Rejected,Male
3042,Rejected,Female
13,Admitted,Male
1969,Admitted,Female
247,Admitted,Male
2284,Rejected,Female
668,Rejected,Male
3024,Rejected,Female
1796,Rejected,Male
3375,Rejected,Male
493,Admitted,Male
4177,Rejected,Male
3351,Rejected,Male
1394,Rejected,Male
1650,Rejected,Male
3904,Rejected,Male
2763,Rejected,Male
317,Admitted,Male
494,Admitted,Male
669,Rejected,Male
3003,Rejected,Female
3619,Rejected,Female
1509,Admitted,Female
2762,Rejected,Male
1419,Rejected,Male
3124,Rejected,Female
3431,Admitted,Female
1962,Admitted,Female
3940,Rejected,Male
1856,Admitted,Female
2624,Rejected,Male
3507,Admitted,Female
177,Admitted,Male
3399,Rejected,Male
2582,Rejected,Male
3631,Rejected,Female
3788,Rejected,Female
3655,Rejected,Female
986,Admitted,Male
3307,Rejected,Male
4036,Rejected,Male
2317,Rejected,Female
135,Admitted,Male
987,Admitted,Male
4010,Rejected,Male
2814,Rejected,Male
3249,Admitted,Male
4478,Rejected,Female
3251,Admitted,Male
4409,Rejected,Female
3975,Rejected,Male
2491,Admitted,Male
889,Admitted,Female
3326,Rejected,Male
238,Admitted,Male
257,Admitted,Male
887,Admitted,Female
2909,Admitted,Female
3634,Rejected,Female
807,Rejected,Male
1132,Admitted,Male
1021,Admitted,Male
3901,Rejected,Male
4053,Rejected,Male
2148,Rejected,Female
799,Rejected,Male
399,Admitted,Male
1189,Admitted,Male
2194,Rejected,Female
3985,Rejected,Male
639,Rejected,Male
2761,Rejected,Male
885,Admitted,Female
2564,Admitted,Male
1755,Rejected,Male
3899,Rejected,Male
4229,Rejected,Female
1599,Admitted,Male
1881,Admitted,Female
645,Rejected,Male
2882,Admitted,Female
1999,Admitted,Female
1885,Admitted,Female
995,Admitted,Male
3647,Rejected,Female
4138,Rejected,Male
2099,Rejected,Female
4071,Rejected,Male
4169,Rejected,Male
2259,Rejected,Female
4329,Rejected,Female
1984,Admitted,Female
3350,Rejected,Male
1092,Admitted,Male
3159,Rejected,Female
2688,Rejected,Male
2175,Rejected,Female
3474,Admitted,Female
611,Rejected,Male
4307,Rejected,Female
2515,Admitted,Male
1781,Rejected,Male
2787,Rejected,Male
4441,Rejected,Female
3215,Rejected,Female
1366,Rejected,Male
2147,Rejected,Female
2855,Admitted,Female
3176,Rejected,Female
3793,Rejected,Female
698,Rejected,Male
3576,Rejected,Female
2277,Rejected,Female
45,Admitted,Male
1283,Admitted,Male
4043,Rejected,Male
1228,Admitted,Male
596,Rejected,Male
2613,Rejected,Male
3701,Rejected,Female
4077,Rejected,Male
2290,Rejected,Female
1154,Admitted,Male
2336,Rejected,Female
2563,Admitted,Male
1144,Admitted,Male
86,Admitted,Male
3686,Rejected,Female
3986,Rejected,Male
335,Admitted,Male
2132,Rejected,Female
1939,Admitted,Female
97,Admitted,Male
2639,Rejected,Male
391,Admitted,Male
267,Admitted,Male
4366,Rejected,Female
3504,Admitted,Female
1,Admitted,Male
2436,Rejected,Female
1766,Rejected,Male
972,Admitted,Male
2224,Rejected,Female
1904,Admitted,Female
4184,Rejected,Male
522,Rejected,Male
3233,Admitted,Male
3403,Rejected,Male
147,Admitted,Male
3157,Rejected,Female
720,Rejected,Male
1245,Admitted,Male
2937,Admitted,Female
870,Admitted,Female
2654,Rejected,Male
1777,Rejected,Male
2038,Admitted,Female
2014,Admitted,Female
2040,Admitted,Female
4031,Rejected,Male
1473,Rejected,Male
1838,Rejected,Male
565,Rejected,Male
3675,Rejected,Female
3462,Admitted,Female
2738,Rejected,Male
4477,Rejected,Female
387,Admitted,Male
2442,Admitted,Male
3840,Rejected,Male
1739,Rejected,Male
137,Admitted,Male
2082,Rejected,Female
4091,Rejected,Male
1609,Admitted,Male
4472,Rejected,Female
1391,Rejected,Male
1363,Rejected,Male
1448,Rejected,Male
2275,Rejected,Female
2650,Rejected,Male
4168,Rejected,Male
1723,Rejected,Male
2197,Rejected,Female
1865,Admitted,Female
3766,Rejected,Female
3687,Rejected,Female
3768,Rejected,Female
1343,Rejected,Male
2478,Admitted,Male
2526,Admitted,Male
3609,Rejected,Female
1304,Rejected,Male
401,Admitted,Male
1636,Admitted,Male
2742,Rejected,Male
3503,Admitted,Female
4330,Rejected,Female
438,Admitted,Male
3434,Admitted,Female
2925,Admitted,Female
3137,Rejected,Female
2044,Admitted,Female
704,Rejected,Male
3563,Rejected,Female
4387,Rejected,Female
4093,Rejected,Male
1126,Admitted,Male
914,Admitted,Female
3601,Rejected,Female
2221,Rejected,Female
1793,Rejected,Male
3069,Rejected,Female
1664,Rejected,Male
3078,Rejected,Female
2311,Rejected,Female
3841,Rejected,Male
1441,Rejected,Male
510,Admitted,Male
2984,Admitted,Female
3730,Rejected,Female
357,Admitted,Male
3893,Rejected,Male
2411,Rejected,Female
2297,Rejected,Female
3390,Rejected,Male
3930,Rejected,Male
1645,Rejected,Male
762,Rejected,Male
2766,Rejected,Male
2553,Admitted,Male
3688,Rejected,Female
1756,Rejected,Male
4121,Rejected,Male
125,Admitted,Male
277,Admitted,Male
1952,Admitted,Female
685,Rejected,Male
3727,Rejected,Female
524,Rejected,Male
1120,Admitted,Male
2186,Rejected,Female
246,Admitted,Male
2695,Rejected,Male
3482,Admitted,Female
4015,Rejected,Male
1308,Rejected,Male
2389,Rejected,Female
774,Rejected,Male
19,Admitted,Male
1037,Admitted,Male
2768,Rejected,Male
259,Admitted,Male
1648,Rejected,Male
291,Admitted,Male
1152,Admitted,Male
2140,Rejected,Female
1980,Admitted,Female
3763,Rejected,Female
3713,Rejected,Female
3508,Admitted,Female
162,Admitted,Male
262,Admitted,Male
3359,Rejected,Male
1242,Admitted,Male
3343,Rejected,Male
229,Admitted,Male
4219,Rejected,Female
3406,Rejected,Male
4012,Rejected,Male
424,Admitted,Male
350,Admitted,Male
1886,Admitted,Female
1348,Rejected,Male
4173,Rejected,Male
2109,Rejected,Female
3039,Rejected,Female
3796,Rejected,Female
951,Admitted,Male
496,Admitted,Male
3027,Rejected,Female
35,Admitted,Male
4139,Rejected,Male
4370,Rejected,Female
3303,Rejected,Male
3566,Rejected,Female
3311,Rejected,Male
1571,Admitted,Male
3301,Rejected,Male
3702,Rejected,Female
965,Admitted,Male
3833,Admitted,Male
3949,Rejected,Male
124,Admitted,Male
4375,Rejected,Female
2656,Rejected,Male
3061,Rejected,Female
24,Admitted,Male
2969,Admitted,Female
2967,Admitted,Female
3926,Rejected,Male
3703,Rejected,Female
3724,Rejected,Female
2788,Rejected,Male
717,Rejected,Male
3420,Admitted,Female
1906,Admitted,Female
740,Rejected,Male
2285,Rejected,Female
2847,Rejected,Male
1087,Admitted,Male
567,Rejected,Male
2978,Admitted,Female
729,Rejected,Male
224,Admitted,Male
3916,Rejected,Male
3327,Rejected,Male
3430,Admitted,Female
2659,Rejected,Male
1097,Admitted,Male
2686,Rejected,Male
3262,Admitted,Male
518,Rejected,Male
3540,Rejected,Female
3802,Rejected,Female
2851,Rejected,Male
4257,Rejected,Female
1680,Rejected,Male
923,Rejected,Female
2572,Admitted,Male
1673,Rejected,Male
607,Rejected,Male
2043,Admitted,Female
3312,Rejected,Male
1622,Admitted,Male
354,Admitted,Male
3235,Admitted,Male
3111,Rejected,Female
1511,Rejected,Female
3541,Rejected,Female
409,Admitted,Male
2863,Admitted,Female
2853,Rejected,Male
1668,Rejected,Male
1931,Admitted,Female
3257,Admitted,Male
3775,Rejected,Female
999,Admitted,Male
1908,Admitted,Female
2508,Admitted,Male
658,Rejected,Male
285,Admitted,Male
3806,Rejected,Female
1606,Admitted,Male
824,Rejected,Male
3800,Rejected,Female
2585,Rejected,Male
991,Admitted,Male
4255,Rejected,Female
4018,Rejected,Male
2441,Admitted,Male
341,Admitted,Male
686,Rejected,Male
960,Admitted,Male
2865,Admitted,Female
1083,Admitted,Male
93,Admitted,Male
1835,Rejected,Male
1011,Admitted,Male
4005,Rejected,Male
1207,Admitted,Male
2883,Admitted,Female
2820,Rejected,Male
2141,Rejected,Female
1279,Admitted,Male
2618,Rejected,Male
475,Admitted,Male
159,Admitted,Male
4248,Rejected,Female
4000,Rejected,Male
4008,Rejected,Male
2640,Rejected,Male
4485,Rejected,Female
3291,Rejected,Male
3760,Rejected,Female
2421,Rejected,Female
1852,Admitted,Female
3921,Rejected,Male
1231,Admitted,Male
4182,Rejected,Male
3625,Rejected,Female
2473,Admitted,Male
3756,Rejected,Female
3700,Rejected,Female
231,Admitted,Male
1303,Rejected,Male
2350,Rejected,Female
599,Rejected,Male
3641,Rejected,Female
1031,Admitted,Male
1410,Rejected,Male
3974,Rejected,Male
932,Rejected,Female
2319,Rejected,Female
2819,Rejected,Male
2546,Admitted,Male
3994,Rejected,Male
1254,Admitted,Male
1891,Admitted,Female
967,Admitted,Male
553,Rejected,Male
3580,Rejected,Female
3417,Rejected,Male
2845,Rejected,Male
1503,Admitted,Female
4291,Rejected,Female
2076,Rejected,Female
2684,Rejected,Male
3041,Rejected,Female
1447,Rejected,Male
2989,Rejected,Female
4516,Rejected,Female
3882,Rejected,Male
1567,Admitted,Male
1765,Rejected,Male
1841,Rejected,Male
3662,Rejected,Female
3196,Rejected,Female
4108,Rejected,Male
1828,Rejected,Male
1596,Admitted,Male
1761,Rejected,Male
1844,Admitted,Female
2448,Admitted,Male
2089,Rejected,Female
3271,Admitted,Male
2204,Rejected,Female
4512,Rejected,Female
3370,Rejected,Male
1271,Admitted,Male
1621,Admitted,Male
1450,Rejected,Male
1910,Admitted,Female
3461,Admitted,Female
334,Admitted,Male
1381,Rejected,Male
2913,Admitted,Female
1704,Rejected,Male
2874,Admitted,Female
3446,Admitted,Female
1807,Rejected,Male
3083,Rejected,Female
585,Rejected,Male
3323,Rejected,Male
4316,Rejected,Female
1991,Admitted,Female
4201,Admitted,Female
1748,Rejected,Male
3132,Rejected,Female
1320,Rejected,Male
1976,Admitted,Female
4208,Admitted,Female
909,Admitted,Female
1075,Admitted,Male
3372,Rejected,Male
53,Admitted,Male
2793,Rejected,Male
110,Admitted,Male
4078,Rejected,Male
2016,Admitted,Female
1578,Admitted,Male
580,Rejected,Male
2817,Rejected,Male
2020,Admitted,Female
1714,Rejected,Male
1901,Admitted,Female
911,Admitted,Female
4299,Rejected,Female
40,Admitted,Male
3248,Admitted,Male
3325,Rejected,Male
376,Admitted,Male
3859,Rejected,Male
3299,Rejected,Male
3045,Rejected,Female
1184,Admitted,Male
3715,Rejected,Female
4451,Rejected,Female
3864,Rejected,Male
1686,Rejected,Male
3594,Rejected,Female
1532,Admitted,Male
1352,Rejected,Male
4318,Rejected,Female
4272,Rejected,Female
4346,Rejected,Female
745,Rejected,Male
3767,Rejected,Female
1179,Admitted,Male
1670,Rejected,Male
2035,Admitted,Female
3062,Rejected,Female
3560,Rejected,Female
281,Admitted,Male
158,Admitted,Male
847,Admitted,Female
800,Rejected,Male
928,Rejected,Female
905,Admitted,Female
3737,Rejected,Female
810,Rejected,Male
916,Rejected,Female
3475,Admitted,Female
1750,Rejected,Male
1023,Admitted,Male
3825,Admitted,Male
2219,Rejected,Female
2046,Rejected,Female
2485,Admitted,Male
2060,Rejected,Female
687,Rejected,Male
1499,Admitted,Female
2271,Rejected,Female
1136,Admitted,Male
4481,Rejected,Female
765,Rejected,Male
3015,Rejected,Female
656,Rejected,Male
3968,Rejected,Male
4501,Rejected,Female
204,Admitted,Male
2775,Rejected,Male
859,Admitted,Female
1196,Admitted,Male
1518,Rejected,Female
323,Admitted,Male
3638,Rejected,Female
3227,Rejected,Female
1916,Admitted,Female
2228,Rejected,Female
4087,Rejected,Male
3586,Rejected,Female
647,Rejected,Male
1169,Admitted,Male
3495,Admitted,Female
1345,Rejected,Male
3585,Rejected,Female
1418,Rejected,Male
840,Admitted,Female
325,Admitted,Male
1007,Admitted,Male
2207,Rejected,Female
876,Admitted,Female
4343,Rejected,Female
1413,Rejected,Male
4350,Rejected,Female
1699,Rejected,Male
4456,Rejected,Female
3052,Rejected,Female
3679,Rejected,Female
2511,Admitted,Male
4471,Rejected,Female
3395,Rejected,Male
265,Admitted,Male
2495,Admitted,Male
1900,Admitted,Female
1244,Admitted,Male
818,Rejected,Male
812,Rejected,Male
2055,Rejected,Female
2424,Rejected,Female
4351,Rejected,Female
1791,Rejected,Male
852,Admitted,Female
98,Admitted,Male
145,Admitted,Male
4101,Rejected,Male
3551,Rejected,Female
3415,Rejected,Male
2164,Rejected,Female
2455,Admitted,Male
4277,Rejected,Female
3216,Rejected,Female
3734,Rejected,Female
1977,Admitted,Female
719,Rejected,Male
2803,Rejected,Male
3754,Rejected,Female
570,Rejected,Male
1002,Admitted,Male
1307,Rejected,Male
2129,Rejected,Female
2344,Rejected,Female
4135,Rejected,Male
2115,Rejected,Female
1941,Admitted,Female
3598,Rejected,Female
1210,Admitted,Male
2690,Rejected,Male
3755,Rejected,Female
2586,Rejected,Male
4334,Rejected,Female
3146,Rejected,Female
255,Admitted,Male
369,Admitted,Male
836,Admitted,Female
2872,Admitted,Female
4207,Admitted,Female
4356,Rejected,Female
4217,Rejected,Female
2462,Admitted,Male
1164,Admitted,Male
2789,Rejected,Male
2494,Admitted,Male
2050,Rejected,Female
2607,Rejected,Male
3345,Rejected,Male
1388,Rejected,Male
3615,Rejected,Female
3757,Rejected,Female
1376,Rejected,Male
1660,Rejected,Male
3294,Rejected,Male
867,Admitted,Female
4357,Rejected,Female
3812,Rejected,Female
3912,Rejected,Male
2339,Rejected,Female
3261,Admitted,Male
330,Admitted,Male
4302,Rejected,Female
1396,Rejected,Male
4107,Rejected,Male
3298,Rejected,Male
597,Rejected,Male
165,Admitted,Male
2134,Rejected,Female
3220,Rejected,Female
1266,Admitted,Male
3509,Admitted,Female
3521,Rejected,Female
3441,Admitted,Female
346,Admitted,Male
183,Admitted,Male
4260,Rejected,Female
10,Admitted,Male
3,Admitted,Male
1649,Rejected,Male
273,Admitted,Male
2242,Rejected,Female
3006,Rejected,Female
2126,Rejected,Female
4122,Rejected,Male
3352,Rejected,Male
3451,Admitted,Female
2130,Rejected,Female
3536,Rejected,Female
3318,Rejected,Male
3152,Rejected,Female
2893,Admitted,Female
1230,Admitted,Male
1540,Admitted,Male
2877,Admitted,Female
603,Rejected,Male
1138,Admitted,Male
4200,Admitted,Female
860,Admitted,Female
219,Admitted,Male
3268,Admitted,Male
319,Admitted,Male
4341,Rejected,Female
4460,Rejected,Female
244,Admitted,Male
4067,Rejected,Male
3998,Rejected,Male
2888,Admitted,Female
3693,Rejected,Female
2713,Rejected,Male
3671,Rejected,Female
1959,Admitted,Female
2233,Rejected,Female
2749,Rejected,Male
558,Rejected,Male
4344,Rejected,Female
3497,Admitted,Female
849,Admitted,Female
2856,Admitted,Female
2692,Rejected,Male
1753,Rejected,Male
2088,Rejected,Female
1038,Admitted,Male
1387,Rejected,Male
3290,Rejected,Male
572,Rejected,Male
1848,Admitted,Female
2894,Admitted,Female
796,Rejected,Male
2784,Rejected,Male
552,Rejected,Male
3055,Rejected,Female
2208,Rejected,Female
3347,Rejected,Male
2963,Admitted,Female
1506,Admitted,Female
1737,Rejected,Male
4088,Rejected,Male
3353,Rejected,Male
3459,Admitted,Female
3852,Rejected,Male
2974,Admitted,Female
4226,Rejected,Female
3013,Rejected,Female
2457,Admitted,Male
268,Admitted,Male
1453,Rejected,Male
3868,Rejected,Male
4047,Rejected,Male
3266,Admitted,Male
4290,Rejected,Female
3915,Rejected,Male
2205,Rejected,Female
89,Admitted,Male
3429,Admitted,Female
4466,Rejected,Female
4158,Rejected,Male
642,Rejected,Male
3978,Rejected,Male
1497,Admitted,Female
2724,Rejected,Male
744,Rejected,Male
1718,Rejected,Male
3784,Rejected,Female
2149,Rejected,Female
2903,Admitted,Female
1049,Admitted,Male
1296,Rejected,Male
4080,Rejected,Male
2700,Rejected,Male
2263,Rejected,Female
1040,Admitted,Male
2657,Rejected,Male
921,Rejected,Female
2231,Rejected,Female
3453,Admitted,Female
1201,Admitted,Male
2587,Rejected,Male
2033,Admitted,Female
1224,Admitted,Male
1368,Rejected,Male
28,Admitted,Male
67,Admitted,Male
3344,Rejected,Male
2011,Admitted,Female
2203,Rejected,Female
1104,Admitted,Male
3437,Admitted,Female
15,Admitted,Male
1918,Admitted,Female
264,Admitted,Male
260,Admitted,Male
3920,Rejected,Male
4424,Rejected,Female
444,Admitted,Male
2890,Admitted,Female
3584,Rejected,Female
2291,Rejected,Female
3189,Rejected,Female
768,Rejected,Male
3381,Rejected,Male
3554,Rejected,Female
979,Admitted,Male
822,Rejected,Male
3573,Rejected,Female
2288,Rejected,Female
3028,Rejected,Female
160,Admitted,Male
3236,Admitted,Male
1813,Rejected,Male
4263,Rejected,Female
4242,Rejected,Female
1614,Admitted,Male
3366,Rejected,Male
3373,Rejected,Male
2103,Rejected,Female
2721,Rejected,Male
4081,Rejected,Male
830,Admitted,Female
105,Admitted,Male
1416,Rejected,Male
223,Admitted,Male
434,Admitted,Male
789,Rejected,Male
450,Admitted,Male
3853,Rejected,Male
3409,Rejected,Male
430,Admitted,Male
2247,Rejected,Female
206,Admitted,Male
4065,Rejected,Male
3648,Rejected,Female
1173,Admitted,Male
1920,Admitted,Female
1158,Admitted,Male
1897,Admitted,Female
2373,Rejected,Female
2867,Admitted,Female
2973,Admitted,Female
962,Admitted,Male
3987,Rejected,Male
3816,Admitted,Male
233,Admitted,Male
1458,Rejected,Male
1460,Rejected,Male
2125,Rejected,Female
3942,Rejected,Male
1457,Rejected,Male
2835,Rejected,Male
788,Rejected,Male
1822,Rejected,Male
3118,Rejected,Female
2570,Admitted,Male
3683,Rejected,Female
2813,Rejected,Male
2429,Rejected,Female
3105,Rejected,Female
333,Admitted,Male
2489,Admitted,Male
1106,Admitted,Male
1195,Admitted,Male
1298,Rejected,Male
397,Admitted,Male
2161,Rejected,Female
4362,Rejected,Female
892,Admitted,Female
467,Admitted,Male
2561,Admitted,Male
2954,Admitted,Female
172,Admitted,Male
2781,Rejected,Male
3058,Rejected,Female
141,Admitted,Male
4475,Rejected,Female
4194,Admitted,Female
640,Rejected,Male
3444,Admitted,Female
838,Admitted,Female
4506,Rejected,Female
1198,Admitted,Male
3786,Rejected,Female
2560,Admitted,Male
646,Rejected,Male
1905,Admitted,Female
2615,Rejected,Male
193,Admitted,Male
3002,Rejected,Female
3379,Rejected,Male
2645,Rejected,Male
3685,Rejected,Female
1953,Admitted,Female
644,Rejected,Male
4496,Rejected,Female
530,Rejected,Male
1594,Admitted,Male
3944,Rejected,Male
794,Rejected,Male
3761,Rejected,Female
1971,Admitted,Female
2096,Rejected,Female
2244,Rejected,Female
4042,Rejected,Male
4286,Rejected,Female
3200,Rejected,Female
1965,Admitted,Female
2529,Admitted,Male
1176,Admitted,Male
3144,Rejected,Female
1922,Admitted,Female
2382,Rejected,Female
1915,Admitted,Female
1669,Rejected,Male
4148,Rejected,Male
601,Rejected,Male
2998,Rejected,Female
1501,Admitted,Female
1009,Admitted,Male
3830,Admitted,Male
1792,Rejected,Male
2737,Rejected,Male
418,Admitted,Male
4489,Rejected,Female
12,Admitted,Male
3729,Rejected,Female
2743,Rejected,Male
4152,Rejected,Male
2622,Rejected,Male
4285,Rejected,Female
2941,Admitted,Female
74,Admitted,Male
636,Rejected,Male
1837,Rejected,Male
2004,Admitted,Female
2696,Rejected,Male
2343,Rejected,Female
4416,Rejected,Female
1093,Admitted,Male
775,Rejected,Male
3627,Rejected,Female
981,Admitted,Male
4202,Admitted,Female
2456,Admitted,Male
3457,Admitted,Female
3659,Rejected,Female
3321,Rejected,Male
626,Rejected,Male
2655,Rejected,Male
2322,Rejected,Female
1601,Admitted,Male
4062,Rejected,Male
2547,Admitted,Male
791,Rejected,Male
1192,Admitted,Male
953,Admitted,Male
2410,Rejected,Female
1944,Admitted,Female
3284,Rejected,Male
733,Rejected,Male
587,Rejected,Male
4426,Rejected,Female
4128,Rejected,Male
2307,Rejected,Female
2192,Rejected,Female
4076,Rejected,Male
1402,Rejected,Male
2308,Rejected,Female
2413,Rejected,Female
2415,Rejected,Female
2626,Rejected,Male
2801,Rejected,Male
4014,Rejected,Male
1380,Rejected,Male
2217,Rejected,Female
757,Rejected,Male
1733,Rejected,Male
2241,Rejected,Female
2300,Rejected,Female
3094,Rejected,Female
2502,Admitted,Male
539,Rejected,Male
1613,Admitted,Male
2481,Admitted,Male
1598,Admitted,Male
4072,Rejected,Male
1790,Rejected,Male
2439,Admitted,Male
4515,Rejected,Female
4467,Rejected,Female
1325,Rejected,Male
2567,Admitted,Male
989,Admitted,Male
3252,Admitted,Male
4391,Rejected,Female
75,Admitted,Male
3169,Rejected,Female
4116,Rejected,Male
1851,Admitted,Female
92,Admitted,Male
2606,Rejected,Male
2295,Rejected,Female
3315,Rejected,Male
817,Rejected,Male
2554,Admitted,Male
4212,Rejected,Female
2739,Rejected,Male
209,Admitted,Male
1246,Admitted,Male
55,Admitted,Male
1815,Rejected,Male
3283,Rejected,Male
4171,Rejected,Male
978,Admitted,Male
4518,Rejected,Female
464,Admitted,Male
682,Rejected,Male
4119,Rejected,Male
1323,Rejected,Male
2408,Rejected,Female
3048,Rejected,Female
3696,Rejected,Female
1752,Rejected,Male
4337,Rejected,Female
2210,Rejected,Female
3244,Admitted,Male
3718,Rejected,Female
443,Admitted,Male
1251,Admitted,Male
3213,Rejected,Female
478,Admitted,Male
3533,Rejected,Female
4423,Rejected,Female
3790,Rejected,Female
1954,Admitted,Female
3212,Rejected,Female
275,Admitted,Male
2250,Rejected,Female
217,Admitted,Male
1583,Admitted,Male
2097,Rejected,Female
4333,Rejected,Female
1454,Rejected,Male
212,Admitted,Male
57,Admitted,Male
866,Admitted,Female
4372,Rejected,Female
2120,Rejected,Female
2950,Admitted,Female
1188,Admitted,Male
4176,Rejected,Male
913,Admitted,Female
3269,Admitted,Male
2498,Admitted,Male
2670,Rejected,Male
5,Admitted,Male
4371,Rejected,Female
1653,Rejected,Male
948,Admitted,Male
1948,Admitted,Female
2137,Rejected,Female
4161,Rejected,Male
2327,Rejected,Female
2642,Rejected,Male
3692,Rejected,Female
1495,Admitted,Female
4166,Rejected,Male
675,Rejected,Male
628,Rejected,Male
2270,Rejected,Female
3676,Rejected,Female
2174,Rejected,Female
743,Rejected,Male
1857,Admitted,Female
3600,Rejected,Female
3120,Rejected,Female
3004,Rejected,Female
2409,Rejected,Female
997,Admitted,Male
1849,Admitted,Female
3121,Rejected,Female
3723,Rejected,Female
48,Admitted,Male
3547,Rejected,Female
188,Admitted,Male
3361,Rejected,Male
173,Admitted,Male
3391,Rejected,Male
126,Admitted,Male
933,Rejected,Female
1287,Rejected,Male
1888,Admitted,Female
3558,Rejected,Female
1339,Rejected,Male
4412,Rejected,Female
2666,Rejected,Male
1810,Rejected,Male
1022,Admitted,Male
1062,Admitted,Male
3652,Rejected,Female
1369,Rejected,Male
736,Rejected,Male
930,Rejected,Female
380,Admitted,Male
367,Admitted,Male
23,Admitted,Male
3145,Rejected,Female
2406,Rejected,Female
1607,Admitted,Male
3896,Rejected,Male
3919,Rejected,Male
3746,Rejected,Female
826,Admitted,Female
3663,Rejected,Female
4386,Rejected,Female
4157,Rejected,Male
2876,Admitted,Female
1342,Rejected,Male
1534,Admitted,Male
1078,Admitted,Male
676,Rejected,Male
3422,Admitted,Female
2156,Rejected,Female
2914,Admitted,Female
4156,Rejected,Male
263,Admitted,Male
1469,Rejected,Male
109,Admitted,Male
295,Admitted,Male
1071,Admitted,Male
4026,Rejected,Male
3567,Rejected,Female
3721,Rejected,Female
3817,Admitted,Male
666,Rejected,Male
8,Admitted,Male
4282,Rejected,Female
1098,Admitted,Male
3589,Rejected,Female
2735,Rejected,Male
3018,Rejected,Female
2939,Admitted,Female
3673,Rejected,Female
3931,Rejected,Male
2234,Rejected,Female
2996,Rejected,Female
844,Admitted,Female
2960,Admitted,Female
2249,Rejected,Female
2304,Rejected,Female
3555,Rejected,Female
3081,Rejected,Female
1565,Admitted,Male
701,Rejected,Male
1351,Rejected,Male
2355,Rejected,Female
2027,Admitted,Female
3697,Rejected,Female
3605,Rejected,Female
112,Admitted,Male
420,Admitted,Male
1467,Rejected,Male
2169,Rejected,Female
1216,Admitted,Male
2907,Admitted,Female
1335,Rejected,Male
2458,Admitted,Male
33,Admitted,Male
869,Admitted,Female
4414,Rejected,Female
3991,Rejected,Male
929,Rejected,Female
1697,Rejected,Male
917,Rejected,Female
1574,Admitted,Male
1875,Admitted,Female
2501,Admitted,Male
3826,Admitted,Male
674,Rejected,Male
1846,Admitted,Female
54,Admitted,Male
792,Rejected,Male
3506,Admitted,Female
3484,Admitted,Female
249,Admitted,Male
3084,Rejected,Female
3057,Rejected,Female
1775,Rejected,Male
2951,Admitted,Female
3769,Rejected,Female
3209,Rejected,Female
2510,Admitted,Male
3098,Rejected,Female
3046,Rejected,Female
3099,Rejected,Female
2062,Rejected,Female
232,Admitted,Male
1215,Admitted,Male
1731,Rejected,Male
52,Admitted,Male
1235,Admitted,Male
310,Admitted,Male
1422,Rejected,Male
4175,Rejected,Male
3886,Rejected,Male
3316,Rejected,Male
3843,Rejected,Male
1036,Admitted,Male
650,Rejected,Male
2610,Rejected,Male
463,Admitted,Male
73,Admitted,Male
2264,Rejected,Female
4057,Rejected,Male
327,Admitted,Male
4106,Rejected,Male
2859,Admitted,Female
4392,Rejected,Female
2375,Rejected,Female
1437,Rejected,Male
1769,Rejected,Male
1850,Admitted,Female
1099,Admitted,Male
2095,Rejected,Female
1524,Admitted,Male
703,Rejected,Male
2679,Rejected,Male
2332,Rejected,Female
966,Admitted,Male
3194,Rejected,Female
1483,Rejected,Male
446,Admitted,Male
1747,Rejected,Male
1439,Rejected,Male
339,Admitted,Male
4103,Rejected,Male
1328,Rejected,Male
1475,Rejected,Male
3677,Rejected,Female
3101,Rejected,Female
2452,Admitted,Male
3071,Rejected,Female
1759,Rejected,Male
500,Admitted,Male
2791,Rejected,Male
4380,Rejected,Female
2048,Rejected,Female
3478,Admitted,Female
1200,Admitted,Male
2773,Rejected,Male
731,Rejected,Male
3034,Rejected,Female
1531,Admitted,Male
3762,Rejected,Female
2257,Rejected,Female
2573,Admitted,Male
3557,Rejected,Female
303,Admitted,Male
1819,Rejected,Male
2433,Rejected,Female
4313,Rejected,Female
2070,Rejected,Female
4179,Rejected,Male
332,Admitted,Male
1349,Rejected,Male
2682,Rejected,Male
629,Rejected,Male
1377,Rejected,Male
3349,Rejected,Male
3842,Rejected,Male
3620,Rejected,Female
689,Rejected,Male
3080,Rejected,Female
4024,Rejected,Male
1493,Rejected,Male
1558,Admitted,Male
1346,Rejected,Male
3972,Rejected,Male
3330,Rejected,Male
1719,Rejected,Male
706,Rejected,Male
115,Admitted,Male
2118,Rejected,Female
472,Admitted,Male
1027,Admitted,Male
1415,Rejected,Male
622,Rejected,Male
2507,Admitted,Male
3867,Rejected,Male
4377,Rejected,Female
1589,Admitted,Male
2127,Rejected,Female
3496,Admitted,Female
502,Admitted,Male
178,Admitted,Male
3514,Rejected,Female
458,Admitted,Male
1333,Rejected,Male
3063,Rejected,Female
1101,Admitted,Male
2785,Rejected,Male
4520,Rejected,Female
528,Rejected,Male
3645,Rejected,Female
3571,Rejected,Female
3270,Admitted,Male
1640,Rejected,Male
834,Admitted,Female
771,Rejected,Male
151,Admitted,Male
1250,Admitted,Male
2976,Admitted,Female
2616,Rejected,Male
4445,Rejected,Female
2824,Rejected,Male
3966,Rejected,Male
713,Rejected,Male
3710,Rejected,Female
2722,Rejected,Male
1853,Admitted,Female
773,Rejected,Male
561,Rejected,Male
3386,Rejected,Male
828,Admitted,Female
732,Rejected,Male
943,Admitted,Male
1729,Rejected,Male
529,Rejected,Male
2183,Rejected,Female
3545,Rejected,Female
559,Rejected,Male
783,Rejected,Male
1634,Admitted,Male
2108,Rejected,Female
423,Admitted,Male
227,Admitted,Male
1256,Admitted,Male
2715,Rejected,Male
3502,Admitted,Female
200,Admitted,Male
2303,Rejected,Female
2372,Rejected,Female
3272,Admitted,Male
3245,Admitted,Male
403,Admitted,Male
3705,Rejected,Female
2753,Rejected,Male
411,Admitted,Male
2910,Admitted,Female
2238,Rejected,Female
2059,Rejected,Female
3622,Rejected,Female
4336,Rejected,Female
1186,Admitted,Male
900,Admitted,Female
1701,Rejected,Male
4522,Rejected,Female
2802,Rejected,Male
3240,Admitted,Male
2927,Admitted,Female
600,Rejected,Male
3243,Admitted,Male
2829,Rejected,Male
759,Rejected,Male
1153,Admitted,Male
3473,Admitted,Female
3138,Rejected,Female
1895,Admitted,Female
535,Rejected,Male
2005,Admitted,Female
30,Admitted,Male
2074,Rejected,Female
3588,Rejected,Female
2146,Rejected,Female
140,Admitted,Male
2964,Admitted,Female
3939,Rejected,Male
2875,Admitted,Female
337,Admitted,Male
3091,Rejected,Female
2037,Admitted,Female
2453,Admitted,Male
3064,Rejected,Female
1115,Admitted,Male
1803,Rejected,Male
66,Admitted,Male
2873,Admitted,Female
4342,Rejected,Female
1301,Rejected,Male
2921,Admitted,Female
2965,Admitted,Female
2850,Rejected,Male
364,Admitted,Male
4191,Admitted,Female
4237,Rejected,Female
3036,Rejected,Female
144,Admitted,Male
532,Rejected,Male
2482,Admitted,Male
1471,Rejected,Male
4221,Rejected,Female
4066,Rejected,Male
776,Rejected,Male
2318,Rejected,Female
2685,Rejected,Male
1985,Admitted,Female
1375,Rejected,Male
2286,Rejected,Female
427,Admitted,Male
4444,Rejected,Female
4510,Rejected,Female
619,Rejected,Male
1392,Rejected,Male
166,Admitted,Male
2809,Rejected,Male
3577,Rejected,Female
1874,Admitted,Female
2675,Rejected,Male
2266,Rejected,Female
1538,Admitted,Male
3195,Rejected,Female
638,Rejected,Male
1757,Rejected,Male
1435,Rejected,Male
1735,Rejected,Male
309,Admitted,Male
1070,Admitted,Male
931,Rejected,Female
3565,Rejected,Female
1096,Admitted,Male
2497,Admitted,Male
2701,Rejected,Male
2195,Rejected,Female
3011,Rejected,Female
2039,Admitted,Female
4245,Rejected,Female
4492,Rejected,Female
2054,Rejected,Female
3854,Rejected,Male
413,Admitted,Male
1258,Admitted,Male
4505,Rejected,Female
2543,Admitted,Male
3907,Rejected,Male
412,Admitted,Male
382,Admitted,Male
163,Admitted,Male
711,Rejected,Male
1647,Rejected,Male
1789,Rejected,Male
3945,Rejected,Male
3076,Rejected,Female
2094,Rejected,Female
3335,Rejected,Male
4268,Rejected,Female
854,Admitted,Female
117,Admitted,Male
3527,Rejected,Female
1045,Admitted,Male
2223,Rejected,Female
2416,Rejected,Female
3313,Rejected,Male
616,Rejected,Male
540,Rejected,Male
1378,Rejected,Male
3000,Rejected,Female
2135,Rejected,Female
1899,Admitted,Female
3161,Rejected,Female
1267,Admitted,Male
1903,Admitted,Female
709,Rejected,Male
593,Rejected,Male
4408,Rejected,Female
589,Rejected,Male
1433,Rejected,Male
2168,Rejected,Female
1102,Admitted,Male
2975,Admitted,Female
2524,Admitted,Male
3388,Rejected,Male
1029,Admitted,Male
2254,Rejected,Female
1507,Admitted,Female
4355,Rejected,Female
1722,Rejected,Male
2698,Rejected,Male
1443,Rejected,Male
1206,Admitted,Male
2063,Rejected,Female
1033,Admitted,Male
1129,Admitted,Male
3722,Rejected,Female
3471,Admitted,Female
3398,Rejected,Male
4247,Rejected,Female
778,Rejected,Male
3593,Rejected,Female
3181,Rejected,Female
4253,Rejected,Female
4517,Rejected,Female
4225,Rejected,Female
724,Rejected,Male
1107,Admitted,Male
2267,Rejected,Female
1347,Rejected,Male
1821,Rejected,Male
308,Admitted,Male
2364,Rejected,Female
3531,Rejected,Female
2287,Rejected,Female
3324,Rejected,Male
4035,Rejected,Male
1148,Admitted,Male
3276,Admitted,Male
3199,Rejected,Female
3443,Admitted,Female
1554,Admitted,Male
4239,Rejected,Female
3863,Rejected,Male
2261,Rejected,Female
2306,Rejected,Female
557,Rejected,Male
2644,Rejected,Male
1829,Rejected,Male
3976,Rejected,Male
519,Rejected,Male
2465,Admitted,Male
96,Admitted,Male
2596,Rejected,Male
3678,Rejected,Female
798,Rejected,Male
215,Admitted,Male
2832,Rejected,Male
2471,Admitted,Male
2938,Admitted,Female
3469,Admitted,Female
345,Admitted,Male
185,Admitted,Male
3902,Rejected,Male
2032,Admitted,Female
1635,Admitted,Male
1877,Admitted,Female
1272,Admitted,Male
3426,Admitted,Female
2193,Rejected,Female
772,Rejected,Male
2862,Admitted,Female
1867,Admitted,Female
1505,Admitted,Female
3363,Rejected,Male
667,Rejected,Male
2540,Admitted,Male
432,Admitted,Male
3528,Rejected,Female
253,Admitted,Male
375,Admitted,Male
2015,Admitted,Female
4389,Rejected,Female
2571,Admitted,Male
654,Rejected,Male
388,Admitted,Male
2520,Admitted,Male
516,Rejected,Male
2550,Admitted,Male
779,Rejected,Male
2310,Rejected,Female
3970,Rejected,Male
1084,Admitted,Male
2029,Admitted,Female
213,Admitted,Male
3001,Rejected,Female
893,Admitted,Female
2623,Rejected,Male
842,Admitted,Female
3929,Rejected,Male
2397,Rejected,Female
1638,Admitted,Male
2706,Rejected,Male
3217,Rejected,Female
3654,Rejected,Female
605,Rejected,Male
2235,Rejected,Female
1399,Rejected,Male
4164,Rejected,Male
3170,Rejected,Female
2155,Rejected,Female
7,Admitted,Male
3892,Rejected,Male
2580,Rejected,Male
3957,Rejected,Male
2030,Admitted,Female
1542,Admitted,Male
136,Admitted,Male
190,Admitted,Male
1064,Admitted,Male
4025,Rejected,Male
4437,Rejected,Female
954,Admitted,Male
4457,Rejected,Female
372,Admitted,Male
829,Admitted,Female
3691,Rejected,Female
1618,Admitted,Male
823,Rejected,Male
1355,Rejected,Male
442,Admitted,Male
2928,Admitted,Female
2782,Rejected,Male
1610,Admitted,Male
4150,Rejected,Male
1728,Rejected,Male
2565,Admitted,Male
648,Rejected,Male
940,Admitted,Male
2268,Rejected,Female
998,Admitted,Male
4360,Rejected,Female
1921,Admitted,Female
848,Admitted,Female
2152,Rejected,Female
1806,Rejected,Male
2710,Rejected,Male
3914,Rejected,Male
3664,Rejected,Female
1317,Rejected,Male
1585,Admitted,Male
3367,Rejected,Male
541,Rejected,Male
1370,Rejected,Male
2209,Rejected,Female
591,Rejected,Male
4134,Rejected,Male
1026,Admitted,Male
289,Admitted,Male
1842,Rejected,Male
606,Rejected,Male
4295,Rejected,Female
941,Admitted,Male
2603,Rejected,Male
1431,Rejected,Male
3836,Rejected,Male
2760,Rejected,Male
3188,Rejected,Female
3661,Rejected,Female
2730,Rejected,Male
581,Rejected,Male
3202,Rejected,Female
2919,Admitted,Female
3738,Rejected,Female
3465,Admitted,Female
88,Admitted,Male
712,Rejected,Male
2430,Rejected,Female
3728,Rejected,Female
3887,Rejected,Male
2073,Rejected,Female
2751,Rejected,Male
3542,Rejected,Female
3277,Admitted,Male
194,Admitted,Male
180,Admitted,Male
4203,Admitted,Female
4447,Rejected,Female
738,Rejected,Male
254,Admitted,Male
742,Rejected,Male
1868,Admitted,Female
2869,Admitted,Female
1923,Admitted,Female
2988,Rejected,Female
349,Admitted,Male
2388,Rejected,Female
4147,Rejected,Male
1322,Rejected,Male
1894,Admitted,Female
3946,Rejected,Male
2985,Rejected,Female
2150,Rejected,Female
1122,Admitted,Male
243,Admitted,Male
2404,Rejected,Female
1236,Admitted,Male
2252,Rejected,Female
1472,Rejected,Male
59,Admitted,Male
3348,Rejected,Male
4215,Rejected,Female
952,Admitted,Male
4513,Rejected,Female
51,Admitted,Male
474,Admitted,Male
944,Admitted,Male
811,Rejected,Male
4023,Rejected,Male
2725,Rejected,Male
2828,Rejected,Male
843,Admitted,Female
756,Rejected,Male
1155,Admitted,Male
2755,Rejected,Male
802,Rejected,Male
2323,Rejected,Female
1926,Admitted,Female
3714,Rejected,Female
560,Rejected,Male
3911,Rejected,Male
2589,Rejected,Male
461,Admitted,Male
3805,Rejected,Female
1130,Admitted,Male
1646,Rejected,Male
2694,Rejected,Male
1981,Admitted,Female
1178,Admitted,Male
1100,Admitted,Male
3865,Rejected,Male
1720,Rejected,Male
2513,Admitted,Male
2844,Rejected,Male
3455,Admitted,Female
1659,Rejected,Male
4064,Rejected,Male
2866,Admitted,Female
2123,Rejected,Female
2691,Rejected,Male
1118,Admitted,Male
722,Rejected,Male
3623,Rejected,Female
3717,Rejected,Female
2357,Rejected,Female
2031,Admitted,Female
1420,Rejected,Male
1677,Rejected,Male
4155,Rejected,Male
1882,Admitted,Female
294,Admitted,Male
4213,Rejected,Female
1958,Admitted,Female
583,Rejected,Male
3408,Rejected,Male
336,Admitted,Male
737,Rejected,Male
984,Admitted,Male
1993,Admitted,Female
3333,Rejected,Male
6,Admitted,Male
156,Admitted,Male
87,Admitted,Male
2918,Admitted,Female
903,Admitted,Female
77,Admitted,Male
3862,Rejected,Male
2660,Rejected,Male
4328,Rejected,Female
4349,Rejected,Female
4100,Rejected,Male
270,Admitted,Male
4278,Rejected,Female
2474,Admitted,Male
4435,Rejected,Female
1708,Rejected,Male
4073,Rejected,Male
3183,Rejected,Female
513,Rejected,Male
4461,Rejected,Female
821,Rejected,Male
4124,Rejected,Male
58,Admitted,Male
4180,Rejected,Male
218,Admitted,Male
1108,Admitted,Male
2953,Admitted,Female
2748,Rejected,Male
2003,Admitted,Female
4224,Rejected,Female
1974,Admitted,Female
1582,Admitted,Male
3549,Rejected,Female
2945,Admitted,Female
1226,Admitted,Male
690,Rejected,Male
3139,Rejected,Female
3463,Admitted,Female
4051,Rejected,Male
1639,Rejected,Male
3458,Admitted,Female
3082,Rejected,Female
3239,Admitted,Male
1079,Admitted,Male
402,Admitted,Male
2479,Admitted,Male
389,Admitted,Male
1054,Admitted,Male
302,Admitted,Male
4020,Rejected,Male
2214,Rejected,Female
3787,Rejected,Female
2569,Admitted,Male
448,Admitted,Male
1612,Admitted,Male
3494,Admitted,Female
2796,Rejected,Male
3481,Admitted,Female
2936,Admitted,Female
1205,Admitted,Male
1595,Admitted,Male
4151,Rejected,Male
837,Admitted,Female
1543,Admitted,Male
874,Admitted,Female
1056,Admitted,Male
2528,Admitted,Male
3384,Rejected,Male
3981,Rejected,Male
3629,Rejected,Female
1666,Rejected,Male
3583,Rejected,Female
4181,Rejected,Male
576,Rejected,Male
4170,Rejected,Male
134,Admitted,Male
4388,Rejected,Female
2728,Rejected,Male
2977,Admitted,Female
198,Admitted,Male
1172,Admitted,Male
617,Rejected,Male
4046,Rejected,Male
1536,Admitted,Male
2823,Rejected,Male
2956,Admitted,Female
338,Admitted,Male
1274,Admitted,Male
4338,Rejected,Female
3193,Rejected,Female
25,Admitted,Male
1746,Rejected,Male
2619,Rejected,Male
3518,Rejected,Female
290,Admitted,Male
20,Admitted,Male
2226,Rejected,Female
1257,Admitted,Male
878,Admitted,Female
4364,Rejected,Female
4446,Rejected,Female
2982,Admitted,Female
1652,Rejected,Male
127,Admitted,Male
4144,Rejected,Male
3681,Rejected,Female
996,Admitted,Male
623,Rejected,Male
1015,Admitted,Male
2383,Rejected,Female
959,Admitted,Male
3140,Rejected,Female
3160,Rejected,Female
1979,Admitted,Female
2157,Rejected,Female
2552,Admitted,Male
908,Admitted,Female
2648,Rejected,Male
4259,Rejected,Female
2578,Rejected,Male
3725,Rejected,Female
2635,Rejected,Male
4192,Admitted,Female
1911,Admitted,Female
1247,Admitted,Male
3454,Admitted,Female
1039,Admitted,Male
2185,Rejected,Female
2611,Rejected,Male
4210,Rejected,Female
1240,Admitted,Male
3779,Rejected,Female
2533,Admitted,Male
2218,Rejected,Female
400,Admitted,Male
1074,Admitted,Male
1517,Rejected,Female
3005,Rejected,Female
1330,Rejected,Male
2273,Rejected,Female
2719,Rejected,Male
3296,Rejected,Male
2557,Admitted,Male
4296,Rejected,Female
4059,Rejected,Male
1772,Rejected,Male
2423,Rejected,Female
1461,Rejected,Male
347,Admitted,Male
4197,Admitted,Female
1619,Admitted,Male
2815,Rejected,Male
2361,Rejected,Female
82,Admitted,Male
1672,Rejected,Male
1779,Rejected,Male
924,Rejected,Female
4090,Rejected,Male
4359,Rejected,Female
3850,Rejected,Male
1780,Rejected,Male
2879,Admitted,Female
2746,Rejected,Male
4304,Rejected,Female
2325,Rejected,Female
4314,Rejected,Female
4030,Rejected,Male
2153,Rejected,Female
2483,Admitted,Male
482,Admitted,Male
157,Admitted,Male
1113,Admitted,Male
488,Admitted,Male
4096,Rejected,Male
602,Rejected,Male
4436,Rejected,Female
101,Admitted,Male
1587,Admitted,Male
915,Rejected,Female
3155,Rejected,Female
1430,Rejected,Male
2620,Rejected,Male
4274,Rejected,Female
43,Admitted,Male
197,Admitted,Male
2895,Admitted,Female
2740,Rejected,Male
80,Admitted,Male
3334,Rejected,Male
37,Admitted,Male
612,Rejected,Male
169,Admitted,Male
2521,Admitted,Male
4114,Rejected,Male
3774,Rejected,Female
3219,Rejected,Female
2240,Rejected,Female
4143,Rejected,Male
4061,Rejected,Male
1559,Admitted,Male
2386,Rejected,Female
2959,Admitted,Female
1426,Rejected,Male
2915,Admitted,Female
3747,Rejected,Female
428,Admitted,Male
3880,Rejected,Male
920,Rejected,Female
1998,Admitted,Female
3927,Rejected,Male
568,Rejected,Male
2198,Rejected,Female
440,Admitted,Male
1468,Rejected,Male
3106,Rejected,Female
1438,Rejected,Male
4041,Rejected,Male
1628,Admitted,Male
714,Rejected,Male
3167,Rejected,Female
1041,Admitted,Male
1326,Rejected,Male
3750,Rejected,Female
4402,Rejected,Female
2810,Rejected,Male
3597,Rejected,Female
17,Admitted,Male
1051,Admitted,Male
651,Rejected,Male
2084,Rejected,Female
4222,Rejected,Female
2500,Admitted,Male
4146,Rejected,Male
235,Admitted,Male
1817,Rejected,Male
3814,Admitted,Male
3192,Rejected,Female
3070,Rejected,Female
2826,Rejected,Male
1371,Rejected,Male
1834,Rejected,Male
2160,Rejected,Female
3529,Rejected,Female
202,Admitted,Male
3963,Rejected,Male
1919,Admitted,Female
2889,Admitted,Female
381,Admitted,Male
3523,Rejected,Female
3752,Rejected,Female
2830,Rejected,Male
1929,Admitted,Female
4511,Rejected,Female
4523,Rejected,Female
3355,Rejected,Male
3304,Rejected,Male
3407,Rejected,Male
4280,Rejected,Female
492,Admitted,Male
1987,Admitted,Female
2718,Rejected,Male
3883,Rejected,Male
2734,Rejected,Male
129,Admitted,Male
2488,Admitted,Male
1525,Admitted,Male
3773,Rejected,Female
1361,Rejected,Male
793,Rejected,Male
2342,Rejected,Female
3292,Rejected,Male
4214,Rejected,Female
490,Admitted,Male
1552,Admitted,Male
2912,Admitted,Female
3669,Rejected,Female
1360,Rejected,Male
451,Admitted,Male
3393,Rejected,Male
2794,Rejected,Male
3520,Rejected,Female
970,Admitted,Male
3792,Rejected,Female
2983,Admitted,Female
351,Admitted,Male
2211,Rejected,Female
4227,Rejected,Female
1934,Admitted,Female
2289,Rejected,Female
4284,Rejected,Female
2360,Rejected,Female
1218,Admitted,Male
1811,Rejected,Male
3791,Rejected,Female
1165,Admitted,Male
2321,Rejected,Female
661,Rejected,Male
934,Admitted,Male
2590,Rejected,Male
2075,Rejected,Female
1449,Rejected,Male
1764,Rejected,Male
3789,Rejected,Female
11,Admitted,Male
2246,Rejected,Female
1117,Admitted,Male
3649,Rejected,Female
241,Admitted,Male
1222,Admitted,Male
4234,Rejected,Female
329,Admitted,Male
4365,Rejected,Female
2380,Rejected,Female
4394,Rejected,Female
3356,Rejected,Male
2878,Admitted,Female
441,Admitted,Male
2212,Rejected,Female
2292,Rejected,Female
1637,Admitted,Male
3424,Admitted,Female
4033,Rejected,Male
1743,Rejected,Male
1175,Admitted,Male
825,Rejected,Male
276,Admitted,Male
1491,Rejected,Male
875,Admitted,Female
856,Admitted,Female
2764,Rejected,Male
1428,Rejected,Male
1145,Admitted,Male
582,Rejected,Male
2012,Admitted,Female
2243,Rejected,Female
2329,Rejected,Female
2260,Rejected,Female
2487,Admitted,Male
2326,Rejected,Female
3845,Rejected,Male
2362,Rejected,Female
861,Admitted,Female
2714,Rejected,Male
2418,Rejected,Female
3425,Admitted,Female
1141,Admitted,Male
3153,Rejected,Female
3925,Rejected,Male
2200,Rejected,Female
41,Admitted,Male
2354,Rejected,Female
1957,Admitted,Female
4450,Rejected,Female
4331,Rejected,Female
298,Admitted,Male
4474,Rejected,Female
2702,Rejected,Male
79,Admitted,Male
2711,Rejected,Male
632,Rejected,Male
3660,Rejected,Female
154,Admitted,Male
3332,Rejected,Male
1382,Rejected,Male
1470,Rejected,Male
4261,Rejected,Female
1072,Admitted,Male
2367,Rejected,Female
1327,Rejected,Male
2576,Rejected,Male
2403,Rejected,Female
3720,Rejected,Female
2278,Rejected,Female
2595,Rejected,Male
3519,Rejected,Female
211,Admitted,Male
3119,Rejected,Female
34,Admitted,Male
3127,Rejected,Female
3029,Rejected,Female
1203,Admitted,Male
3103,Rejected,Female
2446,Admitted,Male
1159,Admitted,Male
3336,Rejected,Male
4269,Rejected,Female
2190,Rejected,Female
926,Rejected,Female
3917,Rejected,Male
3030,Rejected,Female
1824,Rejected,Male
2390,Rejected,Female
2069,Rejected,Female
3088,Rejected,Female
1738,Rejected,Male
2881,Admitted,Female
1887,Admitted,Female
728,Rejected,Male
1675,Rejected,Male
3230,Admitted,Male
2997,Rejected,Female
3201,Rejected,Female
225,Admitted,Male
3500,Admitted,Female
237,Admitted,Male
1069,Admitted,Male
758,Rejected,Male
1608,Admitted,Male
1177,Admitted,Male
4470,Rejected,Female
2594,Rejected,Male
1927,Admitted,Female
3116,Rejected,Female
734,Rejected,Male
3794,Rejected,Female
356,Admitted,Male
3848,Rejected,Male
855,Admitted,Female
1754,Rejected,Male
3621,Rejected,Female
4448,Rejected,Female
1197,Admitted,Male
3878,Rejected,Male
3491,Admitted,Female
1319,Rejected,Male
38,Admitted,Male
1406,Rejected,Male
1982,Admitted,Female
853,Admitted,Female
2949,Admitted,Female
4288,Rejected,Female
4298,Rejected,Female
1611,Admitted,Male
4381,Rejected,Female
2328,Rejected,Female
83,Admitted,Male
3476,Admitted,Female
1500,Admitted,Female
3464,Admitted,Female
3442,Admitted,Female
3613,Rejected,Female
2568,Admitted,Male
4490,Rejected,Female
2248,Rejected,Female
1889,Admitted,Female
2705,Rejected,Male
422,Admitted,Male
2007,Admitted,Female
631,Rejected,Male
4244,Rejected,Female
2365,Rejected,Female
1486,Rejected,Male
3983,Rejected,Male
2298,Rejected,Female
3699,Rejected,Female
2961,Admitted,Female
1907,Admitted,Female
348,Admitted,Male
2731,Rejected,Male
248,Admitted,Male
1774,Rejected,Male
595,Rejected,Male
286,Admitted,Male
116,Admitted,Male
39,Admitted,Male
2720,Rejected,Male
1219,Admitted,Male
3288,Rejected,Male
3943,Rejected,Male
108,Admitted,Male
1300,Rejected,Male
3258,Admitted,Male
3740,Rejected,Female
1262,Admitted,Male
2667,Rejected,Male
1395,Rejected,Male
416,Admitted,Male
1592,Admitted,Male
3569,Rejected,Female
4433,Rejected,Female
2523,Admitted,Male
2935,Admitted,Female
1627,Admitted,Male
426,Admitted,Male
797,Rejected,Male
3354,Rejected,Male
2838,Rejected,Male
3570,Rejected,Female
3380,Rejected,Male
1801,Rejected,Male
1263,Admitted,Male
4324,Rejected,Female
1632,Admitted,Male
1783,Rejected,Male
3228,Rejected,Female
2177,Rejected,Female
2588,Rejected,Male
3614,Rejected,Female
4028,Rejected,Male
1597,Admitted,Male
3572,Rejected,Female
2852,Rejected,Male
2499,Admitted,Male
1862,Admitted,Female
1114,Admitted,Male
2256,Rejected,Female
2857,Admitted,Female
868,Admitted,Female
2848,Rejected,Male
3090,Rejected,Female
139,Admitted,Male
1044,Admitted,Male
4238,Rejected,Female
4115,Rejected,Male
769,Rejected,Male
2671,Rejected,Male
3033,Rejected,Female
3961,Rejected,Male
2583,Rejected,Male
1496,Admitted,Female
489,Admitted,Male
456,Admitted,Male
1546,Admitted,Male
2509,Admitted,Male
3035,Rejected,Female
2206,Rejected,Female
3362,Rejected,Male
3608,Rejected,Female
1682,Rejected,Male
3358,Rejected,Male
2061,Rejected,Female
479,Admitted,Male
2886,Admitted,Female
1995,Admitted,Female
2765,Rejected,Male
3122,Rejected,Female
2071,Rejected,Female
4113,Rejected,Male
3412,Rejected,Male
1539,Admitted,Male
1788,Rejected,Male
498,Admitted,Male
1978,Admitted,Female
1859,Admitted,Female
3447,Admitted,Female
3466,Admitted,Female
3477,Admitted,Female
3513,Admitted,Female
3075,Rejected,Female
3857,Rejected,Male
3164,Rejected,Female
240,Admitted,Male
4422,Rejected,Female
2827,Rejected,Male
146,Admitted,Male
2631,Rejected,Male
1264,Admitted,Male
1988,Admitted,Female
3684,Rejected,Female
3012,Rejected,Female
3440,Admitted,Female
2480,Admitted,Male
1808,Rejected,Male
1405,Rejected,Male
641,Rejected,Male
