Id,Admit,Gender,Dept
2846,Rejected,Male,D
4163,Rejected,Male,F
544,Rejected,Male,A
370,Admitted,Male,A
4297,Rejected,Female,F
2470,Admitted,Male,D
1269,Admitted,Male,B
4443,Rejected,Female,F
1770,Rejected,Male,C
835,Admitted,Female,A
1053,Admitted,Male,B
2349,Rejected,Female,C
2072,Rejected,Female,C
3007,Rejected,Female,D
2993,Rejected,Female,D
3396,Rejected,Male,E
3020,Rejected,Female,D
305,Admitted,Male,A
906,Admitted,Female,A
91,Admitted,Male,A
1963,Admitted,Female,C
4159,Rejected,Male,F
2215,Rejected,Female,C
3544,Rejected,Female,E
3835,Rejected,Male,F
1239,Admitted,Male,B
3158,Rejected,Female,D
3309,Rejected,Male,E
2181,Rejected,Female,C
405,Admitted,Male,A
1280,Admitted,Male,B
1010,Admitted,Male,B
184,Admitted,Male,A
3300,Rejected,Male,E
1252,Admitted,Male,B
3421,Admitted,Female,E
278,Admitted,Male,A
2676,Rejected,Male,D
2947,Admitted,Female,D
2536,Admitted,Male,D
699,Rejected,Male,A
4281,Rejected,Female,F
3680,Rejected,Female,E
3488,Admitted,Female,E
3726,Rejected,Female,E
4254,Rejected,Female,F
3092,Rejected,Female,D
2393,Rejected,Female,C
2213,Rejected,Female,C
2381,Rejected,Female,C
787,Rejected,Male,A
4270,Rejected,Female,F
3526,Rejected,Female,E
3493,Admitted,Female,E
608,Rejected,Male,A
1389,Rejected,Male,B
1253,Admitted,Male,B
4434,Rejected,Female,F
1665,Rejected,Male,C
1105,Admitted,Male,B
3581,Rejected,Female,E
3022,Rejected,Female,D
3154,Rejected,Female,D
2347,Rejected,Female,C
2136,Rejected,Female,C
888,Admitted,Female,A
3472,Admitted,Female,E
1131,Admitted,Male,B
1139,Admitted,Male,B
3550,Rejected,Female,E
2398,Rejected,Female,C
894,Admitted,Female,A
3113,Rejected,Female,D
2182,Rejected,Female,C
220,Admitted,Male,A
499,Admitted,Male,A
2065,Rejected,Female,C
2437,Admitted,Male,D
4382,Rejected,Female,F
1086,Admitted,Male,B
1354,Rejected,Male,B
1970,Admitted,Female,C
937,Admitted,Male,B
3293,Rejected,Male,E
3829,Admitted,Male,F
1577,Admitted,Male,C
3498,Admitted,Female,E
945,Admitted,Male,B
3305,Rejected,Male,E
3339,Rejected,Male,E
1787,Rejected,Male,C
2402,Rejected,Female,C
537,Rejected,Male,A
1156,Admitted,Male,B
2139,Rejected,Female,C
3179,Rejected,Female,D
4216,Rejected,Female,F
1590,Admitted,Male,C
1451,Rejected,Male,B
153,Admitted,Male,A
1768,Rejected,Male,C
2758,Rejected,Male,D
436,Admitted,Male,A
4276,Rejected,Female,F
1412,Rejected,Male,B
3079,Rejected,Female,D
3799,Rejected,Female,E
1147,Admitted,Male,B
1676,Rejected,Male,C
1951,Admitted,Female,C
76,Admitted,Male,A
1884,Admitted,Female,C
2539,Admitted,Male,D
505,Admitted,Male,A
3410,Rejected,Male,E
2422,Rejected,Female,C
1452,Rejected,Male,B
1090,Admitted,Male,B
534,Rejected,Male,A
782,Rejected,Male,A
1281,Admitted,Male,B
2834,Rejected,Male,D
1047,Admitted,Male,B
2672,Rejected,Male,D
2023,Admitted,Female,C
2313,Rejected,Female,C
2870,Admitted,Female,D
1310,Rejected,Male,B
363,Admitted,Male,A
1273,Admitted,Male,B
820,Rejected,Male,A
2057,Rejected,Female,C
4498,Rejected,Female,F
1185,Admitted,Male,B
2774,Rejected,Male,D
2189,Rejected,Female,C
1854,Admitted,Female,C
1398,Rejected,Male,B
3616,Rejected,Female,E
1429,Rejected,Male,B
766,Rejected,Male,A
414,Admitted,Male,A
3221,Rejected,Female,D
2496,Admitted,Male,D
1913,Admitted,Female,C
3175,Rejected,Female,D
1771,Rejected,Male,C
1455,Rejected,Male,B
1556,Admitted,Male,C
1444,Rejected,Male,B
863,Admitted,Female,A
4495,Rejected,Female,F
1776,Rejected,Male,C
1514,Rejected,Female,B
4519,Rejected,Female,F
935,Admitted,Male,B
85,Admitted,Male,A
1232,Admitted,Male,B
2463,Admitted,Male,D
3405,Rejected,Male,E
1657,Rejected,Male,C
4045,Rejected,Male,F
715,Rejected,Male,A
2467,Admitted,Male,D
4019,Rejected,Male,F
1580,Admitted,Male,C
3636,Rejected,Female,E
3947,Rejected,Male,F
1337,Rejected,Male,B
3038,Rejected,Female,D
3744,Rejected,Female,E
1432,Rejected,Male,B
18,Admitted,Male,A
543,Rejected,Male,A
2621,Rejected,Male,D
4086,Rejected,Male,F
2687,Rejected,Male,D
455,Admitted,Male,A
3894,Rejected,Male,F
3247,Admitted,Male,E
3633,Rejected,Female,E
3499,Admitted,Female,E
1143,Admitted,Male,B
974,Admitted,Male,B
761,Rejected,Male,A
3798,Rejected,Female,E
1284,Admitted,Male,B
3804,Rejected,Female,E
708,Rejected,Male,A
980,Admitted,Male,B
3948,Rejected,Male,F
680,Rejected,Male,A
3287,Rejected,Male,E
1411,Rejected,Male,B
2709,Rejected,Male,D
652,Rejected,Male,A
1843,Rejected,Male,C
431,Admitted,Male,A
2294,Rejected,Female,C
1799,Rejected,Male,C
1109,Admitted,Male,B
2841,Rejected,Male,D
2019,Admitted,Female,C
664,Rejected,Male,A
3879,Rejected,Male,F
1344,Rejected,Male,B
3191,Rejected,Female,D
538,Rejected,Male,A
2574,Admitted,Male,D
2493,Admitted,Male,D
2884,Admitted,Female,D
3021,Rejected,Female,D
3575,Rejected,Female,E
3777,Rejected,Female,E
3933,Rejected,Male,F
2077,Rejected,Female,C
1383,Rejected,Male,B
993,Admitted,Male,B
2979,Admitted,Female,D
3123,Rejected,Female,D
4430,Rejected,Female,F
3378,Rejected,Male,E
3009,Rejected,Female,D
2021,Admitted,Female,C
4432,Rejected,Female,F
3234,Admitted,Male,E
3389,Rejected,Male,E
1883,Admitted,Female,C
872,Admitted,Female,A
4427,Rejected,Female,F
2104,Rejected,Female,C
4275,Rejected,Female,F
3900,Rejected,Male,F
2444,Admitted,Male,D
2647,Rejected,Male,D
2904,Admitted,Female,D
1560,Admitted,Male,C
753,Rejected,Male,A
4420,Rejected,Female,F
2138,Rejected,Female,C
1802,Rejected,Male,C
521,Rejected,Male,A
304,Admitted,Male,A
925,Rejected,Female,A
1912,Admitted,Female,C
1160,Admitted,Male,B
1553,Admitted,Male,C
1255,Admitted,Male,B
3979,Rejected,Male,F
1570,Admitted,Male,C
1928,Admitted,Female,C
4056,Rejected,Male,F
3050,Rejected,Female,D
1512,Rejected,Female,B
4129,Rejected,Male,F
107,Admitted,Male,A
2800,Rejected,Male,D
1831,Rejected,Male,C
1655,Rejected,Male,C
2434,Rejected,Female,C
2646,Rejected,Male,D
393,Admitted,Male,A
1683,Rejected,Male,C
201,Admitted,Male,A
1331,Rejected,Male,B
573,Rejected,Male,A
1227,Admitted,Male,B
2188,Rejected,Female,C
2432,Rejected,Female,C
4319,Rejected,Female,F
2972,Admitted,Female,D
1749,Rejected,Male,C
1311,Rejected,Male,B
2274,Rejected,Female,C
297,Admitted,Male,A
3819,Admitted,Male,F
4418,Rejected,Female,F
1820,Rejected,Male,C
4002,Rejected,Male,F
2022,Admitted,Female,C
1572,Admitted,Male,C
574,Rejected,Male,A
1365,Rejected,Male,B
1840,Rejected,Male,C
833,Admitted,Female,A
3051,Rejected,Female,D
3666,Rejected,Female,E
1937,Admitted,Female,C
4438,Rejected,Female,F
883,Admitted,Female,A
1313,Rejected,Male,B
2477,Admitted,Male,D
1404,Rejected,Male,B
1288,Rejected,Male,B
3928,Rejected,Male,F
2159,Rejected,Female,C
2101,Rejected,Female,C
1124,Admitted,Male,B
2733,Rejected,Male,D
1620,Admitted,Male,C
1212,Admitted,Male,B
2450,Admitted,Male,D
1125,Admitted,Male,B
2239,Rejected,Female,C
3776,Rejected,Female,E
164,Admitted,Male,A
3129,Rejected,Female,D
366,Admitted,Male,A
3054,Rejected,Female,D
4258,Rejected,Female,F
1121,Admitted,Male,B
3274,Admitted,Male,E
3043,Rejected,Female,D
4029,Rejected,Male,F
4403,Rejected,Female,F
4321,Rejected,Female,F
1547,Admitted,Male,C
584,Rejected,Male,A
2394,Rejected,Female,C
1629,Admitted,Male,C
4058,Rejected,Male,F
1986,Admitted,Female,C
1282,Admitted,Male,B
2756,Rejected,Male,D
3530,Rejected,Female,E
1797,Rejected,Male,C
90,Admitted,Male,A
3632,Rejected,Female,E
884,Admitted,Female,A
4209,Admitted,Female,F
549,Rejected,Male,A
3086,Rejected,Female,D
4027,Rejected,Male,F
1094,Admitted,Male,B
1373,Rejected,Male,B
2216,Rejected,Female,C
2229,Rejected,Female,C
4130,Rejected,Male,F
509,Admitted,Male,A
1484,Rejected,Male,B
4034,Rejected,Male,F
1833,Rejected,Male,C
4040,Rejected,Male,F
2608,Rejected,Male,D
4497,Rejected,Female,F
1390,Rejected,Male,B
2112,Rejected,Female,C
3166,Rejected,Female,D
465,Admitted,Male,A
976,Admitted,Male,B
2727,Rejected,Male,D
4503,Rejected,Female,F
3999,Rejected,Male,F
3135,Rejected,Female,D
2176,Rejected,Female,C
3364,Rejected,Male,E
2836,Rejected,Male,D
2544,Admitted,Male,D
103,Admitted,Male,A
4075,Rejected,Male,F
1726,Rejected,Male,C
563,Rejected,Male,A
1568,Admitted,Male,C
3174,Rejected,Female,D
3385,Rejected,Male,E
4395,Rejected,Female,F
2612,Rejected,Male,D
3150,Rejected,Female,D
3838,Rejected,Male,F
3065,Rejected,Female,D
4294,Rejected,Female,F
1386,Rejected,Male,B
2770,Rejected,Male,D
3749,Rejected,Female,E
4178,Rejected,Male,F
2837,Rejected,Male,D
2312,Rejected,Female,C
4482,Rejected,Female,F
2517,Admitted,Male,D
4098,Rejected,Male,F
3510,Admitted,Female,E
2926,Admitted,Female,D
1548,Admitted,Male,C
1716,Rejected,Male,C
3180,Rejected,Female,D
1573,Admitted,Male,C
2086,Rejected,Female,C
2340,Rejected,Female,C
1533,Admitted,Male,C
2026,Admitted,Female,C
2414,Rejected,Female,C
4082,Rejected,Male,F
4352,Rejected,Female,F
2541,Admitted,Male,D
4149,Rejected,Male,F
3237,Admitted,Male,E
858,Admitted,Female,A
3934,Rejected,Male,F
407,Admitted,Male,A
3357,Rejected,Male,E
718,Rejected,Male,A
1847,Admitted,Female,C
3785,Rejected,Female,E
3603,Rejected,Female,E
4411,Rejected,Female,F
503,Admitted,Male,A
1285,Admitted,Male,B
3997,Rejected,Male,F
2629,Rejected,Male,D
2991,Rejected,Female,D
3890,Rejected,Male,F
3047,Rejected,Female,D
963,Admitted,Male,B
417,Admitted,Male,A
3881,Rejected,Male,F
4102,Rejected,Male,F
2811,Rejected,Male,D
2102,Rejected,Female,C
3552,Rejected,Female,E
3085,Rejected,Female,D
672,Rejected,Male,A
100,Admitted,Male,A
1434,Rejected,Male,B
3643,Rejected,Female,E
4308,Rejected,Female,F
1715,Rejected,Male,C
1005,Admitted,Male,B
3990,Rejected,Male,F
4074,Rejected,Male,F
2922,Admitted,Female,D
3414,Rejected,Male,E
71,Admitted,Male,A
3889,Rejected,Male,F
3606,Rejected,Female,E
3748,Rejected,Female,E
1085,Admitted,Male,B
1408,Rejected,Male,B
2251,Rejected,Female,C
2906,Admitted,Female,D
390,Admitted,Male,A
2663,Rejected,Male,D
2119,Rejected,Female,C
3368,Rejected,Male,E
1925,Admitted,Female,C
1706,Rejected,Male,C
2468,Admitted,Male,D
3489,Admitted,Female,E
1896,Admitted,Female,C
250,Admitted,Male,A
1545,Admitted,Male,C
526,Rejected,Male,A
1332,Rejected,Male,B
3871,Rejected,Male,F
504,Admitted,Male,A
2131,Rejected,Female,C
1741,Rejected,Male,C
1103,Admitted,Male,B
148,Admitted,Male,A
2916,Admitted,Female,D
4022,Rejected,Male,F
1762,Rejected,Male,C
2068,Rejected,Female,C
214,Admitted,Male,A
4309,Rejected,Female,F
2759,Rejected,Male,D
120,Admitted,Male,A
328,Admitted,Male,A
2896,Admitted,Female,D
653,Rejected,Male,A
2952,Admitted,Female,D
697,Rejected,Male,A
3644,Rejected,Female,E
673,Rejected,Male,A
1498,Admitted,Female,B
1535,Admitted,Male,C
1605,Admitted,Male,C
1526,Admitted,Male,C
2592,Rejected,Male,D
1725,Rejected,Male,C
1142,Admitted,Male,B
1873,Admitted,Female,C
2741,Rejected,Male,D
1798,Rejected,Male,C
64,Admitted,Male,A
3136,Rejected,Female,D
1055,Admitted,Male,B
3698,Rejected,Female,E
4271,Rejected,Female,F
3742,Rejected,Female,E
3858,Rejected,Male,F
3898,Rejected,Male,F
3073,Rejected,Female,D
1826,Rejected,Male,C
1947,Admitted,Female,C
1689,Rejected,Male,C
3131,Rejected,Female,D
3739,Rejected,Female,E
1014,Admitted,Male,B
3162,Rejected,Female,D
4249,Rejected,Female,F
324,Admitted,Male,A
326,Admitted,Male,A
2649,Rejected,Male,D
1563,Admitted,Male,C
471,Admitted,Male,A
2860,Admitted,Female,D
1579,Admitted,Male,C
1249,Admitted,Male,B
3875,Rejected,Male,F
2805,Rejected,Male,D
3578,Rejected,Female,E
663,Rejected,Male,A
3008,Rejected,Female,D
3546,Rejected,Female,E
452,Admitted,Male,A
3338,Rejected,Male,E
4390,Rejected,Female,F
2911,Admitted,Female,D
3587,Rejected,Female,E
2555,Admitted,Male,D
3068,Rejected,Female,D
2302,Rejected,Female,C
955,Admitted,Male,B
2376,Rejected,Female,C
2942,Admitted,Female,D
598,Rejected,Male,A
3322,Rejected,Male,E
2680,Rejected,Male,D
1698,Rejected,Male,C
3404,Rejected,Male,E
969,Admitted,Male,B
3888,Rejected,Male,F
4473,Rejected,Female,F
1066,Admitted,Male,B
3107,Rejected,Female,D
579,Rejected,Male,A
2591,Rejected,Male,D
3670,Rejected,Female,E
3151,Rejected,Female,D
1372,Rejected,Male,B
659,Rejected,Male,A
318,Admitted,Male,A
2839,Rejected,Male,D
170,Admitted,Male,A
3435,Admitted,Female,E
2548,Admitted,Male,D
882,Admitted,Female,A
1161,Admitted,Male,B
1058,Admitted,Male,B
1949,Admitted,Female,C
1745,Rejected,Male,C
620,Rejected,Male,A
460,Admitted,Male,A
3439,Admitted,Female,E
3846,Rejected,Male,F
3778,Rejected,Female,E
1492,Rejected,Male,B
4132,Rejected,Male,F
439,Admitted,Male,A
3635,Rejected,Female,E
3596,Rejected,Female,E
4267,Rejected,Female,F
4494,Rejected,Female,F
3487,Admitted,Female,E
3102,Rejected,Female,D
1693,Rejected,Male,C
371,Admitted,Male,A
3564,Rejected,Female,E
167,Admitted,Male,A
992,Admitted,Male,B
50,Admitted,Male,A
4127,Rejected,Male,F
2245,Rejected,Female,C
65,Admitted,Male,A
614,Rejected,Male,A
2225,Rejected,Female,C
4126,Rejected,Male,F
696,Rejected,Male,A
3535,Rejected,Female,E
1760,Rejected,Male,C
2167,Rejected,Female,C
2707,Rejected,Male,D
2412,Rejected,Female,C
2162,Rejected,Female,C
4417,Rejected,Female,F
550,Rejected,Male,A
239,Admitted,Male,A
4123,Rejected,Male,F
1681,Rejected,Male,C
1427,Rejected,Male,B
4097,Rejected,Male,F
462,Admitted,Male,A
3809,Rejected,Female,E
454,Admitted,Male,A
3971,Rejected,Male,F
2868,Admitted,Female,D
1816,Rejected,Male,C
2293,Rejected,Female,C
2255,Rejected,Female,C
1270,Admitted,Male,B
4322,Rejected,Female,F
226,Admitted,Male,A
1561,Admitted,Male,C
1946,Admitted,Female,C
1112,Admitted,Male,B
3651,Rejected,Female,E
4378,Rejected,Female,F
660,Rejected,Male,A
4384,Rejected,Female,F
221,Admitted,Male,A
1956,Admitted,Female,C
42,Admitted,Male,A
4174,Rejected,Male,F
3317,Rejected,Male,E
234,Admitted,Male,A
827,Admitted,Female,A
3182,Rejected,Female,D
2009,Admitted,Female,C
1786,Rejected,Male,C
2999,Rejected,Female,D
688,Rejected,Male,A
2454,Admitted,Male,D
1442,Rejected,Male,B
3611,Rejected,Female,E
4016,Rejected,Male,F
1654,Rejected,Male,C
3392,Rejected,Male,E
293,Admitted,Male,A
1782,Rejected,Male,C
3658,Rejected,Female,E
4085,Rejected,Male,F
2957,Admitted,Female,D
2934,Admitted,Female,D
3037,Rejected,Female,D
2013,Admitted,Female,C
4493,Rejected,Female,F
2045,Admitted,Female,C
174,Admitted,Male,A
3329,Rejected,Male,E
384,Admitted,Male,A
230,Admitted,Male,A
2537,Admitted,Male,D
4052,Rejected,Male,F
2842,Rejected,Male,D
2699,Rejected,Male,D
3110,Rejected,Female,D
752,Rejected,Male,A
3758,Rejected,Female,E
2085,Rejected,Female,C
4021,Rejected,Male,F
3279,Admitted,Male,E
3067,Rejected,Female,D
1651,Rejected,Male,C
1989,Admitted,Female,C
3537,Rejected,Female,E
2931,Admitted,Female,D
4413,Rejected,Female,F
1193,Admitted,Male,B
1191,Admitted,Male,B
2637,Rejected,Male,D
3377,Rejected,Male,E
1872,Admitted,Female,C
1661,Rejected,Male,C
3582,Rejected,Female,E
2220,Rejected,Female,C
2566,Admitted,Male,D
3505,Admitted,Female,E
3112,Rejected,Female,D
3255,Admitted,Male,E
3795,Rejected,Female,E
2581,Rejected,Male,D
3256,Admitted,Male,E
2518,Admitted,Male,D
3626,Rejected,Female,E
3114,Rejected,Female,D
1519,Admitted,Male,C
3712,Rejected,Female,E
3259,Admitted,Male,E
1208,Admitted,Male,B
806,Rejected,Male,A
2490,Admitted,Male,D
3977,Rejected,Male,F
3834,Admitted,Male,F
4009,Rejected,Male,F
3711,Rejected,Female,E
2476,Admitted,Male,D
4084,Rejected,Male,F
1341,Rejected,Male,B
4204,Admitted,Female,F
3014,Rejected,Female,D
1299,Rejected,Male,B
386,Admitted,Male,A
2107,Rejected,Female,C
4440,Rejected,Female,F
3988,Rejected,Male,F
2078,Rejected,Female,C
192,Admitted,Male,A
1357,Rejected,Male,B
313,Admitted,Male,A
2184,Rejected,Female,C
2527,Admitted,Male,D
633,Rejected,Male,A
1336,Rejected,Male,B
770,Rejected,Male,A
1945,Admitted,Female,C
2024,Admitted,Female,C
1199,Admitted,Male,B
2305,Rejected,Female,C
4111,Rejected,Male,F
1076,Admitted,Male,B
781,Rejected,Male,A
1866,Admitted,Female,C
287,Admitted,Male,A
922,Rejected,Female,A
1278,Admitted,Male,B
1644,Rejected,Male,C
2917,Admitted,Female,D
1289,Rejected,Male,B
3163,Rejected,Female,D
1727,Rejected,Male,C
1917,Admitted,Female,C
533,Rejected,Male,A
3801,Rejected,Female,E
4311,Rejected,Female,F
3982,Rejected,Male,F
2165,Rejected,Female,C
4003,Rejected,Male,F
3903,Rejected,Male,F
896,Admitted,Female,A
2106,Rejected,Female,C
1630,Admitted,Male,C
1123,Admitted,Male,B
4358,Rejected,Female,F
2066,Rejected,Female,C
161,Admitted,Male,A
975,Admitted,Male,B
2861,Admitted,Female,D
2369,Rejected,Female,C
2201,Rejected,Female,C
311,Admitted,Male,A
251,Admitted,Male,A
1950,Admitted,Female,C
3650,Rejected,Female,E
3667,Rejected,Female,E
2966,Admitted,Female,D
470,Admitted,Male,A
1855,Admitted,Female,C
1425,Rejected,Male,B
1362,Rejected,Male,B
2955,Admitted,Female,D
3656,Rejected,Female,E
445,Admitted,Male,A
1702,Rejected,Male,C
1181,Admitted,Male,B
3452,Admitted,Female,E
1213,Admitted,Male,B
1943,Admitted,Female,C
1893,Admitted,Female,C
2673,Rejected,Male,D
1290,Rejected,Male,B
3689,Rejected,Female,E
4405,Rejected,Female,F
3492,Admitted,Female,E
3023,Rejected,Female,D
919,Rejected,Female,A
3590,Rejected,Female,E
4507,Rejected,Female,F
4453,Rejected,Female,F
207,Admitted,Male,A
3187,Rejected,Female,D
1220,Admitted,Male,B
899,Admitted,Female,A
3604,Rejected,Female,E
3130,Rejected,Female,D
725,Rejected,Male,A
378,Admitted,Male,A
1314,Rejected,Male,B
459,Admitted,Male,A
1688,Rejected,Male,C
4406,Rejected,Female,F
1858,Admitted,Female,C
2732,Rejected,Male,D
2117,Rejected,Female,C
1000,Admitted,Male,B
3142,Rejected,Female,D
3056,Rejected,Female,D
2958,Admitted,Female,D
1566,Admitted,Male,C
3260,Admitted,Male,E
2747,Rejected,Male,D
2324,Rejected,Female,C
3427,Admitted,Female,E
2712,Rejected,Male,D
3413,Rejected,Male,E
1800,Rejected,Male,C
3628,Rejected,Female,E
1446,Rejected,Male,B
3077,Rejected,Female,D
1515,Rejected,Female,B
3242,Admitted,Male,E
4463,Rejected,Female,F
2683,Rejected,Male,D
152,Admitted,Male,A
3204,Rejected,Female,D
1030,Admitted,Male,B
2681,Rejected,Male,D
4399,Rejected,Female,F
3512,Admitted,Female,E
2081,Rejected,Female,C
1924,Admitted,Female,C
1417,Rejected,Male,B
2110,Rejected,Female,C
1696,Rejected,Male,C
716,Rejected,Male,A
1127,Admitted,Male,B
3771,Rejected,Female,E
2506,Admitted,Male,D
2689,Rejected,Male,D
1367,Rejected,Male,B
3637,Rejected,Female,E
3226,Rejected,Female,D
4262,Rejected,Female,F
515,Rejected,Male,A
1135,Admitted,Male,B
3936,Rejected,Male,F
114,Admitted,Male,A
4118,Rejected,Male,F
2196,Rejected,Female,C
1576,Admitted,Male,C
2427,Rejected,Female,C
3397,Rejected,Male,E
564,Rejected,Male,A
2516,Admitted,Male,D
846,Admitted,Female,A
63,Admitted,Male,A
419,Admitted,Male,A
1166,Admitted,Male,B
2262,Rejected,Female,C
994,Admitted,Male,B
2058,Rejected,Female,C
1312,Rejected,Male,B
2399,Rejected,Female,C
2447,Admitted,Male,D
2166,Rejected,Female,C
49,Admitted,Male,A
801,Rejected,Male,A
1150,Admitted,Male,B
2643,Rejected,Male,D
630,Rejected,Male,A
2282,Rejected,Female,C
1480,Rejected,Male,B
373,Admitted,Male,A
3561,Rejected,Female,E
4265,Rejected,Female,F
150,Admitted,Male,A
947,Admitted,Male,B
2678,Rejected,Male,D
342,Admitted,Male,A
4044,Rejected,Male,F
726,Rejected,Male,A
1700,Rejected,Male,C
1465,Rejected,Male,B
4109,Rejected,Male,F
1694,Rejected,Male,C
4431,Rejected,Female,F
481,Admitted,Male,A
2272,Rejected,Female,C
3095,Rejected,Female,D
1490,Rejected,Male,B
3190,Rejected,Female,D
2634,Rejected,Male,D
936,Admitted,Male,B
2008,Admitted,Female,C
1477,Rejected,Male,B
4464,Rejected,Female,F
2172,Rejected,Female,C
566,Rejected,Male,A
1170,Admitted,Male,B
3965,Rejected,Male,F
128,Admitted,Male,A
1065,Admitted,Male,B
4332,Rejected,Female,F
907,Admitted,Female,A
4491,Rejected,Female,F
3133,Rejected,Female,D
3964,Rejected,Male,F
1016,Admitted,Male,B
1478,Rejected,Male,B
2443,Admitted,Male,D
60,Admitted,Male,A
1513,Rejected,Female,B
2400,Rejected,Female,C
4514,Rejected,Female,F
1961,Admitted,Female,C
1603,Admitted,Male,C
2384,Rejected,Female,C
3980,Rejected,Male,F
4193,Admitted,Female,F
4312,Rejected,Female,F
2151,Rejected,Female,C
3515,Rejected,Female,E
3709,Rejected,Female,E
1292,Rejected,Male,B
3104,Rejected,Female,D
3953,Rejected,Male,F
2335,Rejected,Female,C
2933,Admitted,Female,D
322,Admitted,Male,A
2703,Rejected,Male,D
3937,Rejected,Male,F
3782,Rejected,Female,E
1400,Rejected,Male,B
22,Admitted,Male,A
3828,Admitted,Male,F
3743,Rejected,Female,E
3873,Rejected,Male,F
3872,Rejected,Male,F
2767,Rejected,Male,D
1541,Admitted,Male,C
1046,Admitted,Male,B
1401,Rejected,Male,B
1059,Admitted,Male,B
1459,Rejected,Male,B
2641,Rejected,Male,D
1306,Rejected,Male,B
2301,Rejected,Female,C
1880,Admitted,Female,C
3224,Rejected,Female,D
3562,Rejected,Female,E
2545,Admitted,Male,D
4037,Rejected,Male,F
895,Admitted,Female,A
4145,Rejected,Male,F
31,Admitted,Male,A
3951,Rejected,Male,F
1315,Rejected,Male,B
1260,Admitted,Male,B
4137,Rejected,Male,F
1588,Admitted,Male,C
910,Admitted,Female,A
2042,Admitted,Female,C
2798,Rejected,Male,D
3851,Rejected,Male,F
592,Rejected,Male,A
746,Rejected,Male,A
1516,Rejected,Female,B
486,Admitted,Male,A
2316,Rejected,Female,C
1356,Rejected,Male,B
2092,Rejected,Female,C
3026,Rejected,Female,D
453,Admitted,Male,A
3534,Rejected,Female,E
1134,Admitted,Male,B
3263,Admitted,Male,E
627,Rejected,Male,A
750,Rejected,Male,A
1057,Admitted,Male,B
2605,Rejected,Male,D
751,Rejected,Male,A
4354,Rejected,Female,F
4398,Rejected,Female,F
2279,Rejected,Female,C
191,Admitted,Male,A
4410,Rejected,Female,F
3340,Rejected,Male,E
3938,Rejected,Male,F
2114,Rejected,Female,C
312,Admitted,Male,A
1017,Admitted,Male,B
4142,Rejected,Male,F
468,Admitted,Male,A
1035,Admitted,Male,B
1018,Admitted,Male,B
808,Rejected,Male,A
4401,Rejected,Female,F
575,Rejected,Male,A
4369,Rejected,Female,F
2227,Rejected,Female,C
1663,Rejected,Male,C
625,Rejected,Male,A
62,Admitted,Male,A
2795,Rejected,Male,D
2752,Rejected,Male,D
1734,Rejected,Male,C
3185,Rejected,Female,D
175,Admitted,Male,A
3320,Rejected,Male,E
4110,Rejected,Male,F
4250,Rejected,Female,F
299,Admitted,Male,A
3208,Rejected,Female,D
3265,Admitted,Male,E
2831,Rejected,Male,D
4172,Rejected,Male,F
1485,Rejected,Male,B
1549,Admitted,Male,C
2776,Rejected,Male,D
2981,Admitted,Female,D
2378,Rejected,Female,C
3993,Rejected,Male,F
1221,Admitted,Male,B
2179,Rejected,Female,C
2269,Rejected,Female,C
1294,Rejected,Male,B
1034,Admitted,Male,B
1523,Admitted,Male,C
497,Admitted,Male,A
70,Admitted,Male,A
4183,Rejected,Male,F
1276,Admitted,Male,B
2816,Rejected,Male,D
1940,Admitted,Female,C
1116,Admitted,Male,B
279,Admitted,Male,A
4455,Rejected,Female,F
121,Admitted,Male,A
3708,Rejected,Female,E
2530,Admitted,Male,D
873,Admitted,Female,A
3690,Rejected,Female,E
4095,Rejected,Male,F
2653,Rejected,Male,D
3579,Rejected,Female,E
2374,Rejected,Female,C
3173,Rejected,Female,D
985,Admitted,Male,B
865,Admitted,Female,A
1983,Admitted,Female,C
300,Admitted,Male,A
1861,Admitted,Female,C
2006,Admitted,Female,C
3044,Rejected,Female,D
3906,Rejected,Male,F
3956,Rejected,Male,F
4228,Rejected,Female,F
181,Admitted,Male,A
2053,Rejected,Female,C
2407,Rejected,Female,C
1721,Rejected,Male,C
784,Rejected,Male,A
819,Rejected,Male,A
2098,Rejected,Female,C
1586,Admitted,Male,C
4165,Rejected,Male,F
3895,Rejected,Male,F
3855,Rejected,Male,F
3539,Rejected,Female,E
904,Admitted,Female,A
520,Rejected,Male,A
2825,Rejected,Male,D
3553,Rejected,Female,E
1187,Admitted,Male,B
2341,Rejected,Female,C
1474,Rejected,Male,B
3126,Rejected,Female,D
2771,Rejected,Male,D
1119,Admitted,Male,B
1742,Rejected,Male,C
2405,Rejected,Female,C
2461,Admitted,Male,D
2296,Rejected,Female,C
3222,Rejected,Female,D
816,Rejected,Male,A
4060,Rejected,Male,F
1997,Admitted,Female,C
29,Admitted,Male,A
2750,Rejected,Male,D
1678,Rejected,Male,C
3141,Rejected,Female,D
3053,Rejected,Female,D
1095,Admitted,Male,B
4264,Rejected,Female,F
2833,Rejected,Male,D
879,Admitted,Female,A
2905,Admitted,Female,D
3821,Admitted,Male,F
3811,Rejected,Female,E
4279,Rejected,Female,F
4385,Rejected,Female,F
3147,Rejected,Female,D
2897,Admitted,Female,D
99,Admitted,Male,A
624,Rejected,Male,A
2962,Admitted,Female,D
4099,Rejected,Male,F
3468,Admitted,Female,E
950,Admitted,Male,B
2158,Rejected,Female,C
1641,Rejected,Male,C
2425,Rejected,Female,C
3371,Rejected,Male,E
1001,Admitted,Male,B
594,Rejected,Male,A
2986,Rejected,Female,D
1385,Rejected,Male,B
3365,Rejected,Male,E
306,Admitted,Male,A
4326,Rejected,Female,F
3783,Rejected,Female,E
2772,Rejected,Male,D
1275,Admitted,Male,B
546,Rejected,Male,A
3877,Rejected,Male,F
2171,Rejected,Female,C
1003,Admitted,Male,B
1364,Rejected,Male,B
3360,Rejected,Male,E
95,Admitted,Male,A
3548,Rejected,Female,E
3960,Rejected,Male,F
469,Admitted,Male,A
1758,Rejected,Male,C
3735,Rejected,Female,E
4131,Rejected,Male,F
3522,Rejected,Female,E
2538,Admitted,Male,D
545,Rejected,Male,A
4383,Rejected,Female,F
133,Admitted,Male,A
3682,Rejected,Female,E
677,Rejected,Male,A
1624,Admitted,Male,C
938,Admitted,Male,B
1423,Rejected,Male,B
1966,Admitted,Female,C
3238,Admitted,Male,E
242,Admitted,Male,A
2438,Admitted,Male,D
707,Rejected,Male,A
2717,Rejected,Male,D
1674,Rejected,Male,C
3223,Rejected,Female,D
2359,Rejected,Female,C
3156,Rejected,Female,D
3832,Admitted,Male,F
3910,Rejected,Male,F
3617,Rejected,Female,E
3839,Rejected,Male,F
547,Rejected,Male,A
2334,Rejected,Female,C
2484,Admitted,Male,D
3995,Rejected,Male,F
2237,Rejected,Female,C
4218,Rejected,Female,F
723,Rejected,Male,A
1898,Admitted,Female,C
2632,Rejected,Male,D
2314,Rejected,Female,C
2395,Rejected,Female,C
3016,Rejected,Female,D
4190,Admitted,Female,F
3538,Rejected,Female,E
4055,Rejected,Male,F
1994,Admitted,Female,C
3595,Rejected,Female,E
2232,Rejected,Female,C
3908,Rejected,Male,F
862,Admitted,Female,A
4454,Rejected,Female,F
764,Rejected,Male,A
1149,Admitted,Male,B
2417,Rejected,Female,C
4117,Rejected,Male,F
3445,Admitted,Female,E
2435,Rejected,Female,C
1564,Admitted,Male,C
695,Rejected,Male,A
881,Admitted,Female,A
3125,Rejected,Female,D
81,Admitted,Male,A
3206,Rejected,Female,D
3797,Rejected,Female,E
2504,Admitted,Male,D
4483,Rejected,Female,F
4231,Rejected,Female,F
362,Admitted,Male,A
634,Rejected,Male,A
2401,Rejected,Female,C
4011,Rejected,Male,F
4054,Rejected,Male,F
2987,Rejected,Female,D
1812,Rejected,Male,C
4232,Rejected,Female,F
4188,Admitted,Female,F
2154,Rejected,Female,C
3952,Rejected,Male,F
3668,Rejected,Female,E
2379,Rejected,Female,C
2512,Admitted,Male,D
1013,Admitted,Male,B
2697,Rejected,Male,D
1631,Admitted,Male,C
3049,Rejected,Female,D
2180,Rejected,Female,C
4347,Rejected,Female,F
912,Admitted,Female,A
1318,Rejected,Male,B
449,Admitted,Male,A
4320,Rejected,Female,F
2116,Rejected,Female,C
1593,Admitted,Male,C
2579,Rejected,Male,D
2067,Rejected,Female,C
2652,Rejected,Male,D
3753,Rejected,Female,E
94,Admitted,Male,A
3089,Rejected,Female,D
3436,Admitted,Female,E
748,Rejected,Male,A
971,Admitted,Male,B
2716,Rejected,Male,D
2559,Admitted,Male,D
1767,Rejected,Male,C
280,Admitted,Male,A
1562,Admitted,Male,C
897,Admitted,Female,A
2786,Rejected,Male,D
3973,Rejected,Male,F
877,Admitted,Female,A
425,Admitted,Male,A
2790,Rejected,Male,D
385,Admitted,Male,A
531,Rejected,Male,A
4459,Rejected,Female,F
2346,Rejected,Female,C
4323,Rejected,Female,F
1403,Rejected,Male,B
946,Admitted,Male,B
942,Admitted,Male,B
2617,Rejected,Male,D
4007,Rejected,Male,F
551,Rejected,Male,A
3225,Rejected,Female,D
36,Admitted,Male,A
1707,Rejected,Male,C
501,Admitted,Male,A
2309,Rejected,Female,C
2391,Rejected,Female,C
1151,Admitted,Male,B
2041,Admitted,Female,C
1529,Admitted,Male,C
2036,Admitted,Female,C
741,Rejected,Male,A
355,Admitted,Male,A
3913,Rejected,Male,F
1171,Admitted,Male,B
1555,Admitted,Male,C
841,Admitted,Female,A
395,Admitted,Male,A
983,Admitted,Male,B
2052,Rejected,Female,C
3884,Rejected,Male,F
804,Rejected,Male,A
2630,Rejected,Male,D
2736,Rejected,Male,D
138,Admitted,Male,A
2792,Rejected,Male,D
2472,Admitted,Male,D
649,Rejected,Male,A
3909,Rejected,Male,F
1658,Rejected,Male,C
3382,Rejected,Male,E
68,Admitted,Male,A
392,Admitted,Male,A
4017,Rejected,Male,F
3096,Rejected,Female,D
3019,Rejected,Female,D
968,Admitted,Male,B
4133,Rejected,Male,F
977,Admitted,Male,B
2669,Rejected,Male,D
2804,Rejected,Male,D
2486,Admitted,Male,D
1773,Rejected,Male,C
113,Admitted,Male,A
2090,Rejected,Female,C
2891,Admitted,Female,D
815,Rejected,Male,A
4340,Rejected,Female,F
2001,Admitted,Female,C
3282,Rejected,Male,E
4105,Rejected,Male,F
1409,Rejected,Male,B
2093,Rejected,Female,C
4186,Admitted,Female,F
32,Admitted,Male,A
691,Rejected,Male,A
814,Rejected,Male,A
964,Admitted,Male,B
3624,Rejected,Female,E
2419,Rejected,Female,C
2519,Admitted,Male,D
1933,Admitted,Female,C
3387,Rejected,Male,E
1353,Rejected,Male,B
4415,Rejected,Female,F
1286,Admitted,Male,B
3935,Rejected,Male,F
702,Rejected,Male,A
1671,Rejected,Male,C
398,Admitted,Male,A
4273,Rejected,Female,F
3241,Admitted,Male,E
3198,Rejected,Female,D
2449,Admitted,Male,D
2633,Rejected,Male,D
3824,Admitted,Male,F
1374,Rejected,Male,B
1237,Admitted,Male,B
3346,Rejected,Male,E
1305,Rejected,Male,B
3087,Rejected,Female,D
1711,Rejected,Male,C
3996,Rejected,Male,F
918,Rejected,Female,A
721,Rejected,Male,A
3807,Rejected,Female,E
1869,Admitted,Female,C
272,Admitted,Male,A
1080,Admitted,Male,B
4243,Rejected,Female,F
4196,Admitted,Female,F
1223,Admitted,Male,B
4287,Rejected,Female,F
3418,Rejected,Male,E
352,Admitted,Male,A
710,Rejected,Male,A
957,Admitted,Male,B
2281,Rejected,Female,C
187,Admitted,Male,A
506,Admitted,Male,A
26,Admitted,Male,A
1530,Admitted,Male,C
4368,Rejected,Female,F
705,Rejected,Male,A
1685,Rejected,Male,C
3449,Admitted,Female,E
4068,Rejected,Male,F
3401,Rejected,Male,E
2280,Rejected,Female,C
3672,Rejected,Female,E
4306,Rejected,Female,F
2600,Rejected,Male,D
2445,Admitted,Male,D
2822,Rejected,Male,D
3025,Rejected,Female,D
832,Admitted,Female,A
1476,Rejected,Male,B
3149,Rejected,Female,D
3246,Admitted,Male,E
1466,Rejected,Male,B
871,Admitted,Female,A
2440,Admitted,Male,D
3066,Rejected,Female,D
4425,Rejected,Female,F
1557,Admitted,Male,C
4525,Rejected,Female,F
1709,Rejected,Male,C
3849,Rejected,Male,F
1182,Admitted,Male,B
1019,Admitted,Male,B
1805,Rejected,Male,C
747,Rejected,Male,A
2943,Admitted,Female,D
4199,Admitted,Female,F
1809,Rejected,Male,C
2970,Admitted,Female,D
2142,Rejected,Female,C
3517,Rejected,Female,E
143,Admitted,Male,A
1265,Admitted,Male,B
3759,Rejected,Female,E
495,Admitted,Male,A
415,Admitted,Male,A
4223,Rejected,Female,F
383,Admitted,Male,A
671,Rejected,Male,A
222,Admitted,Male,A
1968,Admitted,Female,C
4246,Rejected,Female,F
4428,Rejected,Female,F
3306,Rejected,Male,E
1128,Admitted,Male,B
1321,Rejected,Male,B
767,Rejected,Male,A
1238,Admitted,Male,B
266,Admitted,Male,A
4393,Rejected,Female,F
3060,Rejected,Female,D
2849,Rejected,Male,D
1202,Admitted,Male,B
2315,Rejected,Female,C
2145,Rejected,Female,C
3610,Rejected,Female,E
1724,Rejected,Male,C
1006,Admitted,Male,B
1863,Admitted,Female,C
3599,Rejected,Female,E
1494,Admitted,Female,B
655,Rejected,Male,A
3630,Rejected,Female,E
839,Admitted,Female,A
1167,Admitted,Male,B
4292,Rejected,Female,F
3383,Rejected,Male,E
2990,Rejected,Female,D
2994,Rejected,Female,D
3695,Rejected,Female,E
4125,Rejected,Male,F
3967,Rejected,Male,F
1488,Rejected,Male,B
2431,Rejected,Female,C
1973,Admitted,Female,C
4241,Rejected,Female,F
956,Admitted,Male,B
1295,Rejected,Male,B
2358,Rejected,Female,C
1077,Admitted,Male,B
1190,Admitted,Male,B
3448,Admitted,Female,E
3874,Rejected,Male,F
2370,Rejected,Female,C
2173,Rejected,Female,C
1732,Rejected,Male,C
1845,Admitted,Female,C
359,Admitted,Male,A
2780,Rejected,Male,D
3250,Admitted,Male,E
4300,Rejected,Female,F
3032,Rejected,Female,D
3400,Rejected,Male,E
406,Admitted,Male,A
3264,Admitted,Male,E
1591,Admitted,Male,C
1214,Admitted,Male,B
2777,Rejected,Male,D
343,Admitted,Male,A
3969,Rejected,Male,F
4526,Rejected,Female,F
3207,Rejected,Female,D
2353,Rejected,Female,C
1510,Admitted,Female,B
1521,Admitted,Male,C
1146,Admitted,Male,B
3665,Rejected,Female,E
1871,Admitted,Female,C
1804,Rejected,Male,C
3479,Admitted,Female,E
3941,Rejected,Male,F
3704,Rejected,Female,E
47,Admitted,Male,A
3289,Rejected,Male,E
4233,Rejected,Female,F
1324,Rejected,Male,B
284,Admitted,Male,A
4476,Rejected,Female,F
2723,Rejected,Male,D
483,Admitted,Male,A
2668,Rejected,Male,D
3432,Admitted,Female,E
1520,Admitted,Male,C
396,Admitted,Male,A
2253,Rejected,Female,C
2898,Admitted,Female,D
4211,Rejected,Female,F
3607,Rejected,Female,E
3837,Rejected,Male,F
2051,Rejected,Female,C
3178,Rejected,Female,D
4252,Rejected,Female,F
2598,Rejected,Male,D
358,Admitted,Male,A
315,Admitted,Male,A
2609,Rejected,Male,D
4363,Rejected,Female,F
2330,Rejected,Female,C
3918,Rejected,Male,F
2757,Rejected,Male,D
4089,Rejected,Male,F
3639,Rejected,Female,E
1879,Admitted,Female,C
3331,Rejected,Male,E
1972,Admitted,Female,C
2170,Rejected,Female,C
149,Admitted,Male,A
3483,Admitted,Female,E
282,Admitted,Male,A
3423,Admitted,Female,E
1942,Admitted,Female,C
2392,Rejected,Female,C
554,Rejected,Male,A
982,Admitted,Male,B
2178,Rejected,Female,C
2908,Admitted,Female,D
3958,Rejected,Male,F
569,Rejected,Male,A
4404,Rejected,Female,F
205,Admitted,Male,A
3428,Admitted,Female,E
2549,Admitted,Male,D
4104,Rejected,Male,F
2000,Admitted,Female,C
763,Rejected,Male,A
1626,Admitted,Male,C
4353,Rejected,Female,F
3543,Rejected,Female,E
3267,Admitted,Male,E
1008,Admitted,Male,B
3646,Rejected,Female,E
1338,Rejected,Male,B
1291,Rejected,Male,B
4479,Rejected,Female,F
361,Admitted,Male,A
1551,Admitted,Male,C
678,Rejected,Male,A
548,Rejected,Male,A
1414,Rejected,Male,B
3844,Rejected,Male,F
3467,Admitted,Female,E
2143,Rejected,Female,C
3171,Rejected,Female,D
3040,Rejected,Female,D
111,Admitted,Male,A
2,Admitted,Male,A
3736,Rejected,Female,E
3205,Rejected,Female,D
2525,Admitted,Male,D
377,Admitted,Male,A
2283,Rejected,Female,C
274,Admitted,Male,A
857,Admitted,Female,A
4376,Rejected,Female,F
864,Admitted,Female,A
4509,Rejected,Female,F
2604,Rejected,Male,D
2745,Rejected,Male,D
3815,Admitted,Male,F
3984,Rejected,Male,F
1890,Admitted,Female,C
845,Admitted,Female,A
2558,Admitted,Male,D
404,Admitted,Male,A
1860,Admitted,Female,C
3297,Rejected,Male,E
4407,Rejected,Female,F
3128,Rejected,Female,D
670,Rejected,Male,A
3856,Rejected,Male,F
437,Admitted,Male,A
3992,Rejected,Male,F
662,Rejected,Male,A
1528,Admitted,Male,C
2276,Rejected,Female,C
851,Admitted,Female,A
4240,Rejected,Female,F
1241,Admitted,Male,B
1839,Rejected,Male,C
3772,Rejected,Female,E
3741,Rejected,Female,E
3950,Rejected,Male,F
684,Rejected,Male,A
1814,Rejected,Male,C
2726,Rejected,Male,D
3093,Rejected,Female,D
186,Admitted,Male,A
2900,Admitted,Female,D
1784,Rejected,Male,C
2064,Rejected,Female,C
408,Admitted,Male,A
3866,Rejected,Male,F
1350,Rejected,Male,B
939,Admitted,Male,B
755,Rejected,Male,A
3568,Rejected,Female,E
2002,Admitted,Female,C
527,Rejected,Male,A
1032,Admitted,Male,B
1914,Admitted,Female,C
3314,Rejected,Male,E
16,Admitted,Male,A
2799,Rejected,Male,D
2505,Admitted,Male,D
4449,Rejected,Female,F
2320,Rejected,Female,C
610,Rejected,Male,A
1052,Admitted,Male,B
2754,Rejected,Male,D
2187,Rejected,Female,C
485,Admitted,Male,A
1068,Admitted,Male,B
4502,Rejected,Female,F
4486,Rejected,Female,F
3319,Rejected,Male,E
4367,Rejected,Female,F
4442,Rejected,Female,F
1643,Rejected,Male,C
1544,Admitted,Male,C
3780,Rejected,Female,E
786,Rejected,Male,A
2133,Rejected,Female,C
1795,Rejected,Male,C
2778,Rejected,Male,D
3275,Admitted,Male,E
2460,Admitted,Male,D
727,Rejected,Male,A
4283,Rejected,Female,F
1456,Rejected,Male,B
3072,Rejected,Female,D
1604,Admitted,Male,C
2677,Rejected,Male,D
1462,Rejected,Male,B
3369,Rejected,Male,E
3100,Rejected,Female,D
2674,Rejected,Male,D
2638,Rejected,Male,D
245,Admitted,Male,A
2664,Rejected,Male,D
2885,Admitted,Female,D
4195,Admitted,Female,F
618,Rejected,Male,A
1393,Rejected,Male,B
473,Admitted,Male,A
3524,Rejected,Female,E
813,Rejected,Male,A
3232,Admitted,Male,E
2627,Rejected,Male,D
1063,Admitted,Male,B
3642,Rejected,Female,E
296,Admitted,Male,A
1162,Admitted,Male,B
1623,Admitted,Male,C
2575,Rejected,Male,D
1020,Admitted,Male,B
176,Admitted,Male,A
2923,Admitted,Female,D
1935,Admitted,Female,C
525,Rejected,Male,A
3374,Rejected,Male,E
1358,Rejected,Male,B
3184,Rejected,Female,D
1043,Admitted,Male,B
578,Rejected,Male,A
106,Admitted,Male,A
2338,Rejected,Female,C
1684,Rejected,Male,C
1600,Admitted,Male,C
3197,Rejected,Female,D
3281,Admitted,Male,E
1421,Rejected,Male,B
3657,Rejected,Female,E
1440,Rejected,Male,B
1832,Rejected,Male,C
3820,Admitted,Male,F
4462,Rejected,Female,F
4293,Rejected,Female,F
3870,Rejected,Male,F
694,Rejected,Male,A
1482,Rejected,Male,B
3861,Rejected,Male,F
3803,Rejected,Female,E
1967,Admitted,Female,C
269,Admitted,Male,A
1194,Admitted,Male,B
1703,Rejected,Male,C
4345,Rejected,Female,F
433,Admitted,Male,A
4039,Rejected,Male,F
84,Admitted,Male,A
508,Admitted,Male,A
3253,Admitted,Male,E
2806,Rejected,Male,D
3516,Rejected,Female,E
1297,Rejected,Male,B
1575,Admitted,Male,C
891,Admitted,Female,A
2995,Rejected,Female,D
1209,Admitted,Male,B
3732,Rejected,Female,E
1229,Admitted,Male,B
3745,Rejected,Female,E
4230,Rejected,Female,F
637,Rejected,Male,A
949,Admitted,Male,B
1692,Rejected,Male,C
514,Rejected,Male,A
2929,Admitted,Female,D
1293,Rejected,Male,B
2899,Admitted,Female,D
2018,Admitted,Female,C
3456,Admitted,Female,E
2704,Rejected,Male,D
261,Admitted,Male,A
4266,Rejected,Female,F
484,Admitted,Male,A
2901,Admitted,Female,D
2368,Rejected,Female,C
1359,Rejected,Male,B
2843,Rejected,Male,D
613,Rejected,Male,A
3731,Rejected,Female,E
142,Admitted,Male,A
3485,Admitted,Female,E
973,Admitted,Male,B
3716,Rejected,Female,E
2236,Rejected,Female,C
1992,Admitted,Female,C
2396,Rejected,Female,C
2199,Rejected,Female,C
635,Rejected,Male,A
2593,Rejected,Male,D
2387,Rejected,Female,C
1268,Admitted,Male,B
990,Admitted,Male,B
3706,Rejected,Female,E
2887,Admitted,Female,D
2584,Rejected,Male,D
542,Rejected,Male,A
1778,Rejected,Male,C
1479,Rejected,Male,B
56,Admitted,Male,A
3168,Rejected,Female,D
3411,Rejected,Male,E
2948,Admitted,Female,D
571,Rejected,Male,A
4141,Rejected,Male,F
2426,Rejected,Female,C
1489,Rejected,Male,B
3923,Rejected,Male,F
4361,Rejected,Female,F
2818,Rejected,Male,D
2111,Rejected,Female,C
3302,Rejected,Male,E
123,Admitted,Male,A
3109,Rejected,Female,D
3891,Rejected,Male,F
1379,Rejected,Male,B
523,Rejected,Male,A
3822,Admitted,Male,F
3433,Admitted,Female,E
880,Admitted,Female,A
2503,Admitted,Male,D
3278,Admitted,Male,E
368,Admitted,Male,A
379,Admitted,Male,A
3286,Rejected,Male,E
4251,Rejected,Female,F
679,Rejected,Male,A
1892,Admitted,Female,C
586,Rejected,Male,A
1082,Admitted,Male,B
2010,Admitted,Female,C
2665,Rejected,Male,D
1902,Admitted,Female,C
321,Admitted,Male,A
2556,Admitted,Male,D
2475,Admitted,Male,D
1818,Rejected,Male,C
199,Admitted,Male,A
2222,Rejected,Female,C
1827,Rejected,Male,C
2356,Rejected,Female,C
130,Admitted,Male,A
4006,Rejected,Male,F
3490,Admitted,Female,E
1277,Admitted,Male,B
588,Rejected,Male,A
4452,Rejected,Female,F
615,Rejected,Male,A
1876,Admitted,Female,C
2971,Admitted,Female,D
3922,Rejected,Male,F
476,Admitted,Male,A
3017,Rejected,Female,D
1625,Admitted,Male,C
1705,Rejected,Male,C
2345,Rejected,Female,C
210,Admitted,Male,A
3285,Rejected,Male,E
1744,Rejected,Male,C
9,Admitted,Male,A
2661,Rejected,Male,D
3813,Admitted,Male,F
681,Rejected,Male,A
3059,Rejected,Female,D
1157,Admitted,Male,B
4468,Rejected,Female,F
2230,Rejected,Female,C
4339,Rejected,Female,F
2744,Rejected,Male,D
4220,Rejected,Female,F
365,Admitted,Male,A
374,Admitted,Male,A
2352,Rejected,Female,C
3962,Rejected,Male,F
4458,Rejected,Female,F
2602,Rejected,Male,D
1445,Rejected,Male,B
2202,Rejected,Female,C
1830,Rejected,Male,C
216,Admitted,Male,A
2124,Rejected,Female,C
1061,Admitted,Male,B
307,Admitted,Male,A
609,Rejected,Male,A
4335,Rejected,Female,F
3308,Rejected,Male,E
256,Admitted,Male,A
2854,Admitted,Female,D
890,Admitted,Female,A
203,Admitted,Male,A
3719,Rejected,Female,E
1211,Admitted,Male,B
4206,Admitted,Female,F
4465,Rejected,Female,F
4004,Rejected,Male,F
1763,Rejected,Male,C
4189,Admitted,Female,F
102,Admitted,Male,A
1234,Admitted,Male,B
3860,Rejected,Male,F
171,Admitted,Male,A
901,Admitted,Female,A
735,Rejected,Male,A
480,Admitted,Male,A
2902,Admitted,Female,D
14,Admitted,Male,A
3694,Rejected,Female,E
104,Admitted,Male,A
3143,Rejected,Female,D
927,Rejected,Female,A
2892,Admitted,Female,D
1384,Rejected,Male,B
4038,Rejected,Male,F
3765,Rejected,Female,E
2121,Rejected,Female,C
1662,Rejected,Male,C
360,Admitted,Male,A
3376,Rejected,Male,E
3612,Rejected,Female,E
3559,Rejected,Female,E
4032,Rejected,Male,F
1537,Admitted,Male,C
1679,Rejected,Male,C
1407,Rejected,Male,B
2028,Admitted,Female,C
2535,Admitted,Male,D
2113,Rejected,Female,C
2034,Admitted,Female,C
4301,Rejected,Female,F
44,Admitted,Male,A
2420,Rejected,Female,C
3511,Admitted,Female,E
119,Admitted,Male,A
3486,Admitted,Female,E
118,Admitted,Male,A
2769,Rejected,Male,D
805,Rejected,Male,A
555,Rejected,Male,A
155,Admitted,Male,A
3115,Rejected,Female,D
2625,Rejected,Male,D
2924,Admitted,Female,D
46,Admitted,Male,A
1487,Rejected,Male,B
3402,Rejected,Male,E
3574,Rejected,Female,E
1248,Admitted,Male,B
69,Admitted,Male,A
4327,Rejected,Female,F
2333,Rejected,Female,C
562,Rejected,Male,A
2871,Admitted,Female,D
4439,Rejected,Female,F
2821,Rejected,Male,D
517,Rejected,Male,A
132,Admitted,Male,A
2459,Admitted,Male,D
1996,Admitted,Female,C
4315,Rejected,Female,F
898,Admitted,Female,A
3416,Rejected,Male,E
780,Rejected,Male,A
4396,Rejected,Female,F
4303,Rejected,Female,F
590,Rejected,Male,A
556,Rejected,Male,A
1259,Admitted,Male,B
2992,Rejected,Female,D
1870,Admitted,Female,C
1584,Admitted,Male,C
189,Admitted,Male,A
1794,Rejected,Male,C
1990,Admitted,Female,C
3653,Rejected,Female,E
435,Admitted,Male,A
2049,Rejected,Female,C
2946,Admitted,Female,D
4305,Rejected,Female,F
3460,Admitted,Female,E
1569,Admitted,Male,C
2940,Admitted,Female,D
1550,Admitted,Male,C
3764,Rejected,Female,E
1243,Admitted,Male,B
2542,Admitted,Male,D
958,Admitted,Male,B
78,Admitted,Male,A
2651,Rejected,Male,D
2797,Rejected,Male,D
2017,Admitted,Female,C
1048,Admitted,Male,B
1424,Rejected,Male,B
4469,Rejected,Female,F
447,Admitted,Male,A
1878,Admitted,Female,C
4421,Rejected,Female,F
2930,Admitted,Female,D
3097,Rejected,Female,D
1089,Admitted,Male,B
749,Rejected,Male,A
4070,Rejected,Male,F
252,Admitted,Male,A
1004,Admitted,Male,B
2025,Admitted,Female,C
4317,Rejected,Female,F
2100,Rejected,Female,C
182,Admitted,Male,A
2128,Rejected,Female,C
4373,Rejected,Female,F
4063,Rejected,Male,F
693,Rejected,Male,A
292,Admitted,Male,A
3310,Rejected,Male,E
3810,Rejected,Female,E
1508,Admitted,Female,B
4092,Rejected,Male,F
1975,Admitted,Female,C
487,Admitted,Male,A
1730,Rejected,Male,C
3770,Rejected,Female,E
1712,Rejected,Male,C
3525,Rejected,Female,E
2466,Admitted,Male,D
4256,Rejected,Female,F
21,Admitted,Male,A
1616,Admitted,Male,C
283,Admitted,Male,A
4,Admitted,Male,A
122,Admitted,Male,A
536,Rejected,Male,A
1217,Admitted,Male,B
3905,Rejected,Male,F
3273,Admitted,Male,E
2371,Rejected,Female,C
457,Admitted,Male,A
2864,Admitted,Female,D
1522,Admitted,Male,C
3280,Admitted,Male,E
179,Admitted,Male,A
2451,Admitted,Male,D
4419,Rejected,Female,F
1695,Rejected,Male,C
3438,Admitted,Female,E
1024,Admitted,Male,B
3450,Admitted,Female,E
511,Admitted,Male,A
491,Admitted,Male,A
2087,Rejected,Female,C
288,Admitted,Male,A
2363,Rejected,Female,C
195,Admitted,Male,A
4500,Rejected,Female,F
795,Rejected,Male,A
3186,Rejected,Female,D
2693,Rejected,Male,D
3231,Admitted,Male,E
754,Rejected,Male,A
3211,Rejected,Female,D
809,Rejected,Male,A
988,Admitted,Male,B
683,Rejected,Male,A
1751,Rejected,Male,C
4198,Admitted,Female,F
2534,Admitted,Male,D
1463,Rejected,Male,B
314,Admitted,Male,A
1225,Admitted,Male,B
777,Rejected,Male,A
1836,Rejected,Male,C
410,Admitted,Male,A
3165,Rejected,Female,D
2047,Rejected,Female,C
1060,Admitted,Male,B
3532,Rejected,Female,E
131,Admitted,Male,A
3108,Rejected,Female,D
320,Admitted,Male,A
2377,Rejected,Female,C
1656,Rejected,Male,C
3210,Rejected,Female,D
3342,Rejected,Male,E
1667,Rejected,Male,C
3954,Rejected,Male,F
850,Admitted,Female,A
1067,Admitted,Male,B
3823,Admitted,Male,F
1690,Rejected,Male,C
3337,Rejected,Male,E
4484,Rejected,Female,F
1329,Rejected,Male,B
3932,Rejected,Male,F
3177,Rejected,Female,D
4379,Rejected,Female,F
886,Admitted,Female,A
2807,Rejected,Male,D
1717,Rejected,Male,C
3328,Rejected,Male,E
4397,Rejected,Female,F
3394,Rejected,Male,E
2351,Rejected,Female,C
4001,Rejected,Male,F
1081,Admitted,Male,B
2428,Rejected,Female,C
3010,Rejected,Female,D
4112,Rejected,Male,F
4374,Rejected,Female,F
3295,Rejected,Male,E
1615,Admitted,Male,C
1527,Admitted,Male,C
2522,Admitted,Male,D
1133,Admitted,Male,B
657,Rejected,Male,A
1261,Admitted,Male,B
3602,Rejected,Female,E
2658,Rejected,Male,D
1110,Admitted,Male,B
4069,Rejected,Male,F
1687,Rejected,Male,C
1091,Admitted,Male,B
2662,Rejected,Male,D
1140,Admitted,Male,B
1137,Admitted,Male,B
1183,Admitted,Male,B
1909,Admitted,Female,C
72,Admitted,Male,A
1602,Admitted,Male,C
4488,Rejected,Female,F
4310,Rejected,Female,F
3134,Rejected,Female,D
1785,Rejected,Male,C
1464,Rejected,Male,B
4136,Rejected,Male,F
3172,Rejected,Female,D
2331,Rejected,Female,C
1028,Admitted,Male,B
692,Rejected,Male,A
61,Admitted,Male,A
2337,Rejected,Female,C
902,Admitted,Female,A
2531,Admitted,Male,D
301,Admitted,Male,A
3733,Rejected,Female,E
2366,Rejected,Female,C
4499,Rejected,Female,F
2597,Rejected,Male,D
4480,Rejected,Female,F
1397,Rejected,Male,B
208,Admitted,Male,A
429,Admitted,Male,A
2880,Admitted,Female,D
1174,Admitted,Male,B
3419,Rejected,Male,E
4162,Rejected,Male,F
3218,Rejected,Female,D
730,Rejected,Male,A
1642,Rejected,Male,C
1012,Admitted,Male,B
2299,Rejected,Female,C
1088,Admitted,Male,B
2258,Rejected,Female,C
2079,Rejected,Female,C
3831,Admitted,Male,F
258,Admitted,Male,A
4160,Rejected,Male,F
3955,Rejected,Male,F
2105,Rejected,Female,C
1617,Admitted,Male,C
1864,Admitted,Female,C
3876,Rejected,Male,F
803,Rejected,Male,A
4236,Rejected,Female,F
394,Admitted,Male,A
1042,Admitted,Male,B
4508,Rejected,Female,F
2464,Admitted,Male,D
739,Rejected,Male,A
3989,Rejected,Male,F
3827,Admitted,Male,F
2492,Admitted,Male,D
1938,Admitted,Female,C
3229,Admitted,Male,E
3203,Rejected,Female,D
621,Rejected,Male,A
4524,Rejected,Female,F
1050,Admitted,Male,B
27,Admitted,Male,A
1710,Rejected,Male,C
3781,Rejected,Female,E
3818,Admitted,Male,F
1233,Admitted,Male,B
2091,Rejected,Female,C
4049,Rejected,Male,F
196,Admitted,Male,A
4325,Rejected,Female,F
1163,Admitted,Male,B
1504,Admitted,Female,B
3117,Rejected,Female,D
760,Rejected,Male,A
1825,Rejected,Male,C
1736,Rejected,Male,C
2551,Admitted,Male,D
1340,Rejected,Male,B
4521,Rejected,Female,F
3214,Rejected,Female,D
2968,Admitted,Female,D
316,Admitted,Male,A
1334,Rejected,Male,B
2469,Admitted,Male,D
466,Admitted,Male,A
2080,Rejected,Female,C
4289,Rejected,Female,F
340,Admitted,Male,A
3959,Rejected,Male,F
512,Admitted,Male,A
2083,Rejected,Female,C
2812,Rejected,Male,D
4348,Rejected,Female,F
1964,Admitted,Female,C
4487,Rejected,Female,F
1180,Admitted,Male,B
3470,Admitted,Female,E
2599,Rejected,Male,D
1713,Rejected,Male,C
2562,Admitted,Male,D
2191,Rejected,Female,C
271,Admitted,Male,A
2385,Rejected,Female,C
790,Rejected,Male,A
3885,Rejected,Male,F
3148,Rejected,Female,D
344,Admitted,Male,A
3869,Rejected,Male,F
3674,Rejected,Female,E
4140,Rejected,Male,F
331,Admitted,Male,A
2944,Admitted,Female,D
2348,Rejected,Female,C
831,Admitted,Female,A
1955,Admitted,Female,C
2932,Admitted,Female,D
4429,Rejected,Female,F
168,Admitted,Male,A
228,Admitted,Male,A
1436,Rejected,Male,B
2265,Rejected,Female,C
1025,Admitted,Male,B
1932,Admitted,Female,C
4185,Rejected,Male,F
2628,Rejected,Male,D
2729,Rejected,Male,D
1960,Admitted,Female,C
4154,Rejected,Male,F
4094,Rejected,Male,F
4083,Rejected,Male,F
477,Admitted,Male,A
3924,Rejected,Male,F
4120,Rejected,Male,F
3591,Rejected,Female,E
1316,Rejected,Male,B
1581,Admitted,Male,C
2840,Rejected,Male,D
2614,Rejected,Male,D
421,Admitted,Male,A
3074,Rejected,Female,D
1740,Rejected,Male,C
4187,Admitted,Female,F
2920,Admitted,Female,D
604,Rejected,Male,A
3592,Rejected,Female,E
643,Rejected,Male,A
1309,Rejected,Male,B
3751,Rejected,Female,E
4205,Admitted,Female,F
2514,Admitted,Male,D
3480,Admitted,Female,E
700,Rejected,Male,A
507,Admitted,Male,A
3897,Rejected,Male,F
4167,Rejected,Male,F
4048,Rejected,Male,F
2980,Admitted,Female,D
4050,Rejected,Male,F
4079,Rejected,Male,F
1073,Admitted,Male,B
1168,Admitted,Male,B
961,Admitted,Male,B
236,Admitted,Male,A
2144,Rejected,Female,C
3341,Rejected,Male,E
3618,Rejected,Female,E
2056,Rejected,Female,C
3847,Rejected,Male,F
785,Rejected,Male,A
1111,Admitted,Male,B
4013,Rejected,Male,F
2636,Rejected,Male,D
2858,Admitted,Female,D
1481,Rejected,Male,B
3707,Rejected,Female,E
2532,Admitted,Male,D
1691,Rejected,Male,C
1633,Admitted,Male,C
2163,Rejected,Female,C
2122,Rejected,Female,C
2577,Rejected,Male,D
665,Rejected,Male,A
2708,Rejected,Male,D
4153,Rejected,Male,F
3556,Rejected,Female,E
1823,Rejected,Male,C
3031,Rejected,Female,D
3640,Rejected,Female,E
3501,Admitted,Female,E
4400,Rejected,Female,F
1204,Admitted,Male,B
3808,Rejected,Female,E
1502,Admitted,Female,B
4235,Rejected,Female,F
4504,Rejected,Female,F
353,Admitted,Male,A
577,Rejected,Male,A
2601,Rejected,Male,D
2779,Rejected,Male,D
3254,Admitted,Male,E
1936,Admitted,Female,C
2808,Rejected,Male,D
1930,Admitted,Female,C
2783,Rejected,Male,D
1302,Rejected,Male,B
3042,Rejected,Female,D
13,Admitted,Male,A
1969,Admitted,Female,C
247,Admitted,Male,A
2284,Rejected,Female,C
668,Rejected,Male,A
3024,Rejected,Female,D
1796,Rejected,Male,C
3375,Rejected,Male,E
493,Admitted,Male,A
4177,Rejected,Male,F
3351,Rejected,Male,E
1394,Rejected,Male,B
1650,Rejected,Male,C
3904,Rejected,Male,F
2763,Rejected,Male,D
317,Admitted,Male,A
494,Admitted,Male,A
669,Rejected,Male,A
3003,Rejected,Female,D
3619,Rejected,Female,E
1509,Admitted,Female,B
2762,Rejected,Male,D
1419,Rejected,Male,B
3124,Rejected,Female,D
3431,Admitted,Female,E
1962,Admitted,Female,C
3940,Rejected,Male,F
1856,Admitted,Female,C
2624,Rejected,Male,D
3507,Admitted,Female,E
177,Admitted,Male,A
3399,Rejected,Male,E
2582,Rejected,Male,D
3631,Rejected,Female,E
3788,Rejected,Female,E
3655,Rejected,Female,E
986,Admitted,Male,B
3307,Rejected,Male,E
4036,Rejected,Male,F
2317,Rejected,Female,C
135,Admitted,Male,A
987,Admitted,Male,B
4010,Rejected,Male,F
2814,Rejected,Male,D
3249,Admitted,Male,E
4478,Rejected,Female,F
3251,Admitted,Male,E
4409,Rejected,Female,F
3975,Rejected,Male,F
2491,Admitted,Male,D
889,Admitted,Female,A
3326,Rejected,Male,E
238,Admitted,Male,A
257,Admitted,Male,A
887,Admitted,Female,A
2909,Admitted,Female,D
3634,Rejected,Female,E
807,Rejected,Male,A
1132,Admitted,Male,B
1021,Admitted,Male,B
3901,Rejected,Male,F
4053,Rejected,Male,F
2148,Rejected,Female,C
799,Rejected,Male,A
399,Admitted,Male,A
1189,Admitted,Male,B
2194,Rejected,Female,C
3985,Rejected,Male,F
639,Rejected,Male,A
2761,Rejected,Male,D
885,Admitted,Female,A
2564,Admitted,Male,D
1755,Rejected,Male,C
3899,Rejected,Male,F
4229,Rejected,Female,F
1599,Admitted,Male,C
1881,Admitted,Female,C
645,Rejected,Male,A
2882,Admitted,Female,D
1999,Admitted,Female,C
1885,Admitted,Female,C
995,Admitted,Male,B
3647,Rejected,Female,E
4138,Rejected,Male,F
2099,Rejected,Female,C
4071,Rejected,Male,F
4169,Rejected,Male,F
2259,Rejected,Female,C
4329,Rejected,Female,F
1984,Admitted,Female,C
3350,Rejected,Male,E
1092,Admitted,Male,B
3159,Rejected,Female,D
2688,Rejected,Male,D
2175,Rejected,Female,C
3474,Admitted,Female,E
611,Rejected,Male,A
4307,Rejected,Female,F
2515,Admitted,Male,D
1781,Rejected,Male,C
2787,Rejected,Male,D
4441,Rejected,Female,F
3215,Rejected,Female,D
1366,Rejected,Male,B
2147,Rejected,Female,C
2855,Admitted,Female,D
3176,Rejected,Female,D
3793,Rejected,Female,E
698,Rejected,Male,A
3576,Rejected,Female,E
2277,Rejected,Female,C
45,Admitted,Male,A
1283,Admitted,Male,B
4043,Rejected,Male,F
1228,Admitted,Male,B
596,Rejected,Male,A
2613,Rejected,Male,D
3701,Rejected,Female,E
4077,Rejected,Male,F
2290,Rejected,Female,C
1154,Admitted,Male,B
2336,Rejected,Female,C
2563,Admitted,Male,D
1144,Admitted,Male,B
86,Admitted,Male,A
3686,Rejected,Female,E
3986,Rejected,Male,F
335,Admitted,Male,A
2132,Rejected,Female,C
1939,Admitted,Female,C
97,Admitted,Male,A
2639,Rejected,Male,D
391,Admitted,Male,A
267,Admitted,Male,A
4366,Rejected,Female,F
3504,Admitted,Female,E
1,Admitted,Male,A
2436,Rejected,Female,C
1766,Rejected,Male,C
972,Admitted,Male,B
2224,Rejected,Female,C
1904,Admitted,Female,C
4184,Rejected,Male,F
522,Rejected,Male,A
3233,Admitted,Male,E
3403,Rejected,Male,E
147,Admitted,Male,A
3157,Rejected,Female,D
720,Rejected,Male,A
1245,Admitted,Male,B
2937,Admitted,Female,D
870,Admitted,Female,A
2654,Rejected,Male,D
1777,Rejected,Male,C
2038,Admitted,Female,C
2014,Admitted,Female,C
2040,Admitted,Female,C
4031,Rejected,Male,F
1473,Rejected,Male,B
1838,Rejected,Male,C
565,Rejected,Male,A
3675,Rejected,Female,E
3462,Admitted,Female,E
2738,Rejected,Male,D
4477,Rejected,Female,F
387,Admitted,Male,A
2442,Admitted,Male,D
3840,Rejected,Male,F
1739,Rejected,Male,C
137,Admitted,Male,A
2082,Rejected,Female,C
4091,Rejected,Male,F
1609,Admitted,Male,C
4472,Rejected,Female,F
1391,Rejected,Male,B
1363,Rejected,Male,B
1448,Rejected,Male,B
2275,Rejected,Female,C
2650,Rejected,Male,D
4168,Rejected,Male,F
1723,Rejected,Male,C
2197,Rejected,Female,C
1865,Admitted,Female,C
3766,Rejected,Female,E
3687,Rejected,Female,E
3768,Rejected,Female,E
1343,Rejected,Male,B
2478,Admitted,Male,D
2526,Admitted,Male,D
3609,Rejected,Female,E
1304,Rejected,Male,B
401,Admitted,Male,A
1636,Admitted,Male,C
2742,Rejected,Male,D
3503,Admitted,Female,E
4330,Rejected,Female,F
438,Admitted,Male,A
3434,Admitted,Female,E
2925,Admitted,Female,D
3137,Rejected,Female,D
2044,Admitted,Female,C
704,Rejected,Male,A
3563,Rejected,Female,E
4387,Rejected,Female,F
4093,Rejected,Male,F
1126,Admitted,Male,B
914,Admitted,Female,A
3601,Rejected,Female,E
2221,Rejected,Female,C
1793,Rejected,Male,C
3069,Rejected,Female,D
1664,Rejected,Male,C
3078,Rejected,Female,D
2311,Rejected,Female,C
3841,Rejected,Male,F
1441,Rejected,Male,B
510,Admitted,Male,A
2984,Admitted,Female,D
3730,Rejected,Female,E
357,Admitted,Male,A
3893,Rejected,Male,F
2411,Rejected,Female,C
2297,Rejected,Female,C
3390,Rejected,Male,E
3930,Rejected,Male,F
1645,Rejected,Male,C
762,Rejected,Male,A
2766,Rejected,Male,D
2553,Admitted,Male,D
3688,Rejected,Female,E
1756,Rejected,Male,C
4121,Rejected,Male,F
125,Admitted,Male,A
277,Admitted,Male,A
1952,Admitted,Female,C
685,Rejected,Male,A
3727,Rejected,Female,E
524,Rejected,Male,A
1120,Admitted,Male,B
2186,Rejected,Female,C
246,Admitted,Male,A
2695,Rejected,Male,D
3482,Admitted,Female,E
4015,Rejected,Male,F
1308,Rejected,Male,B
2389,Rejected,Female,C
774,Rejected,Male,A
19,Admitted,Male,A
1037,Admitted,Male,B
2768,Rejected,Male,D
259,Admitted,Male,A
1648,Rejected,Male,C
291,Admitted,Male,A
1152,Admitted,Male,B
2140,Rejected,Female,C
1980,Admitted,Female,C
3763,Rejected,Female,E
3713,Rejected,Female,E
3508,Admitted,Female,E
162,Admitted,Male,A
262,Admitted,Male,A
3359,Rejected,Male,E
1242,Admitted,Male,B
3343,Rejected,Male,E
229,Admitted,Male,A
4219,Rejected,Female,F
3406,Rejected,Male,E
4012,Rejected,Male,F
424,Admitted,Male,A
350,Admitted,Male,A
1886,Admitted,Female,C
1348,Rejected,Male,B
4173,Rejected,Male,F
2109,Rejected,Female,C
3039,Rejected,Female,D
3796,Rejected,Female,E
951,Admitted,Male,B
496,Admitted,Male,A
3027,Rejected,Female,D
35,Admitted,Male,A
4139,Rejected,Male,F
4370,Rejected,Female,F
3303,Rejected,Male,E
3566,Rejected,Female,E
3311,Rejected,Male,E
1571,Admitted,Male,C
3301,Rejected,Male,E
3702,Rejected,Female,E
965,Admitted,Male,B
3833,Admitted,Male,F
3949,Rejected,Male,F
124,Admitted,Male,A
4375,Rejected,Female,F
2656,Rejected,Male,D
3061,Rejected,Female,D
24,Admitted,Male,A
2969,Admitted,Female,D
2967,Admitted,Female,D
3926,Rejected,Male,F
3703,Rejected,Female,E
3724,Rejected,Female,E
2788,Rejected,Male,D
717,Rejected,Male,A
3420,Admitted,Female,E
1906,Admitted,Female,C
740,Rejected,Male,A
2285,Rejected,Female,C
2847,Rejected,Male,D
1087,Admitted,Male,B
567,Rejected,Male,A
2978,Admitted,Female,D
729,Rejected,Male,A
224,Admitted,Male,A
3916,Rejected,Male,F
3327,Rejected,Male,E
3430,Admitted,Female,E
2659,Rejected,Male,D
1097,Admitted,Male,B
2686,Rejected,Male,D
3262,Admitted,Male,E
518,Rejected,Male,A
3540,Rejected,Female,E
3802,Rejected,Female,E
2851,Rejected,Male,D
4257,Rejected,Female,F
1680,Rejected,Male,C
923,Rejected,Female,A
2572,Admitted,Male,D
1673,Rejected,Male,C
607,Rejected,Male,A
2043,Admitted,Female,C
3312,Rejected,Male,E
1622,Admitted,Male,C
354,Admitted,Male,A
3235,Admitted,Male,E
3111,Rejected,Female,D
1511,Rejected,Female,B
3541,Rejected,Female,E
409,Admitted,Male,A
2863,Admitted,Female,D
2853,Rejected,Male,D
1668,Rejected,Male,C
1931,Admitted,Female,C
3257,Admitted,Male,E
3775,Rejected,Female,E
999,Admitted,Male,B
1908,Admitted,Female,C
2508,Admitted,Male,D
658,Rejected,Male,A
285,Admitted,Male,A
3806,Rejected,Female,E
1606,Admitted,Male,C
824,Rejected,Male,A
3800,Rejected,Female,E
2585,Rejected,Male,D
991,Admitted,Male,B
4255,Rejected,Female,F
4018,Rejected,Male,F
2441,Admitted,Male,D
341,Admitted,Male,A
686,Rejected,Male,A
960,Admitted,Male,B
2865,Admitted,Female,D
1083,Admitted,Male,B
93,Admitted,Male,A
1835,Rejected,Male,C
1011,Admitted,Male,B
4005,Rejected,Male,F
1207,Admitted,Male,B
2883,Admitted,Female,D
2820,Rejected,Male,D
2141,Rejected,Female,C
1279,Admitted,Male,B
2618,Rejected,Male,D
475,Admitted,Male,A
159,Admitted,Male,A
4248,Rejected,Female,F
4000,Rejected,Male,F
4008,Rejected,Male,F
2640,Rejected,Male,D
4485,Rejected,Female,F
3291,Rejected,Male,E
3760,Rejected,Female,E
2421,Rejected,Female,C
1852,Admitted,Female,C
3921,Rejected,Male,F
1231,Admitted,Male,B
4182,Rejected,Male,F
3625,Rejected,Female,E
2473,Admitted,Male,D
3756,Rejected,Female,E
3700,Rejected,Female,E
231,Admitted,Male,A
1303,Rejected,Male,B
2350,Rejected,Female,C
599,Rejected,Male,A
3641,Rejected,Female,E
1031,Admitted,Male,B
1410,Rejected,Male,B
3974,Rejected,Male,F
932,Rejected,Female,A
2319,Rejected,Female,C
2819,Rejected,Male,D
2546,Admitted,Male,D
3994,Rejected,Male,F
1254,Admitted,Male,B
1891,Admitted,Female,C
967,Admitted,Male,B
553,Rejected,Male,A
3580,Rejected,Female,E
3417,Rejected,Male,E
2845,Rejected,Male,D
1503,Admitted,Female,B
4291,Rejected,Female,F
2076,Rejected,Female,C
2684,Rejected,Male,D
3041,Rejected,Female,D
1447,Rejected,Male,B
2989,Rejected,Female,D
4516,Rejected,Female,F
3882,Rejected,Male,F
1567,Admitted,Male,C
1765,Rejected,Male,C
1841,Rejected,Male,C
3662,Rejected,Female,E
3196,Rejected,Female,D
4108,Rejected,Male,F
1828,Rejected,Male,C
1596,Admitted,Male,C
1761,Rejected,Male,C
1844,Admitted,Female,C
2448,Admitted,Male,D
2089,Rejected,Female,C
3271,Admitted,Male,E
2204,Rejected,Female,C
4512,Rejected,Female,F
3370,Rejected,Male,E
1271,Admitted,Male,B
1621,Admitted,Male,C
1450,Rejected,Male,B
1910,Admitted,Female,C
3461,Admitted,Female,E
334,Admitted,Male,A
1381,Rejected,Male,B
2913,Admitted,Female,D
1704,Rejected,Male,C
2874,Admitted,Female,D
3446,Admitted,Female,E
1807,Rejected,Male,C
3083,Rejected,Female,D
585,Rejected,Male,A
3323,Rejected,Male,E
4316,Rejected,Female,F
1991,Admitted,Female,C
4201,Admitted,Female,F
1748,Rejected,Male,C
3132,Rejected,Female,D
1320,Rejected,Male,B
1976,Admitted,Female,C
4208,Admitted,Female,F
909,Admitted,Female,A
1075,Admitted,Male,B
3372,Rejected,Male,E
53,Admitted,Male,A
2793,Rejected,Male,D
110,Admitted,Male,A
4078,Rejected,Male,F
2016,Admitted,Female,C
1578,Admitted,Male,C
580,Rejected,Male,A
2817,Rejected,Male,D
2020,Admitted,Female,C
1714,Rejected,Male,C
1901,Admitted,Female,C
911,Admitted,Female,A
4299,Rejected,Female,F
40,Admitted,Male,A
3248,Admitted,Male,E
3325,Rejected,Male,E
376,Admitted,Male,A
3859,Rejected,Male,F
3299,Rejected,Male,E
3045,Rejected,Female,D
1184,Admitted,Male,B
3715,Rejected,Female,E
4451,Rejected,Female,F
3864,Rejected,Male,F
1686,Rejected,Male,C
3594,Rejected,Female,E
1532,Admitted,Male,C
1352,Rejected,Male,B
4318,Rejected,Female,F
4272,Rejected,Female,F
4346,Rejected,Female,F
745,Rejected,Male,A
3767,Rejected,Female,E
1179,Admitted,Male,B
1670,Rejected,Male,C
2035,Admitted,Female,C
3062,Rejected,Female,D
3560,Rejected,Female,E
281,Admitted,Male,A
158,Admitted,Male,A
847,Admitted,Female,A
800,Rejected,Male,A
928,Rejected,Female,A
905,Admitted,Female,A
3737,Rejected,Female,E
810,Rejected,Male,A
916,Rejected,Female,A
3475,Admitted,Female,E
1750,Rejected,Male,C
1023,Admitted,Male,B
3825,Admitted,Male,F
2219,Rejected,Female,C
2046,Rejected,Female,C
2485,Admitted,Male,D
2060,Rejected,Female,C
687,Rejected,Male,A
1499,Admitted,Female,B
2271,Rejected,Female,C
1136,Admitted,Male,B
4481,Rejected,Female,F
765,Rejected,Male,A
3015,Rejected,Female,D
656,Rejected,Male,A
3968,Rejected,Male,F
4501,Rejected,Female,F
204,Admitted,Male,A
2775,Rejected,Male,D
859,Admitted,Female,A
1196,Admitted,Male,B
1518,Rejected,Female,B
323,Admitted,Male,A
3638,Rejected,Female,E
3227,Rejected,Female,D
1916,Admitted,Female,C
2228,Rejected,Female,C
4087,Rejected,Male,F
3586,Rejected,Female,E
647,Rejected,Male,A
1169,Admitted,Male,B
3495,Admitted,Female,E
1345,Rejected,Male,B
3585,Rejected,Female,E
1418,Rejected,Male,B
840,Admitted,Female,A
325,Admitted,Male,A
1007,Admitted,Male,B
2207,Rejected,Female,C
876,Admitted,Female,A
4343,Rejected,Female,F
1413,Rejected,Male,B
4350,Rejected,Female,F
1699,Rejected,Male,C
4456,Rejected,Female,F
3052,Rejected,Female,D
3679,Rejected,Female,E
2511,Admitted,Male,D
4471,Rejected,Female,F
3395,Rejected,Male,E
265,Admitted,Male,A
2495,Admitted,Male,D
1900,Admitted,Female,C
1244,Admitted,Male,B
818,Rejected,Male,A
812,Rejected,Male,A
2055,Rejected,Female,C
2424,Rejected,Female,C
4351,Rejected,Female,F
1791,Rejected,Male,C
852,Admitted,Female,A
98,Admitted,Male,A
145,Admitted,Male,A
4101,Rejected,Male,F
3551,Rejected,Female,E
3415,Rejected,Male,E
2164,Rejected,Female,C
2455,Admitted,Male,D
4277,Rejected,Female,F
3216,Rejected,Female,D
3734,Rejected,Female,E
1977,Admitted,Female,C
719,Rejected,Male,A
2803,Rejected,Male,D
3754,Rejected,Female,E
570,Rejected,Male,A
1002,Admitted,Male,B
1307,Rejected,Male,B
2129,Rejected,Female,C
2344,Rejected,Female,C
4135,Rejected,Male,F
2115,Rejected,Female,C
1941,Admitted,Female,C
3598,Rejected,Female,E
1210,Admitted,Male,B
2690,Rejected,Male,D
3755,Rejected,Female,E
2586,Rejected,Male,D
4334,Rejected,Female,F
3146,Rejected,Female,D
255,Admitted,Male,A
369,Admitted,Male,A
836,Admitted,Female,A
2872,Admitted,Female,D
4207,Admitted,Female,F
4356,Rejected,Female,F
4217,Rejected,Female,F
2462,Admitted,Male,D
1164,Admitted,Male,B
2789,Rejected,Male,D
2494,Admitted,Male,D
2050,Rejected,Female,C
2607,Rejected,Male,D
3345,Rejected,Male,E
1388,Rejected,Male,B
3615,Rejected,Female,E
3757,Rejected,Female,E
1376,Rejected,Male,B
1660,Rejected,Male,C
3294,Rejected,Male,E
867,Admitted,Female,A
4357,Rejected,Female,F
3812,Rejected,Female,E
3912,Rejected,Male,F
2339,Rejected,Female,C
3261,Admitted,Male,E
330,Admitted,Male,A
4302,Rejected,Female,F
1396,Rejected,Male,B
4107,Rejected,Male,F
3298,Rejected,Male,E
597,Rejected,Male,A
165,Admitted,Male,A
2134,Rejected,Female,C
3220,Rejected,Female,D
1266,Admitted,Male,B
3509,Admitted,Female,E
3521,Rejected,Female,E
3441,Admitted,Female,E
346,Admitted,Male,A
183,Admitted,Male,A
4260,Rejected,Female,F
10,Admitted,Male,A
3,Admitted,Male,A
1649,Rejected,Male,C
273,Admitted,Male,A
2242,Rejected,Female,C
3006,Rejected,Female,D
2126,Rejected,Female,C
4122,Rejected,Male,F
3352,Rejected,Male,E
3451,Admitted,Female,E
2130,Rejected,Female,C
3536,Rejected,Female,E
3318,Rejected,Male,E
3152,Rejected,Female,D
2893,Admitted,Female,D
1230,Admitted,Male,B
1540,Admitted,Male,C
2877,Admitted,Female,D
603,Rejected,Male,A
1138,Admitted,Male,B
4200,Admitted,Female,F
860,Admitted,Female,A
219,Admitted,Male,A
3268,Admitted,Male,E
319,Admitted,Male,A
4341,Rejected,Female,F
4460,Rejected,Female,F
244,Admitted,Male,A
4067,Rejected,Male,F
3998,Rejected,Male,F
2888,Admitted,Female,D
3693,Rejected,Female,E
2713,Rejected,Male,D
3671,Rejected,Female,E
1959,Admitted,Female,C
2233,Rejected,Female,C
2749,Rejected,Male,D
558,Rejected,Male,A
4344,Rejected,Female,F
3497,Admitted,Female,E
849,Admitted,Female,A
2856,Admitted,Female,D
2692,Rejected,Male,D
1753,Rejected,Male,C
2088,Rejected,Female,C
1038,Admitted,Male,B
1387,Rejected,Male,B
3290,Rejected,Male,E
572,Rejected,Male,A
1848,Admitted,Female,C
2894,Admitted,Female,D
796,Rejected,Male,A
2784,Rejected,Male,D
552,Rejected,Male,A
3055,Rejected,Female,D
2208,Rejected,Female,C
3347,Rejected,Male,E
2963,Admitted,Female,D
1506,Admitted,Female,B
1737,Rejected,Male,C
4088,Rejected,Male,F
3353,Rejected,Male,E
3459,Admitted,Female,E
3852,Rejected,Male,F
2974,Admitted,Female,D
4226,Rejected,Female,F
3013,Rejected,Female,D
2457,Admitted,Male,D
268,Admitted,Male,A
1453,Rejected,Male,B
3868,Rejected,Male,F
4047,Rejected,Male,F
3266,Admitted,Male,E
4290,Rejected,Female,F
3915,Rejected,Male,F
2205,Rejected,Female,C
89,Admitted,Male,A
3429,Admitted,Female,E
4466,Rejected,Female,F
4158,Rejected,Male,F
642,Rejected,Male,A
3978,Rejected,Male,F
1497,Admitted,Female,B
2724,Rejected,Male,D
744,Rejected,Male,A
1718,Rejected,Male,C
3784,Rejected,Female,E
2149,Rejected,Female,C
2903,Admitted,Female,D
1049,Admitted,Male,B
1296,Rejected,Male,B
4080,Rejected,Male,F
2700,Rejected,Male,D
2263,Rejected,Female,C
1040,Admitted,Male,B
2657,Rejected,Male,D
921,Rejected,Female,A
2231,Rejected,Female,C
3453,Admitted,Female,E
1201,Admitted,Male,B
2587,Rejected,Male,D
2033,Admitted,Female,C
1224,Admitted,Male,B
1368,Rejected,Male,B
28,Admitted,Male,A
67,Admitted,Male,A
3344,Rejected,Male,E
2011,Admitted,Female,C
2203,Rejected,Female,C
1104,Admitted,Male,B
3437,Admitted,Female,E
15,Admitted,Male,A
1918,Admitted,Female,C
264,Admitted,Male,A
260,Admitted,Male,A
3920,Rejected,Male,F
4424,Rejected,Female,F
444,Admitted,Male,A
2890,Admitted,Female,D
3584,Rejected,Female,E
2291,Rejected,Female,C
3189,Rejected,Female,D
768,Rejected,Male,A
3381,Rejected,Male,E
3554,Rejected,Female,E
979,Admitted,Male,B
822,Rejected,Male,A
3573,Rejected,Female,E
2288,Rejected,Female,C
3028,Rejected,Female,D
160,Admitted,Male,A
3236,Admitted,Male,E
1813,Rejected,Male,C
4263,Rejected,Female,F
4242,Rejected,Female,F
1614,Admitted,Male,C
3366,Rejected,Male,E
3373,Rejected,Male,E
2103,Rejected,Female,C
2721,Rejected,Male,D
4081,Rejected,Male,F
830,Admitted,Female,A
105,Admitted,Male,A
1416,Rejected,Male,B
223,Admitted,Male,A
434,Admitted,Male,A
789,Rejected,Male,A
450,Admitted,Male,A
3853,Rejected,Male,F
3409,Rejected,Male,E
430,Admitted,Male,A
2247,Rejected,Female,C
206,Admitted,Male,A
4065,Rejected,Male,F
3648,Rejected,Female,E
1173,Admitted,Male,B
1920,Admitted,Female,C
1158,Admitted,Male,B
1897,Admitted,Female,C
2373,Rejected,Female,C
2867,Admitted,Female,D
2973,Admitted,Female,D
962,Admitted,Male,B
3987,Rejected,Male,F
3816,Admitted,Male,F
233,Admitted,Male,A
1458,Rejected,Male,B
1460,Rejected,Male,B
2125,Rejected,Female,C
3942,Rejected,Male,F
1457,Rejected,Male,B
2835,Rejected,Male,D
788,Rejected,Male,A
1822,Rejected,Male,C
3118,Rejected,Female,D
2570,Admitted,Male,D
3683,Rejected,Female,E
2813,Rejected,Male,D
2429,Rejected,Female,C
3105,Rejected,Female,D
333,Admitted,Male,A
2489,Admitted,Male,D
1106,Admitted,Male,B
1195,Admitted,Male,B
1298,Rejected,Male,B
397,Admitted,Male,A
2161,Rejected,Female,C
4362,Rejected,Female,F
892,Admitted,Female,A
467,Admitted,Male,A
2561,Admitted,Male,D
2954,Admitted,Female,D
172,Admitted,Male,A
2781,Rejected,Male,D
3058,Rejected,Female,D
141,Admitted,Male,A
4475,Rejected,Female,F
4194,Admitted,Female,F
640,Rejected,Male,A
3444,Admitted,Female,E
838,Admitted,Female,A
4506,Rejected,Female,F
1198,Admitted,Male,B
3786,Rejected,Female,E
2560,Admitted,Male,D
646,Rejected,Male,A
1905,Admitted,Female,C
2615,Rejected,Male,D
193,Admitted,Male,A
3002,Rejected,Female,D
3379,Rejected,Male,E
2645,Rejected,Male,D
3685,Rejected,Female,E
1953,Admitted,Female,C
644,Rejected,Male,A
4496,Rejected,Female,F
530,Rejected,Male,A
1594,Admitted,Male,C
3944,Rejected,Male,F
794,Rejected,Male,A
3761,Rejected,Female,E
1971,Admitted,Female,C
2096,Rejected,Female,C
2244,Rejected,Female,C
4042,Rejected,Male,F
4286,Rejected,Female,F
3200,Rejected,Female,D
1965,Admitted,Female,C
2529,Admitted,Male,D
1176,Admitted,Male,B
3144,Rejected,Female,D
1922,Admitted,Female,C
2382,Rejected,Female,C
1915,Admitted,Female,C
1669,Rejected,Male,C
4148,Rejected,Male,F
601,Rejected,Male,A
2998,Rejected,Female,D
1501,Admitted,Female,B
1009,Admitted,Male,B
3830,Admitted,Male,F
1792,Rejected,Male,C
2737,Rejected,Male,D
418,Admitted,Male,A
4489,Rejected,Female,F
12,Admitted,Male,A
3729,Rejected,Female,E
2743,Rejected,Male,D
4152,Rejected,Male,F
2622,Rejected,Male,D
4285,Rejected,Female,F
2941,Admitted,Female,D
74,Admitted,Male,A
636,Rejected,Male,A
1837,Rejected,Male,C
2004,Admitted,Female,C
2696,Rejected,Male,D
2343,Rejected,Female,C
4416,Rejected,Female,F
1093,Admitted,Male,B
775,Rejected,Male,A
3627,Rejected,Female,E
981,Admitted,Male,B
4202,Admitted,Female,F
2456,Admitted,Male,D
3457,Admitted,Female,E
3659,Rejected,Female,E
3321,Rejected,Male,E
626,Rejected,Male,A
2655,Rejected,Male,D
2322,Rejected,Female,C
1601,Admitted,Male,C
4062,Rejected,Male,F
2547,Admitted,Male,D
791,Rejected,Male,A
1192,Admitted,Male,B
953,Admitted,Male,B
2410,Rejected,Female,C
1944,Admitted,Female,C
3284,Rejected,Male,E
733,Rejected,Male,A
587,Rejected,Male,A
4426,Rejected,Female,F
4128,Rejected,Male,F
2307,Rejected,Female,C
2192,Rejected,Female,C
4076,Rejected,Male,F
1402,Rejected,Male,B
2308,Rejected,Female,C
2413,Rejected,Female,C
2415,Rejected,Female,C
2626,Rejected,Male,D
2801,Rejected,Male,D
4014,Rejected,Male,F
1380,Rejected,Male,B
2217,Rejected,Female,C
757,Rejected,Male,A
1733,Rejected,Male,C
2241,Rejected,Female,C
2300,Rejected,Female,C
3094,Rejected,Female,D
2502,Admitted,Male,D
539,Rejected,Male,A
1613,Admitted,Male,C
2481,Admitted,Male,D
1598,Admitted,Male,C
4072,Rejected,Male,F
1790,Rejected,Male,C
2439,Admitted,Male,D
4515,Rejected,Female,F
4467,Rejected,Female,F
1325,Rejected,Male,B
2567,Admitted,Male,D
989,Admitted,Male,B
3252,Admitted,Male,E
4391,Rejected,Female,F
75,Admitted,Male,A
3169,Rejected,Female,D
4116,Rejected,Male,F
1851,Admitted,Female,C
92,Admitted,Male,A
2606,Rejected,Male,D
2295,Rejected,Female,C
3315,Rejected,Male,E
817,Rejected,Male,A
2554,Admitted,Male,D
4212,Rejected,Female,F
2739,Rejected,Male,D
209,Admitted,Male,A
1246,Admitted,Male,B
55,Admitted,Male,A
1815,Rejected,Male,C
3283,Rejected,Male,E
4171,Rejected,Male,F
978,Admitted,Male,B
4518,Rejected,Female,F
464,Admitted,Male,A
682,Rejected,Male,A
4119,Rejected,Male,F
1323,Rejected,Male,B
2408,Rejected,Female,C
3048,Rejected,Female,D
3696,Rejected,Female,E
1752,Rejected,Male,C
4337,Rejected,Female,F
2210,Rejected,Female,C
3244,Admitted,Male,E
3718,Rejected,Female,E
443,Admitted,Male,A
1251,Admitted,Male,B
3213,Rejected,Female,D
478,Admitted,Male,A
3533,Rejected,Female,E
4423,Rejected,Female,F
3790,Rejected,Female,E
1954,Admitted,Female,C
3212,Rejected,Female,D
275,Admitted,Male,A
2250,Rejected,Female,C
217,Admitted,Male,A
1583,Admitted,Male,C
2097,Rejected,Female,C
4333,Rejected,Female,F
1454,Rejected,Male,B
212,Admitted,Male,A
57,Admitted,Male,A
866,Admitted,Female,A
4372,Rejected,Female,F
2120,Rejected,Female,C
2950,Admitted,Female,D
1188,Admitted,Male,B
4176,Rejected,Male,F
913,Admitted,Female,A
3269,Admitted,Male,E
2498,Admitted,Male,D
2670,Rejected,Male,D
5,Admitted,Male,A
4371,Rejected,Female,F
1653,Rejected,Male,C
948,Admitted,Male,B
1948,Admitted,Female,C
2137,Rejected,Female,C
4161,Rejected,Male,F
2327,Rejected,Female,C
2642,Rejected,Male,D
3692,Rejected,Female,E
1495,Admitted,Female,B
4166,Rejected,Male,F
675,Rejected,Male,A
628,Rejected,Male,A
2270,Rejected,Female,C
3676,Rejected,Female,E
2174,Rejected,Female,C
743,Rejected,Male,A
1857,Admitted,Female,C
3600,Rejected,Female,E
3120,Rejected,Female,D
3004,Rejected,Female,D
2409,Rejected,Female,C
997,Admitted,Male,B
1849,Admitted,Female,C
3121,Rejected,Female,D
3723,Rejected,Female,E
48,Admitted,Male,A
3547,Rejected,Female,E
188,Admitted,Male,A
3361,Rejected,Male,E
173,Admitted,Male,A
3391,Rejected,Male,E
126,Admitted,Male,A
933,Rejected,Female,A
1287,Rejected,Male,B
1888,Admitted,Female,C
3558,Rejected,Female,E
1339,Rejected,Male,B
4412,Rejected,Female,F
2666,Rejected,Male,D
1810,Rejected,Male,C
1022,Admitted,Male,B
1062,Admitted,Male,B
3652,Rejected,Female,E
1369,Rejected,Male,B
736,Rejected,Male,A
930,Rejected,Female,A
380,Admitted,Male,A
367,Admitted,Male,A
23,Admitted,Male,A
3145,Rejected,Female,D
2406,Rejected,Female,C
1607,Admitted,Male,C
3896,Rejected,Male,F
3919,Rejected,Male,F
3746,Rejected,Female,E
826,Admitted,Female,A
3663,Rejected,Female,E
4386,Rejected,Female,F
4157,Rejected,Male,F
2876,Admitted,Female,D
1342,Rejected,Male,B
1534,Admitted,Male,C
1078,Admitted,Male,B
676,Rejected,Male,A
3422,Admitted,Female,E
2156,Rejected,Female,C
2914,Admitted,Female,D
4156,Rejected,Male,F
263,Admitted,Male,A
1469,Rejected,Male,B
109,Admitted,Male,A
295,Admitted,Male,A
1071,Admitted,Male,B
4026,Rejected,Male,F
3567,Rejected,Female,E
3721,Rejected,Female,E
3817,Admitted,Male,F
666,Rejected,Male,A
8,Admitted,Male,A
4282,Rejected,Female,F
1098,Admitted,Male,B
3589,Rejected,Female,E
2735,Rejected,Male,D
3018,Rejected,Female,D
2939,Admitted,Female,D
3673,Rejected,Female,E
3931,Rejected,Male,F
2234,Rejected,Female,C
2996,Rejected,Female,D
844,Admitted,Female,A
2960,Admitted,Female,D
2249,Rejected,Female,C
2304,Rejected,Female,C
3555,Rejected,Female,E
3081,Rejected,Female,D
1565,Admitted,Male,C
701,Rejected,Male,A
1351,Rejected,Male,B
2355,Rejected,Female,C
2027,Admitted,Female,C
3697,Rejected,Female,E
3605,Rejected,Female,E
112,Admitted,Male,A
420,Admitted,Male,A
1467,Rejected,Male,B
2169,Rejected,Female,C
1216,Admitted,Male,B
2907,Admitted,Female,D
1335,Rejected,Male,B
2458,Admitted,Male,D
33,Admitted,Male,A
869,Admitted,Female,A
4414,Rejected,Female,F
3991,Rejected,Male,F
929,Rejected,Female,A
1697,Rejected,Male,C
917,Rejected,Female,A
1574,Admitted,Male,C
1875,Admitted,Female,C
2501,Admitted,Male,D
3826,Admitted,Male,F
674,Rejected,Male,A
1846,Admitted,Female,C
54,Admitted,Male,A
792,Rejected,Male,A
3506,Admitted,Female,E
3484,Admitted,Female,E
249,Admitted,Male,A
3084,Rejected,Female,D
3057,Rejected,Female,D
1775,Rejected,Male,C
2951,Admitted,Female,D
3769,Rejected,Female,E
3209,Rejected,Female,D
2510,Admitted,Male,D
3098,Rejected,Female,D
3046,Rejected,Female,D
3099,Rejected,Female,D
2062,Rejected,Female,C
232,Admitted,Male,A
1215,Admitted,Male,B
1731,Rejected,Male,C
52,Admitted,Male,A
1235,Admitted,Male,B
310,Admitted,Male,A
1422,Rejected,Male,B
4175,Rejected,Male,F
3886,Rejected,Male,F
3316,Rejected,Male,E
3843,Rejected,Male,F
1036,Admitted,Male,B
650,Rejected,Male,A
2610,Rejected,Male,D
463,Admitted,Male,A
73,Admitted,Male,A
2264,Rejected,Female,C
4057,Rejected,Male,F
327,Admitted,Male,A
4106,Rejected,Male,F
2859,Admitted,Female,D
4392,Rejected,Female,F
2375,Rejected,Female,C
1437,Rejected,Male,B
1769,Rejected,Male,C
1850,Admitted,Female,C
1099,Admitted,Male,B
2095,Rejected,Female,C
1524,Admitted,Male,C
703,Rejected,Male,A
2679,Rejected,Male,D
2332,Rejected,Female,C
966,Admitted,Male,B
3194,Rejected,Female,D
1483,Rejected,Male,B
446,Admitted,Male,A
1747,Rejected,Male,C
1439,Rejected,Male,B
339,Admitted,Male,A
4103,Rejected,Male,F
1328,Rejected,Male,B
1475,Rejected,Male,B
3677,Rejected,Female,E
3101,Rejected,Female,D
2452,Admitted,Male,D
3071,Rejected,Female,D
1759,Rejected,Male,C
500,Admitted,Male,A
2791,Rejected,Male,D
4380,Rejected,Female,F
2048,Rejected,Female,C
3478,Admitted,Female,E
1200,Admitted,Male,B
2773,Rejected,Male,D
731,Rejected,Male,A
3034,Rejected,Female,D
1531,Admitted,Male,C
3762,Rejected,Female,E
2257,Rejected,Female,C
2573,Admitted,Male,D
3557,Rejected,Female,E
303,Admitted,Male,A
1819,Rejected,Male,C
2433,Rejected,Female,C
4313,Rejected,Female,F
2070,Rejected,Female,C
4179,Rejected,Male,F
332,Admitted,Male,A
1349,Rejected,Male,B
2682,Rejected,Male,D
629,Rejected,Male,A
1377,Rejected,Male,B
3349,Rejected,Male,E
3842,Rejected,Male,F
3620,Rejected,Female,E
689,Rejected,Male,A
3080,Rejected,Female,D
4024,Rejected,Male,F
1493,Rejected,Male,B
1558,Admitted,Male,C
1346,Rejected,Male,B
3972,Rejected,Male,F
3330,Rejected,Male,E
1719,Rejected,Male,C
706,Rejected,Male,A
115,Admitted,Male,A
2118,Rejected,Female,C
472,Admitted,Male,A
1027,Admitted,Male,B
1415,Rejected,Male,B
622,Rejected,Male,A
2507,Admitted,Male,D
3867,Rejected,Male,F
4377,Rejected,Female,F
1589,Admitted,Male,C
2127,Rejected,Female,C
3496,Admitted,Female,E
502,Admitted,Male,A
178,Admitted,Male,A
3514,Rejected,Female,E
458,Admitted,Male,A
1333,Rejected,Male,B
3063,Rejected,Female,D
1101,Admitted,Male,B
2785,Rejected,Male,D
4520,Rejected,Female,F
528,Rejected,Male,A
3645,Rejected,Female,E
3571,Rejected,Female,E
3270,Admitted,Male,E
1640,Rejected,Male,C
834,Admitted,Female,A
771,Rejected,Male,A
151,Admitted,Male,A
1250,Admitted,Male,B
2976,Admitted,Female,D
2616,Rejected,Male,D
4445,Rejected,Female,F
2824,Rejected,Male,D
3966,Rejected,Male,F
713,Rejected,Male,A
3710,Rejected,Female,E
2722,Rejected,Male,D
1853,Admitted,Female,C
773,Rejected,Male,A
561,Rejected,Male,A
3386,Rejected,Male,E
828,Admitted,Female,A
732,Rejected,Male,A
943,Admitted,Male,B
1729,Rejected,Male,C
529,Rejected,Male,A
2183,Rejected,Female,C
3545,Rejected,Female,E
559,Rejected,Male,A
783,Rejected,Male,A
1634,Admitted,Male,C
2108,Rejected,Female,C
423,Admitted,Male,A
227,Admitted,Male,A
1256,Admitted,Male,B
2715,Rejected,Male,D
3502,Admitted,Female,E
200,Admitted,Male,A
2303,Rejected,Female,C
2372,Rejected,Female,C
3272,Admitted,Male,E
3245,Admitted,Male,E
403,Admitted,Male,A
3705,Rejected,Female,E
2753,Rejected,Male,D
411,Admitted,Male,A
2910,Admitted,Female,D
2238,Rejected,Female,C
2059,Rejected,Female,C
3622,Rejected,Female,E
4336,Rejected,Female,F
1186,Admitted,Male,B
900,Admitted,Female,A
1701,Rejected,Male,C
4522,Rejected,Female,F
2802,Rejected,Male,D
3240,Admitted,Male,E
2927,Admitted,Female,D
600,Rejected,Male,A
3243,Admitted,Male,E
2829,Rejected,Male,D
759,Rejected,Male,A
1153,Admitted,Male,B
3473,Admitted,Female,E
3138,Rejected,Female,D
1895,Admitted,Female,C
535,Rejected,Male,A
2005,Admitted,Female,C
30,Admitted,Male,A
2074,Rejected,Female,C
3588,Rejected,Female,E
2146,Rejected,Female,C
140,Admitted,Male,A
2964,Admitted,Female,D
3939,Rejected,Male,F
2875,Admitted,Female,D
337,Admitted,Male,A
3091,Rejected,Female,D
2037,Admitted,Female,C
2453,Admitted,Male,D
3064,Rejected,Female,D
1115,Admitted,Male,B
1803,Rejected,Male,C
66,Admitted,Male,A
2873,Admitted,Female,D
4342,Rejected,Female,F
1301,Rejected,Male,B
2921,Admitted,Female,D
2965,Admitted,Female,D
2850,Rejected,Male,D
364,Admitted,Male,A
4191,Admitted,Female,F
4237,Rejected,Female,F
3036,Rejected,Female,D
144,Admitted,Male,A
532,Rejected,Male,A
2482,Admitted,Male,D
1471,Rejected,Male,B
4221,Rejected,Female,F
4066,Rejected,Male,F
776,Rejected,Male,A
2318,Rejected,Female,C
2685,Rejected,Male,D
1985,Admitted,Female,C
1375,Rejected,Male,B
2286,Rejected,Female,C
427,Admitted,Male,A
4444,Rejected,Female,F
4510,Rejected,Female,F
619,Rejected,Male,A
1392,Rejected,Male,B
166,Admitted,Male,A
2809,Rejected,Male,D
3577,Rejected,Female,E
1874,Admitted,Female,C
2675,Rejected,Male,D
2266,Rejected,Female,C
1538,Admitted,Male,C
3195,Rejected,Female,D
638,Rejected,Male,A
1757,Rejected,Male,C
1435,Rejected,Male,B
1735,Rejected,Male,C
309,Admitted,Male,A
1070,Admitted,Male,B
931,Rejected,Female,A
3565,Rejected,Female,E
1096,Admitted,Male,B
2497,Admitted,Male,D
2701,Rejected,Male,D
2195,Rejected,Female,C
3011,Rejected,Female,D
2039,Admitted,Female,C
4245,Rejected,Female,F
4492,Rejected,Female,F
2054,Rejected,Female,C
3854,Rejected,Male,F
413,Admitted,Male,A
1258,Admitted,Male,B
4505,Rejected,Female,F
2543,Admitted,Male,D
3907,Rejected,Male,F
412,Admitted,Male,A
382,Admitted,Male,A
163,Admitted,Male,A
711,Rejected,Male,A
1647,Rejected,Male,C
1789,Rejected,Male,C
3945,Rejected,Male,F
3076,Rejected,Female,D
2094,Rejected,Female,C
3335,Rejected,Male,E
4268,Rejected,Female,F
854,Admitted,Female,A
117,Admitted,Male,A
3527,Rejected,Female,E
1045,Admitted,Male,B
2223,Rejected,Female,C
2416,Rejected,Female,C
3313,Rejected,Male,E
616,Rejected,Male,A
540,Rejected,Male,A
1378,Rejected,Male,B
3000,Rejected,Female,D
2135,Rejected,Female,C
1899,Admitted,Female,C
3161,Rejected,Female,D
1267,Admitted,Male,B
1903,Admitted,Female,C
709,Rejected,Male,A
593,Rejected,Male,A
4408,Rejected,Female,F
589,Rejected,Male,A
1433,Rejected,Male,B
2168,Rejected,Female,C
1102,Admitted,Male,B
2975,Admitted,Female,D
2524,Admitted,Male,D
3388,Rejected,Male,E
1029,Admitted,Male,B
2254,Rejected,Female,C
1507,Admitted,Female,B
4355,Rejected,Female,F
1722,Rejected,Male,C
2698,Rejected,Male,D
1443,Rejected,Male,B
1206,Admitted,Male,B
2063,Rejected,Female,C
1033,Admitted,Male,B
1129,Admitted,Male,B
3722,Rejected,Female,E
3471,Admitted,Female,E
3398,Rejected,Male,E
4247,Rejected,Female,F
778,Rejected,Male,A
3593,Rejected,Female,E
3181,Rejected,Female,D
4253,Rejected,Female,F
4517,Rejected,Female,F
4225,Rejected,Female,F
724,Rejected,Male,A
1107,Admitted,Male,B
2267,Rejected,Female,C
1347,Rejected,Male,B
1821,Rejected,Male,C
308,Admitted,Male,A
2364,Rejected,Female,C
3531,Rejected,Female,E
2287,Rejected,Female,C
3324,Rejected,Male,E
4035,Rejected,Male,F
1148,Admitted,Male,B
3276,Admitted,Male,E
3199,Rejected,Female,D
3443,Admitted,Female,E
1554,Admitted,Male,C
4239,Rejected,Female,F
3863,Rejected,Male,F
2261,Rejected,Female,C
2306,Rejected,Female,C
557,Rejected,Male,A
2644,Rejected,Male,D
1829,Rejected,Male,C
3976,Rejected,Male,F
519,Rejected,Male,A
2465,Admitted,Male,D
96,Admitted,Male,A
2596,Rejected,Male,D
3678,Rejected,Female,E
798,Rejected,Male,A
215,Admitted,Male,A
2832,Rejected,Male,D
2471,Admitted,Male,D
2938,Admitted,Female,D
3469,Admitted,Female,E
345,Admitted,Male,A
185,Admitted,Male,A
3902,Rejected,Male,F
2032,Admitted,Female,C
1635,Admitted,Male,C
1877,Admitted,Female,C
1272,Admitted,Male,B
3426,Admitted,Female,E
2193,Rejected,Female,C
772,Rejected,Male,A
2862,Admitted,Female,D
1867,Admitted,Female,C
1505,Admitted,Female,B
3363,Rejected,Male,E
667,Rejected,Male,A
2540,Admitted,Male,D
432,Admitted,Male,A
3528,Rejected,Female,E
253,Admitted,Male,A
375,Admitted,Male,A
2015,Admitted,Female,C
4389,Rejected,Female,F
2571,Admitted,Male,D
654,Rejected,Male,A
388,Admitted,Male,A
2520,Admitted,Male,D
516,Rejected,Male,A
2550,Admitted,Male,D
779,Rejected,Male,A
2310,Rejected,Female,C
3970,Rejected,Male,F
1084,Admitted,Male,B
2029,Admitted,Female,C
213,Admitted,Male,A
3001,Rejected,Female,D
893,Admitted,Female,A
2623,Rejected,Male,D
842,Admitted,Female,A
3929,Rejected,Male,F
2397,Rejected,Female,C
1638,Admitted,Male,C
2706,Rejected,Male,D
3217,Rejected,Female,D
3654,Rejected,Female,E
605,Rejected,Male,A
2235,Rejected,Female,C
1399,Rejected,Male,B
4164,Rejected,Male,F
3170,Rejected,Female,D
2155,Rejected,Female,C
7,Admitted,Male,A
3892,Rejected,Male,F
2580,Rejected,Male,D
3957,Rejected,Male,F
2030,Admitted,Female,C
1542,Admitted,Male,C
136,Admitted,Male,A
190,Admitted,Male,A
1064,Admitted,Male,B
4025,Rejected,Male,F
4437,Rejected,Female,F
954,Admitted,Male,B
4457,Rejected,Female,F
372,Admitted,Male,A
829,Admitted,Female,A
3691,Rejected,Female,E
1618,Admitted,Male,C
823,Rejected,Male,A
1355,Rejected,Male,B
442,Admitted,Male,A
2928,Admitted,Female,D
2782,Rejected,Male,D
1610,Admitted,Male,C
4150,Rejected,Male,F
1728,Rejected,Male,C
2565,Admitted,Male,D
648,Rejected,Male,A
940,Admitted,Male,B
2268,Rejected,Female,C
998,Admitted,Male,B
4360,Rejected,Female,F
1921,Admitted,Female,C
848,Admitted,Female,A
2152,Rejected,Female,C
1806,Rejected,Male,C
2710,Rejected,Male,D
3914,Rejected,Male,F
3664,Rejected,Female,E
1317,Rejected,Male,B
1585,Admitted,Male,C
3367,Rejected,Male,E
541,Rejected,Male,A
1370,Rejected,Male,B
2209,Rejected,Female,C
591,Rejected,Male,A
4134,Rejected,Male,F
1026,Admitted,Male,B
289,Admitted,Male,A
1842,Rejected,Male,C
606,Rejected,Male,A
4295,Rejected,Female,F
941,Admitted,Male,B
2603,Rejected,Male,D
1431,Rejected,Male,B
3836,Rejected,Male,F
2760,Rejected,Male,D
3188,Rejected,Female,D
3661,Rejected,Female,E
2730,Rejected,Male,D
581,Rejected,Male,A
3202,Rejected,Female,D
2919,Admitted,Female,D
3738,Rejected,Female,E
3465,Admitted,Female,E
88,Admitted,Male,A
712,Rejected,Male,A
2430,Rejected,Female,C
3728,Rejected,Female,E
3887,Rejected,Male,F
2073,Rejected,Female,C
2751,Rejected,Male,D
3542,Rejected,Female,E
3277,Admitted,Male,E
194,Admitted,Male,A
180,Admitted,Male,A
4203,Admitted,Female,F
4447,Rejected,Female,F
738,Rejected,Male,A
254,Admitted,Male,A
742,Rejected,Male,A
1868,Admitted,Female,C
2869,Admitted,Female,D
1923,Admitted,Female,C
2988,Rejected,Female,D
349,Admitted,Male,A
2388,Rejected,Female,C
4147,Rejected,Male,F
1322,Rejected,Male,B
1894,Admitted,Female,C
3946,Rejected,Male,F
2985,Rejected,Female,D
2150,Rejected,Female,C
1122,Admitted,Male,B
243,Admitted,Male,A
2404,Rejected,Female,C
1236,Admitted,Male,B
2252,Rejected,Female,C
1472,Rejected,Male,B
59,Admitted,Male,A
3348,Rejected,Male,E
4215,Rejected,Female,F
952,Admitted,Male,B
4513,Rejected,Female,F
51,Admitted,Male,A
474,Admitted,Male,A
944,Admitted,Male,B
811,Rejected,Male,A
4023,Rejected,Male,F
2725,Rejected,Male,D
2828,Rejected,Male,D
843,Admitted,Female,A
756,Rejected,Male,A
1155,Admitted,Male,B
2755,Rejected,Male,D
802,Rejected,Male,A
2323,Rejected,Female,C
1926,Admitted,Female,C
3714,Rejected,Female,E
560,Rejected,Male,A
3911,Rejected,Male,F
2589,Rejected,Male,D
461,Admitted,Male,A
3805,Rejected,Female,E
1130,Admitted,Male,B
1646,Rejected,Male,C
2694,Rejected,Male,D
1981,Admitted,Female,C
1178,Admitted,Male,B
1100,Admitted,Male,B
3865,Rejected,Male,F
1720,Rejected,Male,C
2513,Admitted,Male,D
2844,Rejected,Male,D
3455,Admitted,Female,E
1659,Rejected,Male,C
4064,Rejected,Male,F
2866,Admitted,Female,D
2123,Rejected,Female,C
2691,Rejected,Male,D
1118,Admitted,Male,B
722,Rejected,Male,A
3623,Rejected,Female,E
3717,Rejected,Female,E
2357,Rejected,Female,C
2031,Admitted,Female,C
1420,Rejected,Male,B
1677,Rejected,Male,C
4155,Rejected,Male,F
1882,Admitted,Female,C
294,Admitted,Male,A
4213,Rejected,Female,F
1958,Admitted,Female,C
583,Rejected,Male,A
3408,Rejected,Male,E
336,Admitted,Male,A
737,Rejected,Male,A
984,Admitted,Male,B
1993,Admitted,Female,C
3333,Rejected,Male,E
6,Admitted,Male,A
156,Admitted,Male,A
87,Admitted,Male,A
2918,Admitted,Female,D
903,Admitted,Female,A
77,Admitted,Male,A
3862,Rejected,Male,F
2660,Rejected,Male,D
4328,Rejected,Female,F
4349,Rejected,Female,F
4100,Rejected,Male,F
270,Admitted,Male,A
4278,Rejected,Female,F
2474,Admitted,Male,D
4435,Rejected,Female,F
1708,Rejected,Male,C
4073,Rejected,Male,F
3183,Rejected,Female,D
513,Rejected,Male,A
4461,Rejected,Female,F
821,Rejected,Male,A
4124,Rejected,Male,F
58,Admitted,Male,A
4180,Rejected,Male,F
218,Admitted,Male,A
1108,Admitted,Male,B
2953,Admitted,Female,D
2748,Rejected,Male,D
2003,Admitted,Female,C
4224,Rejected,Female,F
1974,Admitted,Female,C
1582,Admitted,Male,C
3549,Rejected,Female,E
2945,Admitted,Female,D
1226,Admitted,Male,B
690,Rejected,Male,A
3139,Rejected,Female,D
3463,Admitted,Female,E
4051,Rejected,Male,F
1639,Rejected,Male,C
3458,Admitted,Female,E
3082,Rejected,Female,D
3239,Admitted,Male,E
1079,Admitted,Male,B
402,Admitted,Male,A
2479,Admitted,Male,D
389,Admitted,Male,A
1054,Admitted,Male,B
302,Admitted,Male,A
4020,Rejected,Male,F
2214,Rejected,Female,C
3787,Rejected,Female,E
2569,Admitted,Male,D
448,Admitted,Male,A
1612,Admitted,Male,C
3494,Admitted,Female,E
2796,Rejected,Male,D
3481,Admitted,Female,E
2936,Admitted,Female,D
1205,Admitted,Male,B
1595,Admitted,Male,C
4151,Rejected,Male,F
837,Admitted,Female,A
1543,Admitted,Male,C
874,Admitted,Female,A
1056,Admitted,Male,B
2528,Admitted,Male,D
3384,Rejected,Male,E
3981,Rejected,Male,F
3629,Rejected,Female,E
1666,Rejected,Male,C
3583,Rejected,Female,E
4181,Rejected,Male,F
576,Rejected,Male,A
4170,Rejected,Male,F
134,Admitted,Male,A
4388,Rejected,Female,F
2728,Rejected,Male,D
2977,Admitted,Female,D
198,Admitted,Male,A
1172,Admitted,Male,B
617,Rejected,Male,A
4046,Rejected,Male,F
1536,Admitted,Male,C
2823,Rejected,Male,D
2956,Admitted,Female,D
338,Admitted,Male,A
1274,Admitted,Male,B
4338,Rejected,Female,F
3193,Rejected,Female,D
25,Admitted,Male,A
1746,Rejected,Male,C
2619,Rejected,Male,D
3518,Rejected,Female,E
290,Admitted,Male,A
20,Admitted,Male,A
2226,Rejected,Female,C
1257,Admitted,Male,B
878,Admitted,Female,A
4364,Rejected,Female,F
4446,Rejected,Female,F
2982,Admitted,Female,D
1652,Rejected,Male,C
127,Admitted,Male,A
4144,Rejected,Male,F
3681,Rejected,Female,E
996,Admitted,Male,B
623,Rejected,Male,A
1015,Admitted,Male,B
2383,Rejected,Female,C
959,Admitted,Male,B
3140,Rejected,Female,D
3160,Rejected,Female,D
1979,Admitted,Female,C
2157,Rejected,Female,C
2552,Admitted,Male,D
908,Admitted,Female,A
2648,Rejected,Male,D
4259,Rejected,Female,F
2578,Rejected,Male,D
3725,Rejected,Female,E
2635,Rejected,Male,D
4192,Admitted,Female,F
1911,Admitted,Female,C
1247,Admitted,Male,B
3454,Admitted,Female,E
1039,Admitted,Male,B
2185,Rejected,Female,C
2611,Rejected,Male,D
4210,Rejected,Female,F
1240,Admitted,Male,B
3779,Rejected,Female,E
2533,Admitted,Male,D
2218,Rejected,Female,C
400,Admitted,Male,A
1074,Admitted,Male,B
1517,Rejected,Female,B
3005,Rejected,Female,D
1330,Rejected,Male,B
2273,Rejected,Female,C
2719,Rejected,Male,D
3296,Rejected,Male,E
2557,Admitted,Male,D
4296,Rejected,Female,F
4059,Rejected,Male,F
1772,Rejected,Male,C
2423,Rejected,Female,C
1461,Rejected,Male,B
347,Admitted,Male,A
4197,Admitted,Female,F
1619,Admitted,Male,C
2815,Rejected,Male,D
2361,Rejected,Female,C
82,Admitted,Male,A
1672,Rejected,Male,C
1779,Rejected,Male,C
924,Rejected,Female,A
4090,Rejected,Male,F
4359,Rejected,Female,F
3850,Rejected,Male,F
1780,Rejected,Male,C
2879,Admitted,Female,D
2746,Rejected,Male,D
4304,Rejected,Female,F
2325,Rejected,Female,C
4314,Rejected,Female,F
4030,Rejected,Male,F
2153,Rejected,Female,C
2483,Admitted,Male,D
482,Admitted,Male,A
157,Admitted,Male,A
1113,Admitted,Male,B
488,Admitted,Male,A
4096,Rejected,Male,F
602,Rejected,Male,A
4436,Rejected,Female,F
101,Admitted,Male,A
1587,Admitted,Male,C
915,Rejected,Female,A
3155,Rejected,Female,D
1430,Rejected,Male,B
2620,Rejected,Male,D
4274,Rejected,Female,F
43,Admitted,Male,A
197,Admitted,Male,A
2895,Admitted,Female,D
2740,Rejected,Male,D
80,Admitted,Male,A
3334,Rejected,Male,E
37,Admitted,Male,A
612,Rejected,Male,A
169,Admitted,Male,A
2521,Admitted,Male,D
4114,Rejected,Male,F
3774,Rejected,Female,E
3219,Rejected,Female,D
2240,Rejected,Female,C
4143,Rejected,Male,F
4061,Rejected,Male,F
1559,Admitted,Male,C
2386,Rejected,Female,C
2959,Admitted,Female,D
1426,Rejected,Male,B
2915,Admitted,Female,D
3747,Rejected,Female,E
428,Admitted,Male,A
3880,Rejected,Male,F
920,Rejected,Female,A
1998,Admitted,Female,C
3927,Rejected,Male,F
568,Rejected,Male,A
2198,Rejected,Female,C
440,Admitted,Male,A
1468,Rejected,Male,B
3106,Rejected,Female,D
1438,Rejected,Male,B
4041,Rejected,Male,F
1628,Admitted,Male,C
714,Rejected,Male,A
3167,Rejected,Female,D
1041,Admitted,Male,B
1326,Rejected,Male,B
3750,Rejected,Female,E
4402,Rejected,Female,F
2810,Rejected,Male,D
3597,Rejected,Female,E
17,Admitted,Male,A
1051,Admitted,Male,B
651,Rejected,Male,A
2084,Rejected,Female,C
4222,Rejected,Female,F
2500,Admitted,Male,D
4146,Rejected,Male,F
235,Admitted,Male,A
1817,Rejected,Male,C
3814,Admitted,Male,F
3192,Rejected,Female,D
3070,Rejected,Female,D
2826,Rejected,Male,D
1371,Rejected,Male,B
1834,Rejected,Male,C
2160,Rejected,Female,C
3529,Rejected,Female,E
202,Admitted,Male,A
3963,Rejected,Male,F
1919,Admitted,Female,C
2889,Admitted,Female,D
381,Admitted,Male,A
3523,Rejected,Female,E
3752,Rejected,Female,E
2830,Rejected,Male,D
1929,Admitted,Female,C
4511,Rejected,Female,F
4523,Rejected,Female,F
3355,Rejected,Male,E
3304,Rejected,Male,E
3407,Rejected,Male,E
4280,Rejected,Female,F
492,Admitted,Male,A
1987,Admitted,Female,C
2718,Rejected,Male,D
3883,Rejected,Male,F
2734,Rejected,Male,D
129,Admitted,Male,A
2488,Admitted,Male,D
1525,Admitted,Male,C
3773,Rejected,Female,E
1361,Rejected,Male,B
793,Rejected,Male,A
2342,Rejected,Female,C
3292,Rejected,Male,E
4214,Rejected,Female,F
490,Admitted,Male,A
1552,Admitted,Male,C
2912,Admitted,Female,D
3669,Rejected,Female,E
1360,Rejected,Male,B
451,Admitted,Male,A
3393,Rejected,Male,E
2794,Rejected,Male,D
3520,Rejected,Female,E
970,Admitted,Male,B
3792,Rejected,Female,E
2983,Admitted,Female,D
351,Admitted,Male,A
2211,Rejected,Female,C
4227,Rejected,Female,F
1934,Admitted,Female,C
2289,Rejected,Female,C
4284,Rejected,Female,F
2360,Rejected,Female,C
1218,Admitted,Male,B
1811,Rejected,Male,C
3791,Rejected,Female,E
1165,Admitted,Male,B
2321,Rejected,Female,C
661,Rejected,Male,A
934,Admitted,Male,B
2590,Rejected,Male,D
2075,Rejected,Female,C
1449,Rejected,Male,B
1764,Rejected,Male,C
3789,Rejected,Female,E
11,Admitted,Male,A
2246,Rejected,Female,C
1117,Admitted,Male,B
3649,Rejected,Female,E
241,Admitted,Male,A
1222,Admitted,Male,B
4234,Rejected,Female,F
329,Admitted,Male,A
4365,Rejected,Female,F
2380,Rejected,Female,C
4394,Rejected,Female,F
3356,Rejected,Male,E
2878,Admitted,Female,D
441,Admitted,Male,A
2212,Rejected,Female,C
2292,Rejected,Female,C
1637,Admitted,Male,C
3424,Admitted,Female,E
4033,Rejected,Male,F
1743,Rejected,Male,C
1175,Admitted,Male,B
825,Rejected,Male,A
276,Admitted,Male,A
1491,Rejected,Male,B
875,Admitted,Female,A
856,Admitted,Female,A
2764,Rejected,Male,D
1428,Rejected,Male,B
1145,Admitted,Male,B
582,Rejected,Male,A
2012,Admitted,Female,C
2243,Rejected,Female,C
2329,Rejected,Female,C
2260,Rejected,Female,C
2487,Admitted,Male,D
2326,Rejected,Female,C
3845,Rejected,Male,F
2362,Rejected,Female,C
861,Admitted,Female,A
2714,Rejected,Male,D
2418,Rejected,Female,C
3425,Admitted,Female,E
1141,Admitted,Male,B
3153,Rejected,Female,D
3925,Rejected,Male,F
2200,Rejected,Female,C
41,Admitted,Male,A
2354,Rejected,Female,C
1957,Admitted,Female,C
4450,Rejected,Female,F
4331,Rejected,Female,F
298,Admitted,Male,A
4474,Rejected,Female,F
2702,Rejected,Male,D
79,Admitted,Male,A
2711,Rejected,Male,D
632,Rejected,Male,A
3660,Rejected,Female,E
154,Admitted,Male,A
3332,Rejected,Male,E
1382,Rejected,Male,B
1470,Rejected,Male,B
4261,Rejected,Female,F
1072,Admitted,Male,B
2367,Rejected,Female,C
1327,Rejected,Male,B
2576,Rejected,Male,D
2403,Rejected,Female,C
3720,Rejected,Female,E
2278,Rejected,Female,C
2595,Rejected,Male,D
3519,Rejected,Female,E
211,Admitted,Male,A
3119,Rejected,Female,D
34,Admitted,Male,A
3127,Rejected,Female,D
3029,Rejected,Female,D
1203,Admitted,Male,B
3103,Rejected,Female,D
2446,Admitted,Male,D
1159,Admitted,Male,B
3336,Rejected,Male,E
4269,Rejected,Female,F
2190,Rejected,Female,C
926,Rejected,Female,A
3917,Rejected,Male,F
3030,Rejected,Female,D
1824,Rejected,Male,C
2390,Rejected,Female,C
2069,Rejected,Female,C
3088,Rejected,Female,D
1738,Rejected,Male,C
2881,Admitted,Female,D
1887,Admitted,Female,C
728,Rejected,Male,A
1675,Rejected,Male,C
3230,Admitted,Male,E
2997,Rejected,Female,D
3201,Rejected,Female,D
225,Admitted,Male,A
3500,Admitted,Female,E
237,Admitted,Male,A
1069,Admitted,Male,B
758,Rejected,Male,A
1608,Admitted,Male,C
1177,Admitted,Male,B
4470,Rejected,Female,F
2594,Rejected,Male,D
1927,Admitted,Female,C
3116,Rejected,Female,D
734,Rejected,Male,A
3794,Rejected,Female,E
356,Admitted,Male,A
3848,Rejected,Male,F
855,Admitted,Female,A
1754,Rejected,Male,C
3621,Rejected,Female,E
4448,Rejected,Female,F
1197,Admitted,Male,B
3878,Rejected,Male,F
3491,Admitted,Female,E
1319,Rejected,Male,B
38,Admitted,Male,A
1406,Rejected,Male,B
1982,Admitted,Female,C
853,Admitted,Female,A
2949,Admitted,Female,D
4288,Rejected,Female,F
4298,Rejected,Female,F
1611,Admitted,Male,C
4381,Rejected,Female,F
2328,Rejected,Female,C
83,Admitted,Male,A
3476,Admitted,Female,E
1500,Admitted,Female,B
3464,Admitted,Female,E
3442,Admitted,Female,E
3613,Rejected,Female,E
2568,Admitted,Male,D
4490,Rejected,Female,F
2248,Rejected,Female,C
1889,Admitted,Female,C
2705,Rejected,Male,D
422,Admitted,Male,A
2007,Admitted,Female,C
631,Rejected,Male,A
4244,Rejected,Female,F
2365,Rejected,Female,C
1486,Rejected,Male,B
3983,Rejected,Male,F
2298,Rejected,Female,C
3699,Rejected,Female,E
2961,Admitted,Female,D
1907,Admitted,Female,C
348,Admitted,Male,A
2731,Rejected,Male,D
248,Admitted,Male,A
1774,Rejected,Male,C
595,Rejected,Male,A
286,Admitted,Male,A
116,Admitted,Male,A
39,Admitted,Male,A
2720,Rejected,Male,D
1219,Admitted,Male,B
3288,Rejected,Male,E
3943,Rejected,Male,F
108,Admitted,Male,A
1300,Rejected,Male,B
3258,Admitted,Male,E
3740,Rejected,Female,E
1262,Admitted,Male,B
2667,Rejected,Male,D
1395,Rejected,Male,B
416,Admitted,Male,A
1592,Admitted,Male,C
3569,Rejected,Female,E
4433,Rejected,Female,F
2523,Admitted,Male,D
2935,Admitted,Female,D
1627,Admitted,Male,C
426,Admitted,Male,A
797,Rejected,Male,A
3354,Rejected,Male,E
2838,Rejected,Male,D
3570,Rejected,Female,E
3380,Rejected,Male,E
1801,Rejected,Male,C
1263,Admitted,Male,B
4324,Rejected,Female,F
1632,Admitted,Male,C
1783,Rejected,Male,C
3228,Rejected,Female,D
2177,Rejected,Female,C
2588,Rejected,Male,D
3614,Rejected,Female,E
4028,Rejected,Male,F
1597,Admitted,Male,C
3572,Rejected,Female,E
2852,Rejected,Male,D
2499,Admitted,Male,D
1862,Admitted,Female,C
1114,Admitted,Male,B
2256,Rejected,Female,C
2857,Admitted,Female,D
868,Admitted,Female,A
2848,Rejected,Male,D
3090,Rejected,Female,D
139,Admitted,Male,A
1044,Admitted,Male,B
4238,Rejected,Female,F
4115,Rejected,Male,F
769,Rejected,Male,A
2671,Rejected,Male,D
3033,Rejected,Female,D
3961,Rejected,Male,F
2583,Rejected,Male,D
1496,Admitted,Female,B
489,Admitted,Male,A
456,Admitted,Male,A
1546,Admitted,Male,C
2509,Admitted,Male,D
3035,Rejected,Female,D
2206,Rejected,Female,C
3362,Rejected,Male,E
3608,Rejected,Female,E
1682,Rejected,Male,C
3358,Rejected,Male,E
2061,Rejected,Female,C
479,Admitted,Male,A
2886,Admitted,Female,D
1995,Admitted,Female,C
2765,Rejected,Male,D
3122,Rejected,Female,D
2071,Rejected,Female,C
4113,Rejected,Male,F
3412,Rejected,Male,E
1539,Admitted,Male,C
1788,Rejected,Male,C
498,Admitted,Male,A
1978,Admitted,Female,C
1859,Admitted,Female,C
3447,Admitted,Female,E
3466,Admitted,Female,E
3477,Admitted,Female,E
3513,Admitted,Female,E
3075,Rejected,Female,D
3857,Rejected,Male,F
3164,Rejected,Female,D
240,Admitted,Male,A
4422,Rejected,Female,F
2827,Rejected,Male,D
146,Admitted,Male,A
2631,Rejected,Male,D
1264,Admitted,Male,B
1988,Admitted,Female,C
3684,Rejected,Female,E
3012,Rejected,Female,D
3440,Admitted,Female,E
2480,Admitted,Male,D
1808,Rejected,Male,C
1405,Rejected,Male,B
641,Rejected,Male,A
